{
    "DNDConfig": null,
    "_height_": {
        "type": "ref",
        "value": "preferred"
    },
    "_margin_": [
        0,
        0,
        0,
        0
    ],
    "_orientation_": 6,
    "_padding_": [
        0,
        0,
        0,
        0
    ],
    "_percent_": true,
    "_skin_": "s61886db45824820846e292717ca8077",
    "allboxes": [],
    "autogrowmode": 1,
    "canUpdateUI": true,
    "children": [
        "flxWeeklyAdContents",
        "flxBottomSpacer"
    ],
    "clipbounds": true,
    "containerId": true,
    "containerweight": 100,
    "enablescrolling": true,
    "id": "flxWeeklyAdDisclaimer",
    "info": null,
    "isTemplate": true,
    "isvisible": true,
    "kuid": "ff549daf623f47339bb79f0f1b8bd119",
    "layouttype": 4,
    "name": "kony.ui.FlexContainer",
    "parent": "tempDisclaimer",
    "pf": "tempDisclaimer",
    "snapgridsize": 10,
    "snaptogrid": true,
    "wType": "FlexContainer",
    "widgetalignment": 1
}