{
    "@class": "com.kony.gen.viz.model.component.KVizButton",
    "DNDConfig": null,
    "__parentReadjusting__": false,
    "_bottom_": {
        "type": "string",
        "value": "13dp"
    },
    "_height_": {
        "type": "string",
        "value": "30dp"
    },
    "_left_": {
        "type": "string",
        "value": "145dp"
    },
    "_margin_": [
        6,
        6,
        6,
        6
    ],
    "_padding_": [
        0,
        0,
        0,
        0
    ],
    "_skin_": "sd5bdfc3d56745149441a0d64e982ccc",
    "_text_": "MY ACCOUNT",
    "_width_": {
        "type": "string",
        "value": "120dp"
    },
    "canUpdateUI": true,
    "containerweight": 100,
    "contentalignment": 5,
    "displaytext": true,
    "focusskin": "s6084e06934a46dbbbdd494d400b9c53",
    "id": "btnMyAccount",
    "info": null,
    "isvisible": true,
    "kuid": "d915f12beeca43b485b7add0bc090a18",
    "name": "kony.ui.Button",
    "parent": "flxShortProfile",
    "pf": "masterHamMenu",
    "texti18n": "i18n.phone.masterHamMenu.btnMyAccount",
    "wType": "Button",
    "zindex": 1
}