{
    "__parentReadjusting__": false,
    "_skin_": "s4edd09d5ad842c7b4322d283ea53066",
    "_srcKuid_": "3c67f31e81e64b059b53aa42486d9838",
    "canUpdateUI": true,
    "context": {},
    "dataDiffs": {
        "centerY": {
            "type": "string",
            "value": "15dp"
        },
        "height": {
            "type": "string",
            "value": "13.93%"
        },
        "id": "btnClearVoiceSearch",
        "right": {
            "type": "string",
            "value": "9dp"
        },
        "text": "X",
        "top": {
            "type": "string",
            "value": "0dp"
        },
        "width": {
            "type": "string",
            "value": "8%"
        },
        "zIndex": 1
    },
    "id": "btnClearVoiceSearch",
    "instanceOf": "3c67f31e81e64b059b53aa42486d9838",
    "isvisible": false,
    "kuid": "mc02f3fc7e0549a7a0b9e3ca4a73d849",
    "masterInstance": true,
    "name": "kony.ui.Button",
    "parent": "flxContainerSearchInner",
    "pf": "frmWeeklyAd",
    "topLevelInstanceKUID": "ma6de36e15d54c39ba97db0e400fd4bd",
    "wType": "Button"
}