{
    "__parentReadjusting__": false,
    "_skin_": "s94afb9bbe284a01976694b74ee88390",
    "_srcKuid_": "a8198a618fdc44efb975cd81a6521b5a",
    "canUpdateUI": true,
    "children": [
        "flxSeparator",
        "imgBack",
        "txtSearchField",
        "flxVoice",
        "flxVisual",
        "flxBarCode",
        "btnClearVoiceSearch"
    ],
    "context": {},
    "dataDiffs": {
        "clipBounds": true,
        "enableScrolling": true,
        "height": {
            "type": "string",
            "value": "130dp"
        },
        "id": "flxContainerSearchInner",
        "layoutType": 2,
        "left": {
            "type": "string",
            "value": "2%"
        },
        "right": {
            "type": "string",
            "value": "2%"
        },
        "snapGridSize": 10,
        "snapToGrid": true,
        "top": {
            "type": "string",
            "value": "67dp"
        },
        "width": {
            "type": "string",
            "value": "96%"
        },
        "zIndex": 8
    },
    "id": "flxContainerSearchInner",
    "instanceOf": "a8198a618fdc44efb975cd81a6521b5a",
    "isvisible": true,
    "kuid": "mf241f4a4dd143c1985b166bf2746f6c",
    "layouttype": 2,
    "masterInstance": true,
    "name": "kony.ui.FlexContainer",
    "parent": "flxContainerSearchExpand",
    "pf": "frmWeeklyAd",
    "topLevelInstanceKUID": "ma6de36e15d54c39ba97db0e400fd4bd",
    "wType": "FlexContainer"
}