{
    "__parentReadjusting__": false,
    "_padding_": [
        0,
        0,
        0,
        0
    ],
    "_skin_": "scf7007af40b477a932ae4852d207235",
    "_srcKuid_": "81cff92041064ae58bea9509f57af13e",
    "canUpdateUI": true,
    "context": {},
    "dataDiffs": {
        "centerX": {
            "type": "string",
            "value": "50%"
        },
        "centerY": {
            "type": "string",
            "value": "50%"
        },
        "height": {
            "type": "string",
            "value": "18dp"
        },
        "id": "btnBarCode",
        "right": {
            "type": "number",
            "value": "0"
        },
        "text": "",
        "top": {
            "type": "string",
            "value": "0dp"
        },
        "width": {
            "type": "string",
            "value": "25dp"
        },
        "zIndex": 1
    },
    "id": "btnBarCode",
    "instanceOf": "81cff92041064ae58bea9509f57af13e",
    "isvisible": true,
    "kuid": "m57a6fdd56c14beeb71c161190e6e36a",
    "masterInstance": true,
    "name": "kony.ui.Button",
    "parent": "flxBarcodeContainer",
    "pf": "frmProducts",
    "topLevelInstanceKUID": "m2923649df2548368b3cc2bca7e7ec83",
    "wType": "Button"
}