{
    "__parentReadjusting__": false,
    "_skin_": "s61886db45824820846e292717ca8077",
    "_srcKuid_": "m5c7135747c64b26a5413f7dd943ad38",
    "canUpdateUI": true,
    "children": [
        "lblEvents",
        "btnEvents"
    ],
    "context": {},
    "dataDiffs": {
        "clipBounds": true,
        "enableScrolling": true,
        "height": {
            "type": "string",
            "value": "100%"
        },
        "id": "flxEvents",
        "layoutType": 2,
        "left": {
            "type": "string",
            "value": "0dp"
        },
        "snapGridSize": 10,
        "snapToGrid": true,
        "top": {
            "type": "string",
            "value": "0dp"
        },
        "width": {
            "type": "string",
            "value": "20%"
        },
        "zIndex": 1
    },
    "id": "flxEvents",
    "instanceOf": "m5c7135747c64b26a5413f7dd943ad38",
    "isvisible": true,
    "kuid": "mcb127778b3d4fa0b7c908e6bca9338f",
    "layouttype": 2,
    "masterInstance": true,
    "name": "kony.ui.FlexContainer",
    "parent": "flxFooterWrap",
    "pf": "frmRewardsProfileInterests",
    "topLevelInstanceKUID": "mc2ef5c9802e475eb5589e7c1c7d7a80",
    "wType": "FlexContainer"
}