{
    "__parentReadjusting__": false,
    "_padding_": [
        0,
        0,
        0,
        0
    ],
    "_skin_": "sc95763aaead4250b98834fcdba00ad0",
    "_srcKuid_": "m1d1b440253e4d5d8b063ea1abe2bcc6",
    "canUpdateUI": true,
    "context": {},
    "dataDiffs": {
        "bottom": {
            "type": "string",
            "value": "5dp"
        },
        "centerX": {
            "type": "string",
            "value": "50%"
        },
        "height": {
            "type": "ref",
            "value": "preferred"
        },
        "i18n_text": "i18n.phone.masterFooter.lblProjects",
        "id": "lblProjects",
        "text": "Projects",
        "textStyle": {},
        "width": {
            "type": "string",
            "value": "100%"
        },
        "zIndex": 1
    },
    "id": "lblProjects",
    "instanceOf": "m1d1b440253e4d5d8b063ea1abe2bcc6",
    "isvisible": true,
    "kuid": "m3c40936e2cd43ac9daf0f9d61bf65e5",
    "masterInstance": true,
    "name": "kony.ui.Label",
    "parent": "flxProjects",
    "pf": "frmRewardsProfileInterests",
    "topLevelInstanceKUID": "mc2ef5c9802e475eb5589e7c1c7d7a80",
    "wType": "Label"
}