{
    "__parentReadjusting__": false,
    "_padding_": [
        0,
        0,
        0,
        0
    ],
    "_skin_": "s11ac4047b5c4c39b96a7060b2cd6179",
    "_srcKuid_": "85842cae47da4b468d590c5a32be11c7",
    "areflexpropsreferenced": true,
    "canUpdateUI": true,
    "children": [
        "lblCouponTitle",
        "btnDone",
        "btnCoupon",
        "flxSeparatorLine",
        "btnCouponMainMaster"
    ],
    "context": {},
    "dataDiffs": {
        "id": "flxCouponHeader"
    },
    "id": "flxCouponHeader",
    "instanceOf": "85842cae47da4b468d590c5a32be11c7",
    "isdatareferenced": true,
    "isvisible": true,
    "kuid": "m1bfc7f552484d11ae4f66f847abbedf",
    "masterInstance": true,
    "name": "kony.ui.FlexContainer",
    "parent": "flexCouponContainer",
    "pf": "frmProjectsList",
    "topLevelInstanceKUID": "mba2c0a9412e4ae5989cc6fa2f2d2e39",
    "wType": "FlexContainer"
}