{
    "__parentReadjusting__": false,
    "_padding_": [
        0,
        0,
        0,
        0
    ],
    "_skin_": "s1246c5398d54b2098984d38ceb23dd1",
    "_srcKuid_": "0d10213c802748b8b0aa91881abfa20c",
    "areflexpropsreferenced": true,
    "canUpdateUI": true,
    "children": [],
    "context": {},
    "dataDiffs": {
        "id": "flxOverlay"
    },
    "id": "flxOverlay",
    "instanceOf": "0d10213c802748b8b0aa91881abfa20c",
    "isdatareferenced": true,
    "isvisible": true,
    "kuid": "me14485d55254c4fa0499cdf59ff13d2",
    "masterInstance": true,
    "name": "kony.ui.FlexContainer",
    "parent": "flexCouponContainer",
    "pf": "frmProjectsList",
    "topLevelInstanceKUID": "mba2c0a9412e4ae5989cc6fa2f2d2e39",
    "wType": "FlexContainer"
}