{
    "__parentReadjusting__": false,
    "_padding_": [
        0,
        0,
        0,
        0
    ],
    "_skin_": "sb1507d0a0254310b90f066d847fec2e",
    "_srcKuid_": "3c4d0073184b42979a773cf82dc6ed69",
    "areflexpropsreferenced": true,
    "canUpdateUI": true,
    "children": [],
    "context": {},
    "dataDiffs": {
        "id": "flxSeparatorLine"
    },
    "id": "flxSeparatorLine",
    "instanceOf": "3c4d0073184b42979a773cf82dc6ed69",
    "isdatareferenced": true,
    "isvisible": true,
    "kuid": "mc760030e6fb4a29b0664df0ebd38e01",
    "masterInstance": true,
    "name": "kony.ui.FlexContainer",
    "parent": "flxCouponHeader",
    "pf": "frmProjectsList",
    "topLevelInstanceKUID": "mba2c0a9412e4ae5989cc6fa2f2d2e39",
    "wType": "FlexContainer"
}