{
    "__parentReadjusting__": false,
    "_padding_": [
        0,
        0,
        0,
        0
    ],
    "_skin_": "sc95763aaead4250b98834fcdba00ad0",
    "_srcKuid_": "fba9208c41dd4a779c1d62c62951e260",
    "canUpdateUI": true,
    "context": {},
    "dataDiffs": {
        "bottom": {
            "type": "string",
            "value": "5dp"
        },
        "centerX": {
            "type": "string",
            "value": "50%"
        },
        "height": {
            "type": "ref",
            "value": "preferred"
        },
        "id": "lblCoupons",
        "text": "Coupons",
        "textStyle": {},
        "width": {
            "type": "string",
            "value": "100%"
        },
        "zIndex": 1
    },
    "id": "lblCoupons",
    "instanceOf": "fba9208c41dd4a779c1d62c62951e260",
    "isvisible": true,
    "kuid": "m402437f74774d4aa0c9d2ec82959b4b",
    "masterInstance": true,
    "name": "kony.ui.Label",
    "parent": "flxMyCoupons",
    "pf": "frmRewardsProfileStep1",
    "topLevelInstanceKUID": "m30791cd80af434ebc36ffe1e7705bfe",
    "wType": "Label"
}