{
    "@class": "com.kony.gen.viz.model.component.KVizButton",
    "DNDConfig": null,
    "__parentReadjusting__": false,
    "_height_": {
        "type": "string",
        "value": "100%"
    },
    "_margin_": [
        6,
        6,
        6,
        6
    ],
    "_padding_": [
        0,
        0,
        3,
        0
    ],
    "_right_": {
        "type": "string",
        "value": "0dp"
    },
    "_skin_": "s1af5ebe65fe4f218aa77bf08409cee9",
    "_text_": "EDIT",
    "_top_": {
        "type": "string",
        "value": "0dp"
    },
    "_width_": {
        "type": "string",
        "value": "40%"
    },
    "canUpdateUI": true,
    "containerweight": 100,
    "contentalignment": 6,
    "displaytext": true,
    "focusskin": "s116e03af0364cf58acb3e671df5a402",
    "id": "btnPersonal",
    "info": null,
    "iphone": {
        "psp": {
            "showProgressIndicator": false
        }
    },
    "isvisible": true,
    "kuid": "f2dd1e91ea314b31ae1be404a26251b1",
    "name": "kony.ui.Button",
    "paddinginpixel": false,
    "parent": "FlexContainer0b4738c7579e24b",
    "pf": "frmReviewProfile",
    "showprogressindicator": false,
    "texti18n": "i18n.phone.common.edit",
    "wType": "Button",
    "zindex": 1
}