{
    "__parentReadjusting__": false,
    "_padding_": [
        0,
        0,
        0,
        0
    ],
    "_skin_": "s61886db45824820846e292717ca8077",
    "_srcKuid_": "18ae86c209884deaaab562f5aab7c830",
    "areflexpropsreferenced": true,
    "canUpdateUI": true,
    "children": [
        "lblNoBarcode",
        "lblNoBarCodeDetails",
        "lblNoBarcodeValidityRestrictions"
    ],
    "context": {},
    "dataDiffs": {
        "id": "flexInner2",
        "layoutType": 4
    },
    "id": "flexInner2",
    "instanceOf": "18ae86c209884deaaab562f5aab7c830",
    "isdatareferenced": true,
    "isvisible": true,
    "kuid": "m0bf211247c6411ca7a9976b93d74bd7",
    "layouttype": 4,
    "masterInstance": true,
    "name": "kony.ui.FlexContainer",
    "parent": "flexRestrictionsCode",
    "pf": "frmProductsList",
    "topLevelInstanceKUID": "m00ef78827f24b6b937c14cfe3774144",
    "wType": "FlexContainer"
}