{
    "__parentReadjusting__": false,
    "_padding_": [
        0,
        0,
        0,
        0
    ],
    "_skin_": "s83969b0bd9f4c6b9202df4eeaa19b08",
    "_srcKuid_": "c179c4e79a17416b8c49775edc23cc9e",
    "areflexpropsreferenced": true,
    "canUpdateUI": true,
    "children": [
        "imgBarcode"
    ],
    "context": {},
    "dataDiffs": {
        "id": "flxBarCodeWrap"
    },
    "id": "flxBarCodeWrap",
    "instanceOf": "c179c4e79a17416b8c49775edc23cc9e",
    "isdatareferenced": true,
    "isvisible": false,
    "kuid": "mc0d9861235a4f78a71336419fe6b450",
    "masterInstance": true,
    "name": "kony.ui.FlexContainer",
    "parent": "flxCouponRewards",
    "pf": "frmProductsList",
    "topLevelInstanceKUID": "m00ef78827f24b6b937c14cfe3774144",
    "wType": "FlexContainer"
}