{
    "__parentReadjusting__": false,
    "_padding_": [
        0,
        0,
        0,
        0
    ],
    "_skin_": "s237066b81ec44b691920d4bc6949f69",
    "_srcKuid_": "3b54052916d34ba998995213ecc7b8a2",
    "areflexpropsreferenced": true,
    "canUpdateUI": true,
    "context": {},
    "dataDiffs": {
        "id": "lblRewardText"
    },
    "id": "lblRewardText",
    "instanceOf": "3b54052916d34ba998995213ecc7b8a2",
    "isdatareferenced": true,
    "isvisible": true,
    "kuid": "mac730d050214c1a962a0fcc858851f2",
    "masterInstance": true,
    "name": "kony.ui.Label",
    "parent": "flxRewardTxt",
    "pf": "frmProductsList",
    "topLevelInstanceKUID": "m00ef78827f24b6b937c14cfe3774144",
    "wType": "Label"
}