{
    "android": {
        "font_name": "Gotham Book",
        "font_size": 86,
        "isForked": false
    },
    "background_color": "ffffff00",
    "bg_type": "one",
    "border_color": "28282800",
    "border_style": "plain",
    "border_type": 0,
    "border_width": 0,
    "desktopweb": {
        "font_name": "Helvetica",
        "font_size": 86,
        "isForked": false
    },
    "fontSizeInPx": false,
    "font_color": "606060ff",
    "font_name": "Helvetica",
    "font_size": 86,
    "font_style": "normal",
    "font_weight": "normal",
    "ipad": {
        "font_name": "Helvetica",
        "font_size": 86,
        "isForked": false
    },
    "iphone": {
        "font_name": "Gotham Book",
        "font_size": 86,
        "isForked": false
    },
    "isDefaultSkin": false,
    "kiosk": {
        "font_name": "GenericMonospace",
        "font_size": 86,
        "isForked": false
    },
    "kuid": "s60b544b5cb64baea46fef8e6a321c07",
    "spaan": {
        "font_name": "Gotham Book",
        "font_size": 86,
        "isForked": false
    },
    "spaandroidtablet": {
        "font_name": "Helvetica",
        "font_size": 86,
        "isForked": false
    },
    "spabb": {
        "font_name": "Helvetica",
        "font_size": 86,
        "isForked": false
    },
    "spaip": {
        "font_name": "Gotham Book",
        "font_size": 86,
        "isForked": false
    },
    "spaipad": {
        "font_name": "Helvetica",
        "font_size": 86,
        "isForked": false
    },
    "spawindowstablet": {
        "font_name": "Helvetica",
        "font_size": 86,
        "isForked": false
    },
    "spawinphone8": {
        "font_name": "Helvetica",
        "font_size": 86,
        "isForked": false
    },
    "tabrcandroid": {
        "font_name": "Helvetica",
        "font_size": 86,
        "isForked": false
    },
    "wType": "TextField",
    "watchos": {
        "font_name": "Helvetica",
        "font_size": 86,
        "isForked": false
    },
    "windows8": {
        "font_name": "GenericMonospace",
        "font_size": 86,
        "isForked": false
    },
    "winphone8": {
        "font_name": "GenericMonospace",
        "font_size": 86,
        "isForked": false
    }
}