{
    "background_color": "f7f7f7ff",
    "bg_type": "one",
    "border_color": "000000ff",
    "border_style": "plain",
    "border_type": 0,
    "border_width": 0,
    "isDefaultSkin": false,
    "kuid": "sd9f5707263e45b1aa34323b60fcefc3",
    "wType": "FlexContainer"
}