{
    "android": {
        "background_image": "talk_bubble.png",
        "bg_type": "image"
    },
    "background_image": "talk_bubble.png",
    "bg_type": "image",
    "border_color": "000000ff",
    "border_style": "plain",
    "border_type": 0,
    "border_width": 0,
    "iphone": {
        "background_image": "talk_bubble.png",
        "bg_type": "image"
    },
    "isDefaultSkin": false,
    "kuid": "s778b1f49d624a4daf36506c70699f4b",
    "wType": "FlexContainer"
}