{
  "android": {
    "font_name": "Gotham Bold",
    "font_size": 210,
    "isForked": false
  },
  "background_color": "00000000",
  "bg_type": "one",
  "border_color": "424242ff",
  "border_style": "plain",
  "border_type": 0,
  "border_width": 0,
  "desktopweb": {
    "font_name": "Helvetica",
    "font_size": 550,
    "isForked": false
  },
  "fontSizeInPx": true,
  "font_color": "d30e2cff",
  "font_name": "Helvetica",
  "font_size": 314,
  "font_style": "normal",
  "font_weight": "normal",
  "ipad": {
    "font_name": "Helvetica",
    "font_size": 314,
    "isForked": false
  },
  "iphone": {
    "font_name": "Gotham Bold",
    "font_size": 314,
    "isForked": false
  },
  "isDefaultSkin": false,
  "kiosk": {
    "font_name": "GenericMonospace",
    "font_size": 550,
    "isForked": false
  },
  "kuid": "sd22a05f92a44f249bada9ba573948e1",
  "spaan": {
    "font_name": "Gotham Bold",
    "font_size": 293,
    "isForked": false
  },
  "spaandroidtablet": {
    "font_name": "Helvetica",
    "font_size": 275,
    "isForked": false
  },
  "spabb": {
    "font_name": "Helvetica",
    "font_size": 367,
    "isForked": false
  },
  "spaip": {
    "font_name": "Gotham Bold",
    "font_size": 367,
    "isForked": false
  },
  "spaipad": {
    "font_name": "Helvetica",
    "font_size": 259,
    "isForked": false
  },
  "spawindowstablet": {
    "font_name": "Helvetica",
    "font_size": 259,
    "isForked": false
  },
  "spawinphone8": {
    "font_name": "Helvetica",
    "font_size": 367,
    "isForked": false
  },
  "tabrcandroid": {
    "font_name": "Helvetica",
    "font_size": 521,
    "isForked": false
  },
  "wType": "Label",
  "watchos": {
    "font_name": "Helvetica",
    "font_size": 314,
    "isForked": false
  },
  "windows8": {
    "font_name": "GenericMonospace",
    "font_size": 215,
    "isForked": false
  },
  "winphone8": {
    "font_name": "GenericMonospace",
    "font_size": 293,
    "isForked": false
  }
}