{
    "background_color": "f6f6f6ff",
    "bg_type": "one",
    "border_color": "00000000",
    "border_radius": 2,
    "border_style": "custom",
    "border_type": 0,
    "border_width": 1,
    "isDefaultSkin": false,
    "kuid": "sc0d0c57b05d4e8dabf05c002b274f1e",
    "wType": "FlexContainer"
}