{
  "android": {
    "font_name": "icon",
    "font_size": 114,
    "isForked": false
  },
  "background_color": "56a9dd07",
  "bg_type": "one",
  "border_color": "ffffffff",
  "border_style": "plain",
  "border_type": 0,
  "border_width": 0,
  "desktopweb": {
    "font_name": "Helvetica",
    "font_size": 114,
    "isForked": false
  },
  "fontSizeInPx": false,
  "font_color": "d30e2cff",
  "font_name": "Helvetica",
  "font_size": 114,
  "font_style": "normal",
  "font_weight": "normal",
  "ipad": {
    "font_name": "Helvetica",
    "font_size": 114,
    "isForked": false
  },
  "iphone": {
    "font_name": "icon",
    "font_size": 114,
    "isForked": false
  },
  "isDefaultSkin": false,
  "kiosk": {
    "font_name": "GenericMonospace",
    "font_size": 114,
    "isForked": false
  },
  "kuid": "s397ef5b4d324bc592de1562713f7684",
  "spaan": {
    "font_name": "Helvetica",
    "font_size": 114,
    "isForked": false
  },
  "spaandroidtablet": {
    "font_name": "Helvetica",
    "font_size": 114,
    "isForked": false
  },
  "spabb": {
    "font_name": "Helvetica",
    "font_size": 114,
    "isForked": false
  },
  "spaip": {
    "font_name": "Helvetica",
    "font_size": 114,
    "isForked": false
  },
  "spaipad": {
    "font_name": "Helvetica",
    "font_size": 114,
    "isForked": false
  },
  "spawindowstablet": {
    "font_name": "Helvetica",
    "font_size": 114,
    "isForked": false
  },
  "spawinphone8": {
    "font_name": "Helvetica",
    "font_size": 114,
    "isForked": false
  },
  "tabrcandroid": {
    "font_name": "Helvetica",
    "font_size": 114,
    "isForked": false
  },
  "wType": "Button",
  "watchos": {
    "font_name": "Helvetica",
    "font_size": 114,
    "isForked": false
  },
  "windows8": {
    "font_name": "GenericMonospace",
    "font_size": 114,
    "isForked": false
  },
  "winphone8": {
    "font_name": "GenericMonospace",
    "font_size": 114,
    "isForked": false
  }
}