{
  "background_color": "000000ff",
  "bg_type": "one",
  "border_color": "000000ff",
  "border_style": "plain",
  "border_type": 0,
  "border_width": 0,
  "isDefaultSkin": false,
  "kuid": "sb7af026529243c1a2b6569d72a7970e",
  "wType": "FlexContainer"
}