{
  "background_color": "d30e2cff",
  "bg_type": "one",
  "border_color": "979797ff",
  "border_style": "plain",
  "border_type": 0,
  "border_width": 0,
  "isDefaultSkin": false,
  "kuid": "s11184f9d91b409ea6508a4b37838f22",
  "wType": "FlexContainer"
}