{
  "background_color": "00000000",
  "bg_type": "one",
  "border_color": "d1d1d1ff",
  "border_style": "plain",
  "border_type": 0,
  "border_width": 0,
  "isDefaultSkin": false,
  "kuid": "s395d2d61c974471987e3d64a86c8324",
  "wType": "FlexContainer"
}