{
  "android": {
    "font_name": "Gotham Medium",
    "font_size": 86,
    "isForked": false
  },
  "background_color": "00000000",
  "bg_type": "one",
  "border_color": "424242ff",
  "border_style": "plain",
  "border_type": 0,
  "border_width": 0,
  "desktopweb": {
    "font_name": "Helvetica",
    "font_size": 86,
    "isForked": false
  },
  "fontSizeInPx": false,
  "font_color": "000000ff",
  "font_name": "Helvetica",
  "font_size": 86,
  "font_style": "normal",
  "font_weight": "normal",
  "ipad": {
    "font_name": "Helvetica",
    "font_size": 86,
    "isForked": false
  },
  "iphone": {
    "font_name": "Gotham Book",
    "font_size": 86,
    "isForked": false
  },
  "isDefaultSkin": false,
  "kiosk": {
    "font_name": "GenericMonospace",
    "font_size": 86,
    "isForked": false
  },
  "kuid": "s4e3bf9229e74f89a9282d4ec97c3d96",
  "spaan": {
    "font_name": "Gotham Medium",
    "font_size": 86,
    "isForked": false
  },
  "spaandroidtablet": {
    "font_name": "Helvetica",
    "font_size": 86,
    "isForked": false
  },
  "spabb": {
    "font_name": "Helvetica",
    "font_size": 86,
    "isForked": false
  },
  "spaip": {
    "font_name": "Gotham Medium",
    "font_size": 86,
    "isForked": false
  },
  "spaipad": {
    "font_name": "Helvetica",
    "font_size": 86,
    "isForked": false
  },
  "spawindowstablet": {
    "font_name": "Helvetica",
    "font_size": 86,
    "isForked": false
  },
  "spawinphone8": {
    "font_name": "Helvetica",
    "font_size": 86,
    "isForked": false
  },
  "tabrcandroid": {
    "font_name": "Helvetica",
    "font_size": 86,
    "isForked": false
  },
  "wType": "Label",
  "watchos": {
    "font_name": "Helvetica",
    "font_size": 86,
    "isForked": false
  },
  "windows8": {
    "font_name": "GenericMonospace",
    "font_size": 86,
    "isForked": false
  },
  "winphone8": {
    "font_name": "GenericMonospace",
    "font_size": 86,
    "isForked": false
  }
}