{
  "background_color": "3f96beff",
  "bg_type": "one",
  "border_color": "ffffffff",
  "border_style": "plain",
  "border_type": 0,
  "border_width": 0,
  "font_color": "ffffffff",
  "font_name": "Arial",
  "font_size": 129,
  "font_style": "normal",
  "font_weight": "normal",
  "isDefaultSkin": true,
  "kuid": "see44a5d1697416c8dd78d3360bf1b45",
  "wType": "TabPane"
}