{
    "__parentReadjusting__": false,
    "_padding_": [
        0,
        0,
        0,
        0
    ],
    "_skin_": "s61886db45824820846e292717ca8077",
    "_srcKuid_": "e83717ee3c7a4728a56b1d0fd3a6bbc8",
    "_width_": {
        "type": "string",
        "value": "50dp"
    },
    "areflexpropsreferenced": true,
    "canUpdateUI": true,
    "children": [
        "btnPopupClose",
        "Image0a5620b6427ec41"
    ],
    "context": {},
    "dataDiffs": {
        "id": "flxCloseBtnWrap"
    },
    "id": "flxCloseBtnWrap",
    "instanceOf": "e83717ee3c7a4728a56b1d0fd3a6bbc8",
    "isdatareferenced": true,
    "isvisible": true,
    "kuid": "m8f70d4724be43e3aba78c14cafd8abf",
    "masterInstance": true,
    "name": "kony.ui.FlexContainer",
    "parent": "flxCouponDetailsScroll",
    "pf": "frmHome",
    "topLevelInstanceKUID": "md4d81543a6a45b5a81a54ff5e61c0fa",
    "wType": "FlexContainer"
}