{
    "__parentReadjusting__": false,
    "_padding_": [
        0,
        0,
        0,
        0
    ],
    "_skin_": "s61886db45824820846e292717ca8077",
    "_srcKuid_": "b34968a9896a402c866af24c5fe8cfdb",
    "areflexpropsreferenced": true,
    "canUpdateUI": true,
    "children": [
        "lblRewardText"
    ],
    "context": {},
    "dataDiffs": {
        "id": "flxRewardTxt"
    },
    "id": "flxRewardTxt",
    "instanceOf": "b34968a9896a402c866af24c5fe8cfdb",
    "isdatareferenced": true,
    "isvisible": true,
    "kuid": "m9aea025aa1b4b40ba2e9075b4f76931",
    "masterInstance": true,
    "name": "kony.ui.FlexContainer",
    "parent": "flxCouponRewards",
    "pf": "frmHome",
    "topLevelInstanceKUID": "md4d81543a6a45b5a81a54ff5e61c0fa",
    "wType": "FlexContainer"
}