{
    "@class": "com.kony.gen.viz.model.component.KVizButton",
    "DNDConfig": null,
    "__parentReadjusting__": false,
    "_height_": {
        "type": "string",
        "value": "100%"
    },
    "_left_": {
        "type": "string",
        "value": "50%"
    },
    "_margin_": [
        6,
        6,
        6,
        6
    ],
    "_padding_": [
        0,
        0,
        0,
        0
    ],
    "_skin_": "s12e6a3c8fd5478ab9e610ae1606fefd",
    "_text_": "",
    "_top_": {
        "type": "string",
        "value": "0dp"
    },
    "_width_": {
        "type": "string",
        "value": "50%"
    },
    "canUpdateUI": true,
    "containerweight": 100,
    "contentalignment": 5,
    "displaytext": true,
    "focusskin": "s12e6a3c8fd5478ab9e610ae1606fefd",
    "id": "btnProjects",
    "info": null,
    "iphone": {
        "psp": {
            "showProgressIndicator": false
        }
    },
    "isvisible": true,
    "kuid": "20ff46500c5c4809bc1235e3db1eb58f",
    "name": "kony.ui.Button",
    "parent": "flxProdProjTabs",
    "pf": "frmProductsList",
    "showprogressindicator": false,
    "wType": "Button",
    "zindex": 1
}