{
    "@class": "com.kony.gen.viz.model.component.KVizLabel",
    "DNDConfig": null,
    "__parentReadjusting__": false,
    "_height_": {
        "type": "string",
        "value": "100%"
    },
    "_left_": {
        "type": "string",
        "value": "10%"
    },
    "_margin_": [
        1,
        1,
        1,
        1
    ],
    "_padding_": [
        0,
        0,
        10,
        0
    ],
    "_skin_": "s561a7ea822c462d954e1dd6548c9580",
    "_text_": "back",
    "_top_": {
        "type": "string",
        "value": "0dp"
    },
    "_width_": {
        "type": "ref",
        "value": "preferred"
    },
    "_wrapping_": 2,
    "android": {
        "textStyle": {
            "letterSpacing": 0,
            "strikeThrough": false
        }
    },
    "canUpdateUI": true,
    "containerweight": 100,
    "contentalignment": 4,
    "id": "lblBack",
    "info": null,
    "ipad": {
        "psp": {
            "wrapping": 2
        }
    },
    "iphone": {
        "psp": {
            "wrapping": 2
        }
    },
    "isvisible": true,
    "kuid": "i259505fae4648f2981569c6d71ee7e9",
    "name": "kony.ui.Label",
    "paddinginpixel": false,
    "parent": "flxCategory",
    "pf": "frmProductsList",
    "texti18n": "i18n.phone.common.btnBack",
    "textstyle": {},
    "tooltip": "",
    "wType": "Label",
    "zindex": 1
}