{
    "__parentReadjusting__": false,
    "_skin_": "s61886db45824820846e292717ca8077",
    "_srcKuid_": "mb8c000e4d0949049e85cd0b22cd847b",
    "canUpdateUI": true,
    "children": [
        "lblWeeklyAd",
        "btnWeeklyAd"
    ],
    "context": {},
    "dataDiffs": {
        "clipBounds": true,
        "enableScrolling": true,
        "height": {
            "type": "string",
            "value": "100%"
        },
        "id": "flxWeeklyAd",
        "layoutType": 2,
        "left": {
            "type": "string",
            "value": "0dp"
        },
        "snapGridSize": 10,
        "snapToGrid": true,
        "top": {
            "type": "string",
            "value": "0dp"
        },
        "width": {
            "type": "string",
            "value": "20%"
        },
        "zIndex": 1
    },
    "id": "flxWeeklyAd",
    "instanceOf": "mb8c000e4d0949049e85cd0b22cd847b",
    "isvisible": true,
    "kuid": "m0ff0ec19cbc4b83abebfdf6c4b62c08",
    "layouttype": 2,
    "masterInstance": true,
    "name": "kony.ui.FlexContainer",
    "parent": "flxFooterWrap",
    "pf": "frmRewardsProfileSkills",
    "topLevelInstanceKUID": "m657962d09b049498693370a9242bf6d",
    "wType": "FlexContainer"
}