{
    "__parentReadjusting__": false,
    "_skin_": "s61886db45824820846e292717ca8077",
    "_srcKuid_": "md0bb6b8361241e0abe3f31d189fdaec",
    "canUpdateUI": true,
    "children": [
        "lblMore",
        "btnMore"
    ],
    "context": {},
    "dataDiffs": {
        "clipBounds": true,
        "enableScrolling": true,
        "height": {
            "type": "string",
            "value": "100%"
        },
        "id": "flxMore",
        "layoutType": 2,
        "left": {
            "type": "string",
            "value": "0dp"
        },
        "snapGridSize": 10,
        "snapToGrid": true,
        "top": {
            "type": "string",
            "value": "0dp"
        },
        "width": {
            "type": "string",
            "value": "20%"
        },
        "zIndex": 1
    },
    "id": "flxMore",
    "instanceOf": "md0bb6b8361241e0abe3f31d189fdaec",
    "isvisible": true,
    "kuid": "m587aeed096a47cd871e0ef777d7cdee",
    "layouttype": 2,
    "masterInstance": true,
    "name": "kony.ui.FlexContainer",
    "parent": "flxFooterWrap",
    "pf": "frmProjectsList",
    "topLevelInstanceKUID": "mbcafaf517644592b6f7fe2052e1b878",
    "wType": "FlexContainer"
}