{
    "@class": "com.kony.gen.viz.model.component.KVizButton",
    "DNDConfig": null,
    "__parentReadjusting__": false,
    "_height_": {
        "type": "string",
        "value": "40dp"
    },
    "_margin_": [
        6,
        6,
        6,
        6
    ],
    "_padding_": [
        0,
        0,
        0,
        0
    ],
    "_skin_": "sf6e8c22374f493d8f5aac12b0812d9d",
    "_text_": "SKIP",
    "_top_": {
        "type": "string",
        "value": "20dp"
    },
    "_width_": {
        "type": "string",
        "value": "94%"
    },
    "canUpdateUI": true,
    "centerx": {
        "type": "string",
        "value": "50%"
    },
    "containerweight": 100,
    "contentalignment": 5,
    "displaytext": true,
    "focusskin": "sc5b528b4cbc40039cd6730c91b53fe3",
    "id": "btnNextToRewardsSkills",
    "info": null,
    "iphone": {
        "psp": {
            "showProgressIndicator": false
        }
    },
    "isvisible": true,
    "kuid": "11e6267463cd4e0385442a0ec55ad2fe",
    "name": "kony.ui.Button",
    "parent": "flxMainContainer",
    "pf": "frmRewardsProfileInterests",
    "showprogressindicator": false,
    "texti18n": "i18n.phone.frmGuide.lblGuideControl43",
    "wType": "Button",
    "zindex": 1
}