{
    "DNDConfig": null,
    "__parentReadjusting__": false,
    "_height_": {
        "type": "string",
        "value": "100%"
    },
    "_left_": {
        "type": "string",
        "value": "0dp"
    },
    "_margin_": [
        0,
        0,
        0,
        0
    ],
    "_orientation_": 6,
    "_padding_": [
        0,
        0,
        0,
        0
    ],
    "_percent_": true,
    "_skin_": "s060da2a8fc94e58b8dcd9995aaf2bc6",
    "_top_": {
        "type": "string",
        "value": "0dp"
    },
    "_width_": {
        "type": "string",
        "value": "100%"
    },
    "allboxes": [],
    "allowhorizontalbounce": false,
    "allowverticalbounce": true,
    "bounces": true,
    "canUpdateUI": true,
    "children": [
        "flxTopSpacerDND",
        "rtxtQuestion",
        "CopyFlexContainer0792d6ad92f2e4b",
        "CopyFlexContainer0d1c034d1c6c748",
        "CopyFlexContainer05d8e19b94d5144",
        "CopyFlexContainer0c0e46e29453e49",
        "CopyFlexContainer00b268f47db8248",
        "FlexContainer0e885e995a5cc4e",
        "segInterests",
        "btnReset",
        "btnNextToRewardsSkills"
    ],
    "clipbounds": true,
    "containerweight": 100,
    "decelerat": false,
    "dragg": false,
    "enablescrolling": true,
    "horizontalscrollindicator": true,
    "id": "flxMainContainer",
    "info": null,
    "isvisible": true,
    "kuid": "5bca306be8ee489db97f50a8efe1596c",
    "layouttype": 4,
    "name": "kony.ui.FlexScrollContainer",
    "pagingenabled": false,
    "parent": "frmRewardsProfileInterests",
    "pf": "frmRewardsProfileInterests",
    "scrolldirection": 2,
    "snapgridsize": 10,
    "snaptogrid": true,
    "track": false,
    "verticalscrollindicator": false,
    "wType": "FlexScrollContainer",
    "widgetalignment": 1,
    "zindex": 1
}