{
    "__parentReadjusting__": false,
    "_padding_": [
        2,
        1,
        0,
        0
    ],
    "_skin_": "s6221b5482e74a198dc18364f51443a9",
    "_srcKuid_": "dae03860defd444bb15a184f555e821a",
    "canUpdateUI": true,
    "context": {},
    "dataDiffs": {
        "autoCapitalize": "none",
        "containerHeight": "",
        "height": {
            "type": "string",
            "value": "100%"
        },
        "i18n_placeholder": "i18n.phone.common.findItLowercase",
        "id": "textSearch",
        "placeholder": "Search",
        "right": {
            "type": "string",
            "value": "12%"
        },
        "secureTextEntry": false,
        "text": "",
        "textInputMode": "A",
        "top": {
            "type": "string",
            "value": "0dp"
        },
        "width": {
            "type": "string",
            "value": "88%"
        },
        "zIndex": 1
    },
    "id": "textSearch",
    "instanceOf": "dae03860defd444bb15a184f555e821a",
    "isvisible": true,
    "kuid": "mbd8440e59b34559b98938f0d20e41f6",
    "masterInstance": true,
    "name": "kony.ui.TextBox2",
    "parent": "flxTextboxContents",
    "pf": "frmWeeklyAdDetail",
    "topLevelInstanceKUID": "m35b3c662c894356989e90804272f921",
    "wType": "TextField"
}