{
    "AS_Button_ef1133be64f949ee982efa8b01a02cf5": {
        "id": "AS_Button_ef1133be64f949ee982efa8b01a02cf5",
        "type": "ACTION_SEQUENCE",
        "name": "AS_Anim_asTransRotate",
        "params": [{
            "datatype": "collection",
            "name": "eventobject"
        }],
        "contextObj": {
            "name": "frmHome",
            "type": "forms",
            "platform": "",
            "KUID": "6c7574c15314495a849974f48e0bdea5"
        },
        "language": "js",
        "actions": [{
            "id": "ROTATE_ACTION____b9f10d36f32e4c7195c4eb7a926842f7",
            "type": "ROTATE_ACTION",
            "itemType": "FORM",
            "itemId": "frmHome",
            "widgetId": "lblChevron",
            "itemKUID": "6c7574c15314495a849974f48e0bdea5",
            "widgetKUID": "c454a80e386341b8805c1d0a0498f361",
            "animationObject": {
                "anchorPoint": {},
                "stepConfig": {
                    "timingFunction": "kony.anim.EASE"
                },
                "rotate": "180"
            },
            "config": {
                "delay": "0",
                "iterationCount": 1,
                "fillMode": "kony.anim.FILL_MODE_FORWARDS",
                "duration": "250"
            },
            "start": "Immediately",
            "animationId": "ROTATE_ACTION____b9f10d36f32e4c7195c4eb7a926842f7",
            "displayAnimationId": "ROTATE_ACTION____b9f10d36f32e4c7195c4eb7a926842f7",
            "forkedPlatform": "all",
            "parentId": null,
            "callbackType": null,
            "widgetPath": "frmHome.lblChevron"
        }]
    }
}