{
    "AS_Button_eb59fca6950c41e1969140844f04f702": {
        "id": "AS_Button_eb59fca6950c41e1969140844f04f702",
        "type": "ACTION_SEQUENCE",
        "params": [{
            "datatype": "collection",
            "name": "eventobject"
        }],
        "contextObj": {
            "name": "masterHeaderNoSearch",
            "type": "masters",
            "KUID": "6be9b81ea71945ddb6977f248848c132"
        },
        "language": "js",
        "actions": [{
            "id": "INVOKE_FUNCTION__onClick_08f52a8c57334ba7998386b4af48d8b7",
            "type": "INVOKE_FUNCTION",
            "sequenceKUID": "NAV_frmHome",
            "display": "NAV_frmHome",
            "inputparams": [],
            "callbackType": null,
            "disabled": null
        }]
    }
}