{
    "AS_Button_596ad8c4aad04d54b77d2b833097c382": {
        "id": "AS_Button_596ad8c4aad04d54b77d2b833097c382",
        "type": "ACTION_SEQUENCE",
        "params": [{
            "datatype": "collection",
            "name": "eventobject"
        }],
        "contextObj": {
            "name": "frmPDP",
            "type": "forms",
            "platform": null,
            "KUID": "6ee61417a0c1499c978be599a8808ad9"
        },
        "sourceObj": {
            "itemKUID": "52852c9439b745bfb22abc5becc67c33",
            "widgetKUID": "8e2b7f76938d422c9984cabb9f9a60c8",
            "evt": "onClick",
            "platform": null
        },
        "language": "js",
        "actions": [{
            "id": "NAMED_ACTION____e1c63171970f421a8d261215c182b749",
            "type": "NAMED_ACTION",
            "sequenceKUID": "AS_Button_49b4e2aff3044c7286f96cc1726796d7",
            "display": "AS_Button_49b4e2aff3044c7286f96cc1726796d7",
            "inputparams": [{
                "datatype": "collection",
                "name": "eventobject",
                "value": "eventobject"
            }],
            "parentId": null,
            "callbackType": null,
            "disabled": false,
            "isMasterInstanceAction": true
        }]
    }
}