{
    "AS_Button_eb409e59c5bf4c91886eb210977a943d": {
        "id": "AS_Button_eb409e59c5bf4c91886eb210977a943d",
        "type": "ACTION_SEQUENCE",
        "params": [{
            "datatype": "collection",
            "name": "eventobject"
        }],
        "contextObj": {
            "name": "frmProjectsList",
            "type": "forms",
            "platform": null,
            "KUID": "d61f724e103144129f53d10dd262de7f"
        },
        "sourceObj": {
            "itemKUID": "0e1c550ae50f43249384e95456c1d97e",
            "widgetKUID": "0125b25a20ca42fa8e41b4cf3f80e8ca",
            "evt": "onClick",
            "platform": null
        },
        "language": "js",
        "actions": [{
            "id": "NAMED_ACTION____f1d239149ef5480497fa9349a82371e2",
            "type": "NAMED_ACTION",
            "sequenceKUID": "AS_Button_5b13fbcd53564508ae3a7a9685c9fed8",
            "display": "AS_Button_5b13fbcd53564508ae3a7a9685c9fed8",
            "inputparams": [{
                "datatype": "collection",
                "name": "eventobject",
                "value": "eventobject"
            }],
            "parentId": null,
            "callbackType": null,
            "disabled": false,
            "isMasterInstanceAction": true
        }]
    }
}