{
    "AS_Button_0bc744af08604460bcf6d1bd69a45ada": {
        "id": "AS_Button_0bc744af08604460bcf6d1bd69a45ada",
        "type": "ACTION_SEQUENCE",
        "params": [{
            "datatype": "collection",
            "name": "eventobject"
        }],
        "contextObj": {
            "name": "sampleAllMasters",
            "type": "forms",
            "platform": null,
            "KUID": "4f9544153e1b4883904bf60e777bfaec"
        },
        "sourceObj": {
            "itemKUID": "c8a209c421584479ab525327e213dd86",
            "widgetKUID": "cbd31b760d604f46b20f10aab874aa91",
            "evt": "onClick",
            "platform": null
        },
        "language": "js",
        "actions": [{
            "id": "NAMED_ACTION____35e41818ae7744bf989ef4d122b846ce",
            "type": "NAMED_ACTION",
            "sequenceKUID": "AS_Button_b753919524014e1588e3269daa3deeab",
            "display": "AS_Button_b753919524014e1588e3269daa3deeab",
            "inputparams": [{
                "datatype": "collection",
                "name": "eventobject",
                "value": "eventobject"
            }],
            "parentId": null,
            "callbackType": null,
            "disabled": false,
            "isMasterInstanceAction": true
        }]
    }
}