{
    "AS_Button_d6c335f00fd74d988cfdbdbecb44689a": {
        "id": "AS_Button_d6c335f00fd74d988cfdbdbecb44689a",
        "type": "ACTION_SEQUENCE",
        "params": [{
            "datatype": "collection",
            "name": "eventobject"
        }],
        "contextObj": {
            "name": "frmScan",
            "type": "forms",
            "platform": null,
            "KUID": "4be53fe16b4044b3abe5774657625806"
        },
        "sourceObj": {
            "itemKUID": "c8a209c421584479ab525327e213dd86",
            "widgetKUID": "cbd31b760d604f46b20f10aab874aa91",
            "evt": "onClick",
            "platform": null
        },
        "language": "js",
        "actions": [{
            "id": "NAMED_ACTION____61a7fae768d646118edb597b8fc3d9ce",
            "type": "NAMED_ACTION",
            "sequenceKUID": "AS_Button_b753919524014e1588e3269daa3deeab",
            "display": "AS_Button_b753919524014e1588e3269daa3deeab",
            "inputparams": [{
                "datatype": "collection",
                "name": "eventobject",
                "value": "eventobject"
            }],
            "parentId": null,
            "callbackType": null,
            "disabled": false,
            "isMasterInstanceAction": true
        }]
    }
}