{
    "AS_Button_c33d134702cc43269e7d603bf27d7da6": {
        "id": "AS_Button_c33d134702cc43269e7d603bf27d7da6",
        "type": "ACTION_SEQUENCE",
        "params": [{
            "datatype": "collection",
            "name": "eventobject"
        }],
        "contextObj": {
            "name": "frmProjectsCategory",
            "type": "forms",
            "platform": null,
            "KUID": "93152dcd0fa6458987304a4071ddbe53"
        },
        "sourceObj": {
            "itemKUID": "c8a209c421584479ab525327e213dd86",
            "widgetKUID": "886ed314dcfe48a0b12ecaa31e6ddb7e",
            "evt": "onClick",
            "platform": null
        },
        "language": "js",
        "actions": [{
            "id": "NAMED_ACTION___onClick_fe1feae7568646cb9891683fe2a526db",
            "type": "NAMED_ACTION",
            "sequenceKUID": "AS_Button_5fa4ea1a70a5457b873c574ecb4d80cf",
            "display": "AS_Button_5fa4ea1a70a5457b873c574ecb4d80cf",
            "inputparams": [{
                "datatype": "collection",
                "name": "eventobject",
                "value": "eventobject"
            }],
            "callbackType": null,
            "disabled": false,
            "isMasterInstanceAction": true
        }]
    }
}