{
    "AS_Button_7061bb72a1624bf5bfe458e7182c2c09": {
        "id": "AS_Button_7061bb72a1624bf5bfe458e7182c2c09",
        "type": "ACTION_SEQUENCE",
        "params": [{
            "datatype": "collection",
            "name": "eventobject"
        }],
        "contextObj": {
            "name": "frmStoreMap",
            "type": "forms",
            "platform": null,
            "KUID": "c2c227a05a6f4899a65e4dd81783ad9e"
        },
        "sourceObj": {
            "itemKUID": "0e1c550ae50f43249384e95456c1d97e",
            "widgetKUID": "0b2a5583f80a45c287a55c0a36d061c1",
            "evt": "onClick",
            "platform": null
        },
        "language": "js",
        "actions": [{
            "id": "NAMED_ACTION___onClick_7b410e064cf2414e9b996ce0f9c924f6",
            "type": "NAMED_ACTION",
            "sequenceKUID": "AS_Button_20d2b91ac3e643eb8e5f8711ac2d164c",
            "display": "AS_Button_20d2b91ac3e643eb8e5f8711ac2d164c",
            "inputparams": [{
                "datatype": "collection",
                "name": "eventobject",
                "value": "eventobject"
            }],
            "callbackType": null,
            "disabled": false,
            "isMasterInstanceAction": true
        }]
    }
}