{
    "AS_Button_22d67cd8fc214c2e94931eeb331633b7": {
        "id": "AS_Button_22d67cd8fc214c2e94931eeb331633b7",
        "type": "ACTION_SEQUENCE",
        "params": [{
            "datatype": "collection",
            "name": "eventobject"
        }],
        "language": "js",
        "actions": [{
            "id": "INVOKE_FUNCTION__onClick_a94473c06a6a4118850b790452b3b27d",
            "type": "INVOKE_FUNCTION",
            "sequenceKUID": "NAV_frmHome",
            "display": "NAV_frmHome",
            "inputparams": [],
            "callbackType": null,
            "disabled": null
        }]
    }
}