{
    "AS_Button_45f5a59115304dbd8c89e055625bfc7b": {
        "id": "AS_Button_45f5a59115304dbd8c89e055625bfc7b",
        "type": "ACTION_SEQUENCE",
        "params": [{
            "datatype": "collection",
            "name": "eventobject"
        }],
        "contextObj": {
            "name": "frmProductsList",
            "type": "forms",
            "platform": "",
            "KUID": "6459ddd468e4473eaed3b6acdf326072"
        },
        "sourceObj": {
            "itemKUID": "0e1c550ae50f43249384e95456c1d97e",
            "widgetKUID": "0125b25a20ca42fa8e41b4cf3f80e8ca",
            "evt": "onClick",
            "platform": null
        },
        "language": "js",
        "actions": [{
            "id": "NAMED_ACTION____ffb8a065b9804708aed1927c9af29162",
            "type": "NAMED_ACTION",
            "sequenceKUID": "AS_Button_5b13fbcd53564508ae3a7a9685c9fed8",
            "display": "AS_Button_5b13fbcd53564508ae3a7a9685c9fed8",
            "inputparams": [{
                "datatype": "collection",
                "name": "eventobject",
                "value": "eventobject"
            }],
            "parentId": null,
            "callbackType": null,
            "disabled": false,
            "isMasterInstanceAction": true
        }]
    }
}