{
    "AS_Button_f5cf19ad42b7469dbe0f3ac001c9b888": {
        "id": "AS_Button_f5cf19ad42b7469dbe0f3ac001c9b888",
        "type": "ACTION_SEQUENCE",
        "params": [{
            "datatype": "collection",
            "name": "eventobject"
        }],
        "contextObj": {
            "name": "frmMore",
            "type": "forms",
            "platform": "",
            "KUID": "95b0ed905da640c9b065ee885d5e55f9"
        },
        "sourceObj": {
            "itemKUID": "fae63f042b894749b0bc9c8b44e38603",
            "widgetKUID": "d5b5264f2d594f12af5c4f8978682928",
            "evt": "onClick",
            "platform": null
        },
        "language": "js",
        "actions": [{
            "id": "NAMED_ACTION____aee615106c754b83bc3961f87d16a03c",
            "type": "NAMED_ACTION",
            "sequenceKUID": "AS_Button_7c0a7eeaa79d4653b7aed9ef204cd2fc",
            "display": "AS_Button_7c0a7eeaa79d4653b7aed9ef204cd2fc",
            "inputparams": [{
                "datatype": "collection",
                "name": "eventobject",
                "value": "eventobject"
            }],
            "parentId": null,
            "callbackType": null,
            "disabled": false,
            "isMasterInstanceAction": true
        }]
    }
}