{
    "AS_Button_680a3c8cf8fc4fc297a0945ecfc2deb2": {
        "id": "AS_Button_680a3c8cf8fc4fc297a0945ecfc2deb2",
        "type": "ACTION_SEQUENCE",
        "params": [{
            "datatype": "collection",
            "name": "eventobject"
        }],
        "contextObj": {
            "name": "frmProjects",
            "type": "forms",
            "platform": null,
            "KUID": "04db268ef08e4e54997af5a0278de45d"
        },
        "sourceObj": {
            "itemKUID": "52852c9439b745bfb22abc5becc67c33",
            "widgetKUID": "8e2b7f76938d422c9984cabb9f9a60c8",
            "evt": "onClick",
            "platform": null
        },
        "language": "js",
        "actions": [{
            "id": "NAMED_ACTION____5fa61edbd2074b32b556dde34104cbac",
            "type": "NAMED_ACTION",
            "sequenceKUID": "AS_Button_49b4e2aff3044c7286f96cc1726796d7",
            "display": "AS_Button_49b4e2aff3044c7286f96cc1726796d7",
            "inputparams": [{
                "datatype": "collection",
                "name": "eventobject",
                "value": "eventobject"
            }],
            "parentId": null,
            "callbackType": null,
            "disabled": false,
            "isMasterInstanceAction": true
        }]
    }
}