{
    "AS_Button_aacef0223d46438c800cef706332a550": {
        "id": "AS_Button_aacef0223d46438c800cef706332a550",
        "type": "ACTION_SEQUENCE",
        "params": [{
            "datatype": "collection",
            "name": "eventobject"
        }],
        "contextObj": {
            "name": "frmProductCategory",
            "type": "forms",
            "platform": null,
            "KUID": "bdd5e54e589f4bd480abbe5ee428e54d"
        },
        "sourceObj": {
            "itemKUID": "c8a209c421584479ab525327e213dd86",
            "widgetKUID": "886ed314dcfe48a0b12ecaa31e6ddb7e",
            "evt": "onClick",
            "platform": null
        },
        "language": "js",
        "actions": [{
            "id": "NAMED_ACTION____f172c75136734874bbd20b450296b5b1",
            "type": "NAMED_ACTION",
            "sequenceKUID": "AS_Button_5fa4ea1a70a5457b873c574ecb4d80cf",
            "display": "AS_Button_5fa4ea1a70a5457b873c574ecb4d80cf",
            "inputparams": [{
                "datatype": "collection",
                "name": "eventobject",
                "value": "eventobject"
            }],
            "parentId": null,
            "callbackType": null,
            "disabled": false,
            "isMasterInstanceAction": true
        }]
    }
}