{
    "AS_Button_f5659f0e9ccd48da9cbb4e06aba9dbc1": {
        "id": "AS_Button_f5659f0e9ccd48da9cbb4e06aba9dbc1",
        "type": "ACTION_SEQUENCE",
        "params": [{
            "datatype": "collection",
            "name": "eventobject"
        }],
        "contextObj": {
            "name": "frmProjectsList",
            "type": "forms",
            "platform": "",
            "KUID": "d61f724e103144129f53d10dd262de7f"
        },
        "sourceObj": {
            "itemKUID": "ebecd8cafd7147379a39ec06c14b40d3",
            "widgetKUID": "5e4e826c68bf4ffd8ab00ad9dc26e343",
            "evt": "onClick",
            "platform": null
        },
        "language": "js",
        "actions": [{
            "id": "NAMED_ACTION____48ee0d6815cc4b8a8f40cdb21c5677af",
            "type": "NAMED_ACTION",
            "sequenceKUID": "AS_Button_49b4e2aff3044c7286f96cc1726796d7",
            "display": "AS_Button_49b4e2aff3044c7286f96cc1726796d7",
            "inputparams": [{
                "datatype": "collection",
                "name": "eventobject",
                "value": "eventobject"
            }],
            "parentId": null,
            "callbackType": null,
            "disabled": false,
            "isMasterInstanceAction": true
        }]
    }
}