{
    "AS_Button_5f2ce9f7d6424dc8b4da16f9e6c22662": {
        "id": "AS_Button_5f2ce9f7d6424dc8b4da16f9e6c22662",
        "type": "ACTION_SEQUENCE",
        "params": [{
            "datatype": "collection",
            "name": "eventobject"
        }],
        "contextObj": {
            "name": "frmProjectsList",
            "type": "forms",
            "platform": null,
            "KUID": "d61f724e103144129f53d10dd262de7f"
        },
        "sourceObj": {
            "itemKUID": "c8a209c421584479ab525327e213dd86",
            "widgetKUID": "886ed314dcfe48a0b12ecaa31e6ddb7e",
            "evt": "onClick",
            "platform": null
        },
        "language": "js",
        "actions": [{
            "id": "NAMED_ACTION____84f39d3143b14a459f3bc11a1a9e16ab",
            "type": "NAMED_ACTION",
            "sequenceKUID": "AS_Button_5fa4ea1a70a5457b873c574ecb4d80cf",
            "display": "AS_Button_5fa4ea1a70a5457b873c574ecb4d80cf",
            "inputparams": [{
                "datatype": "collection",
                "name": "eventobject",
                "value": "eventobject"
            }],
            "parentId": null,
            "callbackType": null,
            "disabled": false,
            "isMasterInstanceAction": true
        }]
    }
}