{
    "AS_Button_8e341287f43e4752b34a9517d26a580c": {
        "id": "AS_Button_8e341287f43e4752b34a9517d26a580c",
        "type": "ACTION_SEQUENCE",
        "params": [{
            "datatype": "collection",
            "name": "eventobject"
        }],
        "contextObj": {
            "name": "frmProjectsCategory",
            "type": "forms",
            "platform": null,
            "KUID": "93152dcd0fa6458987304a4071ddbe53"
        },
        "sourceObj": {
            "itemKUID": "c8a209c421584479ab525327e213dd86",
            "widgetKUID": "cbd31b760d604f46b20f10aab874aa91",
            "evt": "onClick",
            "platform": null
        },
        "language": "js",
        "actions": [{
            "id": "NAMED_ACTION____4a6e436118b3486ea12632e72e307f93",
            "type": "NAMED_ACTION",
            "sequenceKUID": "AS_Button_b753919524014e1588e3269daa3deeab",
            "display": "AS_Button_b753919524014e1588e3269daa3deeab",
            "inputparams": [{
                "datatype": "collection",
                "name": "eventobject",
                "value": "eventobject"
            }],
            "parentId": null,
            "callbackType": null,
            "disabled": false,
            "isMasterInstanceAction": true
        }]
    }
}