{
    "AS_Button_c6aae2dfe46046d88cf2fbcd8c1cf5de": {
        "id": "AS_Button_c6aae2dfe46046d88cf2fbcd8c1cf5de",
        "type": "ACTION_SEQUENCE",
        "params": [{
            "datatype": "collection",
            "name": "eventobject"
        }],
        "contextObj": {
            "name": "frmProducts",
            "type": "forms",
            "platform": "",
            "KUID": "3943ed99b7ae44c086b6f426beed8844"
        },
        "sourceObj": {
            "itemKUID": "fae63f042b894749b0bc9c8b44e38603",
            "widgetKUID": "6da2493a8116473f9b6c22b190675842",
            "evt": "onClick",
            "platform": null
        },
        "language": "js",
        "actions": [{
            "id": "NAMED_ACTION____a5a93f0ab0894aab82cfc313dccae28a",
            "type": "NAMED_ACTION",
            "sequenceKUID": "AS_Button_d1c82ee109854d33a88c2fafd24d5ec0",
            "display": "AS_Button_d1c82ee109854d33a88c2fafd24d5ec0",
            "inputparams": [{
                "datatype": "collection",
                "name": "eventobject",
                "value": "eventobject"
            }],
            "parentId": null,
            "callbackType": null,
            "disabled": false,
            "isMasterInstanceAction": true
        }]
    }
}