{
    "AS_Button_7c09c27269ee40ed8846d0a29d7f3aa2": {
        "id": "AS_Button_7c09c27269ee40ed8846d0a29d7f3aa2",
        "type": "ACTION_SEQUENCE",
        "params": [{
            "datatype": "collection",
            "name": "eventobject"
        }],
        "contextObj": {
            "name": "frmProductCategoryMore",
            "type": "forms",
            "platform": null,
            "KUID": "f47260f822674fe58bfa438e364b2eb3"
        },
        "sourceObj": {
            "itemKUID": "52852c9439b745bfb22abc5becc67c33",
            "widgetKUID": "8e2b7f76938d422c9984cabb9f9a60c8",
            "evt": "onClick",
            "platform": null
        },
        "language": "js",
        "actions": [{
            "id": "NAMED_ACTION____af95cc39cbc946f7a366d78ad0ed676b",
            "type": "NAMED_ACTION",
            "sequenceKUID": "AS_Button_49b4e2aff3044c7286f96cc1726796d7",
            "display": "AS_Button_49b4e2aff3044c7286f96cc1726796d7",
            "inputparams": [{
                "datatype": "collection",
                "name": "eventobject",
                "value": "eventobject"
            }],
            "parentId": null,
            "callbackType": null,
            "disabled": false,
            "isMasterInstanceAction": true
        }]
    }
}