{
    "AS_Button_e0f7288912844848a469de18ee6474f6": {
        "id": "AS_Button_e0f7288912844848a469de18ee6474f6",
        "type": "ACTION_SEQUENCE",
        "params": [{
            "datatype": "collection",
            "name": "eventobject"
        }],
        "contextObj": {
            "name": "frmMore",
            "type": "forms",
            "platform": "",
            "KUID": "95b0ed905da640c9b065ee885d5e55f9"
        },
        "sourceObj": {
            "itemKUID": "fae63f042b894749b0bc9c8b44e38603",
            "widgetKUID": "6da2493a8116473f9b6c22b190675842",
            "evt": "onClick",
            "platform": null
        },
        "language": "js",
        "actions": [{
            "id": "NAMED_ACTION____03db4d25abb24c198edb7f0b919cc3ce",
            "type": "NAMED_ACTION",
            "sequenceKUID": "AS_Button_d1c82ee109854d33a88c2fafd24d5ec0",
            "display": "AS_Button_d1c82ee109854d33a88c2fafd24d5ec0",
            "inputparams": [{
                "datatype": "collection",
                "name": "eventobject",
                "value": "eventobject"
            }],
            "parentId": null,
            "callbackType": null,
            "disabled": false,
            "isMasterInstanceAction": true
        }]
    }
}