{
    "AS_Button_0bc2d85236ee4446b0751f65acb988a8": {
        "id": "AS_Button_0bc2d85236ee4446b0751f65acb988a8",
        "type": "ACTION_SEQUENCE",
        "params": [{
            "datatype": "collection",
            "name": "eventobject"
        }],
        "contextObj": {
            "name": "frmProjectsList",
            "type": "forms",
            "platform": null,
            "KUID": "d61f724e103144129f53d10dd262de7f"
        },
        "sourceObj": {
            "itemKUID": "0e1c550ae50f43249384e95456c1d97e",
            "widgetKUID": "0b2a5583f80a45c287a55c0a36d061c1",
            "evt": "onClick",
            "platform": null
        },
        "language": "js",
        "actions": [{
            "id": "NAMED_ACTION____f78c49c7d3434a88a1e0d53b93cdb4c8",
            "type": "NAMED_ACTION",
            "sequenceKUID": "AS_Button_20d2b91ac3e643eb8e5f8711ac2d164c",
            "display": "AS_Button_20d2b91ac3e643eb8e5f8711ac2d164c",
            "inputparams": [{
                "datatype": "collection",
                "name": "eventobject",
                "value": "eventobject"
            }],
            "parentId": null,
            "callbackType": null,
            "disabled": false,
            "isMasterInstanceAction": true
        }]
    }
}