{
    "AS_Button_8a1df99745544ae5af503b389aafa285": {
        "id": "AS_Button_8a1df99745544ae5af503b389aafa285",
        "type": "ACTION_SEQUENCE",
        "params": [{
            "datatype": "collection",
            "name": "eventobject"
        }],
        "contextObj": {
            "name": "CopyfrmHome0499077973e5542",
            "type": "forms",
            "platform": null,
            "KUID": "e7fb73ea571e4d599a7495e09babda06"
        },
        "sourceObj": {
            "itemKUID": "52852c9439b745bfb22abc5becc67c33",
            "widgetKUID": "8e2b7f76938d422c9984cabb9f9a60c8",
            "evt": "onClick"
        },
        "language": "js",
        "actions": [{
            "id": "NAMED_ACTION___onClick_c5f2127b25a9497aa7ec851a6c3b8c73",
            "type": "NAMED_ACTION",
            "sequenceKUID": "AS_Button_d8027088a2644dd3b601c0a4eebf1ff1",
            "display": "AS_Button_d8027088a2644dd3b601c0a4eebf1ff1",
            "inputparams": [{
                "datatype": "collection",
                "name": "eventobject",
                "value": "eventobject"
            }],
            "callbackType": null,
            "disabled": false,
            "isMasterInstanceAction": true
        }]
    }
}