{
    "AS_Button_9e580190fe2745d8a45d1f412a243c80": {
        "id": "AS_Button_9e580190fe2745d8a45d1f412a243c80",
        "type": "ACTION_SEQUENCE",
        "params": [{
            "datatype": "collection",
            "name": "eventobject"
        }],
        "contextObj": {
            "name": "CopyfrmHome0499077973e5542",
            "type": "forms",
            "platform": null,
            "KUID": "e7fb73ea571e4d599a7495e09babda06"
        },
        "sourceObj": {
            "itemKUID": "52852c9439b745bfb22abc5becc67c33",
            "widgetKUID": "8e2b7f76938d422c9984cabb9f9a60c8",
            "evt": "onClick",
            "platform": null
        },
        "language": "js",
        "actions": [{
            "id": "NAMED_ACTION____b67a2995a7df4c21a74f24a7583a9c91",
            "type": "NAMED_ACTION",
            "sequenceKUID": "AS_Button_49b4e2aff3044c7286f96cc1726796d7",
            "display": "AS_Button_49b4e2aff3044c7286f96cc1726796d7",
            "inputparams": [{
                "datatype": "collection",
                "name": "eventobject",
                "value": "eventobject"
            }],
            "parentId": null,
            "callbackType": null,
            "disabled": false,
            "isMasterInstanceAction": true
        }]
    }
}