{
    "AS_Button_a052bce49aff4ff592a24cbede6216d5": {
        "id": "AS_Button_a052bce49aff4ff592a24cbede6216d5",
        "type": "ACTION_SEQUENCE",
        "params": [{
            "datatype": "collection",
            "name": "eventobject"
        }],
        "contextObj": {
            "name": "frmProjectsCategory",
            "type": "forms",
            "platform": "",
            "KUID": "93152dcd0fa6458987304a4071ddbe53"
        },
        "sourceObj": {
            "itemKUID": "fae63f042b894749b0bc9c8b44e38603",
            "widgetKUID": "d5b5264f2d594f12af5c4f8978682928",
            "evt": "onClick",
            "platform": null
        },
        "language": "js",
        "actions": [{
            "id": "NAMED_ACTION____1f9243ec170449bba7c0beca8a4da9f6",
            "type": "NAMED_ACTION",
            "sequenceKUID": "AS_Button_7c0a7eeaa79d4653b7aed9ef204cd2fc",
            "display": "AS_Button_7c0a7eeaa79d4653b7aed9ef204cd2fc",
            "inputparams": [{
                "datatype": "collection",
                "name": "eventobject",
                "value": "eventobject"
            }],
            "parentId": null,
            "callbackType": null,
            "disabled": false,
            "isMasterInstanceAction": true
        }]
    }
}