{
    "AS_Button_1020cf8d98f549709a77e0c8e9718266": {
        "id": "AS_Button_1020cf8d98f549709a77e0c8e9718266",
        "type": "ACTION_SEQUENCE",
        "params": [{
            "datatype": "collection",
            "name": "eventobject"
        }],
        "contextObj": {
            "name": "sampleAllMasters",
            "type": "forms",
            "platform": null,
            "KUID": "4f9544153e1b4883904bf60e777bfaec"
        },
        "sourceObj": {
            "itemKUID": "c8a209c421584479ab525327e213dd86",
            "widgetKUID": "886ed314dcfe48a0b12ecaa31e6ddb7e",
            "evt": "onClick",
            "platform": null
        },
        "language": "js",
        "actions": [{
            "id": "NAMED_ACTION____27173d47d460452f8fab44ae2880bc79",
            "type": "NAMED_ACTION",
            "sequenceKUID": "AS_Button_5fa4ea1a70a5457b873c574ecb4d80cf",
            "display": "AS_Button_5fa4ea1a70a5457b873c574ecb4d80cf",
            "inputparams": [{
                "datatype": "collection",
                "name": "eventobject",
                "value": "eventobject"
            }],
            "parentId": null,
            "callbackType": null,
            "disabled": false,
            "isMasterInstanceAction": true
        }]
    }
}