{
    "AS_Button_968b9b53c04f45f8b467ceeef2b2a44e": {
        "id": "AS_Button_968b9b53c04f45f8b467ceeef2b2a44e",
        "type": "ACTION_SEQUENCE",
        "params": [{
            "datatype": "collection",
            "name": "eventobject"
        }],
        "contextObj": {
            "name": "frmStoreMap",
            "type": "forms",
            "platform": null,
            "KUID": "c2c227a05a6f4899a65e4dd81783ad9e"
        },
        "sourceObj": {
            "itemKUID": "0e1c550ae50f43249384e95456c1d97e",
            "widgetKUID": "0125b25a20ca42fa8e41b4cf3f80e8ca",
            "evt": "onClick",
            "platform": null
        },
        "language": "js",
        "actions": [{
            "id": "NAMED_ACTION____32c73214b2ea4481a70ed096e8900fa9",
            "type": "NAMED_ACTION",
            "sequenceKUID": "AS_Button_5b13fbcd53564508ae3a7a9685c9fed8",
            "display": "AS_Button_5b13fbcd53564508ae3a7a9685c9fed8",
            "inputparams": [{
                "datatype": "collection",
                "name": "eventobject",
                "value": "eventobject"
            }],
            "parentId": null,
            "callbackType": null,
            "disabled": false,
            "isMasterInstanceAction": true
        }]
    }
}