{
    "AS_Button_806eb458cc164ecab54dcee2272fb3d8": {
        "id": "AS_Button_806eb458cc164ecab54dcee2272fb3d8",
        "type": "ACTION_SEQUENCE",
        "params": [{
            "datatype": "collection",
            "name": "eventobject"
        }],
        "language": "js",
        "actions": [{
            "id": "INVOKE_FUNCTION__onClick_2bbde9b01e8e4291820442cee1fa0374",
            "type": "INVOKE_FUNCTION",
            "sequenceKUID": "closeCoupon",
            "display": "closeCoupon",
            "inputparams": [],
            "callbackType": null,
            "disabled": null
        }]
    }
}