{
    "AS_Button_1f445d508b5149d086ec741982ff13f4": {
        "id": "AS_Button_1f445d508b5149d086ec741982ff13f4",
        "type": "ACTION_SEQUENCE",
        "params": [{
            "datatype": "collection",
            "name": "eventobject"
        }],
        "contextObj": {
            "name": "frmProjectsCategory",
            "type": "forms",
            "platform": null,
            "KUID": "93152dcd0fa6458987304a4071ddbe53"
        },
        "sourceObj": {
            "itemKUID": "0e1c550ae50f43249384e95456c1d97e",
            "widgetKUID": "0b2a5583f80a45c287a55c0a36d061c1",
            "evt": "onClick",
            "platform": null
        },
        "language": "js",
        "actions": [{
            "id": "NAMED_ACTION____5170cca7ac6c4a80929a82ed6d45ba54",
            "type": "NAMED_ACTION",
            "sequenceKUID": "AS_Button_20d2b91ac3e643eb8e5f8711ac2d164c",
            "display": "AS_Button_20d2b91ac3e643eb8e5f8711ac2d164c",
            "inputparams": [{
                "datatype": "collection",
                "name": "eventobject",
                "value": "eventobject"
            }],
            "parentId": null,
            "callbackType": null,
            "disabled": false,
            "isMasterInstanceAction": true
        }]
    }
}