{
    "AS_Form_06b40588c9d44a7c92fa6f459b1b3ba9": {
        "id": "AS_Form_06b40588c9d44a7c92fa6f459b1b3ba9",
        "type": "ACTION_SEQUENCE",
        "params": [{
            "datatype": "collection",
            "name": "eventobject"
        }],
        "contextObj": {
            "name": "frmProductCategory",
            "type": "forms",
            "platform": null,
            "KUID": "bdd5e54e589f4bd480abbe5ee428e54d"
        },
        "language": "js",
        "actions": [{
            "id": "INVOKE_FUNCTION__preShow_7d0c4478a7da4064aa3ab2bdf6400cba",
            "type": "INVOKE_FUNCTION",
            "sequenceKUID": "pre_frmProductsList",
            "display": "pre_frmProductsList",
            "inputparams": [],
            "callbackType": null,
            "disabled": null
        }]
    }
}