{
    "AS_FlexContainer_d7b1653ea07140c0941771b07eef04e2": {
        "id": "AS_FlexContainer_d7b1653ea07140c0941771b07eef04e2",
        "type": "ACTION_SEQUENCE",
        "params": [{
            "datatype": "collection",
            "name": "eventobject"
        }],
        "contextObj": {
            "name": "frmMore",
            "type": "forms",
            "platform": "",
            "KUID": "95b0ed905da640c9b065ee885d5e55f9"
        },
        "sourceObj": {
            "itemKUID": "0e1c550ae50f43249384e95456c1d97e",
            "widgetKUID": "1a58bb4c68984a8a8d8b325ba2b4d623",
            "evt": "onClick"
        },
        "language": "js",
        "actions": []
    }
}