{
    "AS_Form_fc39147b78414bf8996dbbaa221448ab": {
        "id": "AS_Form_fc39147b78414bf8996dbbaa221448ab",
        "type": "ACTION_SEQUENCE",
        "name": "AS_Pre_frmHome",
        "params": [{
            "datatype": "collection",
            "name": "eventobject"
        }],
        "contextObj": {
            "name": "frmHome",
            "type": "forms",
            "platform": "",
            "KUID": "6c7574c15314495a849974f48e0bdea5"
        },
        "language": "js",
        "actions": [{
            "id": "INVOKE_FUNCTION___126545ca405345139142efcb977ad9ab",
            "type": "INVOKE_FUNCTION",
            "sequenceKUID": "preHome",
            "display": "preHome",
            "inputparams": [],
            "parentId": null,
            "callbackType": null,
            "disabled": null
        }]
    }
}