{
    "AS_Segment_23d3ca8c553d4d308943ee28c771c751": {
        "id": "AS_Segment_23d3ca8c553d4d308943ee28c771c751",
        "type": "ACTION_SEQUENCE",
        "params": [{
            "datatype": "collection",
            "name": "eventobject"
        }, {
            "datatype": "number",
            "name": "sectionNumber"
        }, {
            "datatype": "number",
            "name": "rowNumber"
        }],
        "contextObj": {
            "name": "frmPDP",
            "type": "forms",
            "platform": null,
            "KUID": "6ee61417a0c1499c978be599a8808ad9"
        },
        "sourceObj": {
            "itemKUID": "db7a2b33ff7642c4aa1d62f414180043",
            "widgetKUID": "me6f1e09fda54b68aa88ff4fde184490",
            "evt": "onRowClick",
            "platform": null
        },
        "language": "js",
        "actions": [{
            "id": "NAMED_ACTION____af8fcfdede824f43b9cae941106184e7",
            "type": "NAMED_ACTION",
            "sequenceKUID": "AS_Segment_c9660bc84f354ebdae40444a469d8d5b",
            "display": "AS_Segment_c9660bc84f354ebdae40444a469d8d5b",
            "inputparams": [{
                "datatype": "collection",
                "name": "eventobject",
                "value": "eventobject"
            }, {
                "datatype": "number",
                "name": "sectionNumber",
                "value": "sectionNumber"
            }, {
                "datatype": "number",
                "name": "rowNumber",
                "value": "rowNumber"
            }],
            "parentId": null,
            "callbackType": null,
            "disabled": false,
            "isMasterInstanceAction": true
        }]
    }
}