{
    "AS_Segment_c7dfc27625be4549b9b5927b0dde2a16": {
        "id": "AS_Segment_c7dfc27625be4549b9b5927b0dde2a16",
        "type": "ACTION_SEQUENCE",
        "params": [{
            "datatype": "collection",
            "name": "eventobject"
        }, {
            "datatype": "number",
            "name": "sectionNumber"
        }, {
            "datatype": "number",
            "name": "rowNumber"
        }],
        "contextObj": {
            "name": "frmProductCategoryMore",
            "type": "forms",
            "platform": null,
            "KUID": "f47260f822674fe58bfa438e364b2eb3"
        },
        "sourceObj": {
            "itemKUID": "db7a2b33ff7642c4aa1d62f414180043",
            "widgetKUID": "me6f1e09fda54b68aa88ff4fde184490",
            "evt": "onRowClick",
            "platform": null
        },
        "language": "js",
        "actions": [{
            "id": "NAMED_ACTION____d925bafe12574a179bbf54b587772ec7",
            "type": "NAMED_ACTION",
            "sequenceKUID": "AS_Segment_c9660bc84f354ebdae40444a469d8d5b",
            "display": "AS_Segment_c9660bc84f354ebdae40444a469d8d5b",
            "inputparams": [{
                "datatype": "collection",
                "name": "eventobject",
                "value": "eventobject"
            }, {
                "datatype": "number",
                "name": "sectionNumber",
                "value": "sectionNumber"
            }, {
                "datatype": "number",
                "name": "rowNumber",
                "value": "rowNumber"
            }],
            "parentId": null,
            "callbackType": null,
            "disabled": false,
            "isMasterInstanceAction": true
        }]
    }
}