{
    "AS_TextField_d2b2e5b4e6804a4997f0fbcd3379e7b3": {
        "id": "AS_TextField_d2b2e5b4e6804a4997f0fbcd3379e7b3",
        "type": "ACTION_SEQUENCE",
        "params": [{
            "datatype": "collection",
            "name": "eventobject"
        }, {
            "datatype": "string",
            "name": "changedtext"
        }],
        "contextObj": {
            "name": "frmProductCategoryMore",
            "type": "forms",
            "platform": null,
            "KUID": "f47260f822674fe58bfa438e364b2eb3"
        },
        "sourceObj": {
            "itemKUID": "c8a209c421584479ab525327e213dd86",
            "widgetKUID": "bd1cbf726ec14859af35a9317b753d7b",
            "evt": "onEndEditing",
            "platform": "iphone"
        },
        "language": "js",
        "actions": [{
            "id": "NAMED_ACTION____3918e9d8202b459aad3cf8a6c1289d58",
            "type": "NAMED_ACTION",
            "sequenceKUID": "AS_TextField_0a3d0053aab34c7ea710680c1a513901",
            "display": "AS_TextField_0a3d0053aab34c7ea710680c1a513901",
            "inputparams": [{
                "datatype": "collection",
                "name": "eventobject",
                "value": "eventobject"
            }, {
                "datatype": "string",
                "name": "changedtext",
                "value": "changedtext"
            }],
            "parentId": null,
            "callbackType": null,
            "disabled": false,
            "isMasterInstanceAction": true
        }]
    }
}