{
    "AS_TextField_1c7617993e114a9698ffc0fdd74c980e": {
        "id": "AS_TextField_1c7617993e114a9698ffc0fdd74c980e",
        "type": "ACTION_SEQUENCE",
        "params": [{
            "datatype": "collection",
            "name": "eventobject"
        }, {
            "datatype": "string",
            "name": "changedtext"
        }],
        "contextObj": {
            "name": "frmPDP",
            "type": "forms",
            "platform": null,
            "KUID": "6ee61417a0c1499c978be599a8808ad9"
        },
        "sourceObj": {
            "itemKUID": "c8a209c421584479ab525327e213dd86",
            "widgetKUID": "bd1cbf726ec14859af35a9317b753d7b",
            "evt": "onEndEditing",
            "platform": "iphone"
        },
        "language": "js",
        "actions": [{
            "id": "NAMED_ACTION____15ff30e081714b92bab94a0b6770e9a7",
            "type": "NAMED_ACTION",
            "sequenceKUID": "AS_TextField_0a3d0053aab34c7ea710680c1a513901",
            "display": "AS_TextField_0a3d0053aab34c7ea710680c1a513901",
            "inputparams": [{
                "datatype": "collection",
                "name": "eventobject",
                "value": "eventobject"
            }, {
                "datatype": "string",
                "name": "changedtext",
                "value": "changedtext"
            }],
            "parentId": null,
            "callbackType": null,
            "disabled": false,
            "isMasterInstanceAction": true
        }]
    }
}