{
    "AS_TextField_9c2e9c158ac8442980ab5ee3f9aeb683": {
        "id": "AS_TextField_9c2e9c158ac8442980ab5ee3f9aeb683",
        "type": "ACTION_SEQUENCE",
        "params": [{
            "datatype": "collection",
            "name": "eventobject"
        }, {
            "datatype": "string",
            "name": "changedtext"
        }],
        "contextObj": {
            "name": "frmProjects",
            "type": "forms",
            "platform": null,
            "KUID": "04db268ef08e4e54997af5a0278de45d"
        },
        "sourceObj": {
            "itemKUID": "c8a209c421584479ab525327e213dd86",
            "widgetKUID": "bd1cbf726ec14859af35a9317b753d7b",
            "evt": "onBeginEditing",
            "platform": "iphone"
        },
        "language": "js",
        "actions": [{
            "id": "NAMED_ACTION____691fb950938c4310a354a5e473104e15",
            "type": "NAMED_ACTION",
            "sequenceKUID": "AS_TextField_cb32226d13174b47ab1ceef7406c637d",
            "display": "AS_TextField_cb32226d13174b47ab1ceef7406c637d",
            "inputparams": [{
                "datatype": "collection",
                "name": "eventobject",
                "value": "eventobject"
            }, {
                "datatype": "string",
                "name": "changedtext",
                "value": "changedtext"
            }],
            "parentId": null,
            "callbackType": null,
            "disabled": false,
            "isMasterInstanceAction": true
        }]
    }
}