{
    "AS_TextField_5c6746a47c9e4f2fbba44e704c9f4476": {
        "id": "AS_TextField_5c6746a47c9e4f2fbba44e704c9f4476",
        "type": "ACTION_SEQUENCE",
        "params": [{
            "datatype": "collection",
            "name": "eventobject"
        }, {
            "datatype": "string",
            "name": "changedtext"
        }],
        "contextObj": {
            "name": "frmPDP",
            "type": "forms",
            "platform": null,
            "KUID": "6ee61417a0c1499c978be599a8808ad9"
        },
        "sourceObj": {
            "itemKUID": "c8a209c421584479ab525327e213dd86",
            "widgetKUID": "bd1cbf726ec14859af35a9317b753d7b",
            "evt": "onEndEditing",
            "platform": "iphone"
        },
        "language": "js",
        "actions": [{
            "id": "NAMED_ACTION____8761e028e6bb4a0293c4986d82efdff0",
            "type": "NAMED_ACTION",
            "sequenceKUID": "AS_TextField_0a3d0053aab34c7ea710680c1a513901",
            "display": "AS_TextField_0a3d0053aab34c7ea710680c1a513901",
            "inputparams": [{
                "datatype": "collection",
                "name": "eventobject",
                "value": "eventobject"
            }, {
                "datatype": "string",
                "name": "changedtext",
                "value": "changedtext"
            }],
            "parentId": null,
            "callbackType": null,
            "disabled": false,
            "isMasterInstanceAction": true
        }]
    }
}