{
    "AS_TextField_391f39fe4fad4883b1f82a7f59a6bfa7": {
        "id": "AS_TextField_391f39fe4fad4883b1f82a7f59a6bfa7",
        "type": "ACTION_SEQUENCE",
        "params": [{
            "datatype": "collection",
            "name": "eventobject"
        }, {
            "datatype": "string",
            "name": "changedtext"
        }],
        "contextObj": {
            "name": "frmStoreMap",
            "type": "forms",
            "platform": null,
            "KUID": "c2c227a05a6f4899a65e4dd81783ad9e"
        },
        "sourceObj": {
            "itemKUID": "c8a209c421584479ab525327e213dd86",
            "widgetKUID": "bd1cbf726ec14859af35a9317b753d7b",
            "evt": "onBeginEditing",
            "platform": "iphone"
        },
        "language": "js",
        "actions": [{
            "id": "NAMED_ACTION____7847ce7e9b354abf8619af03d5635455",
            "type": "NAMED_ACTION",
            "sequenceKUID": "AS_TextField_cb32226d13174b47ab1ceef7406c637d",
            "display": "AS_TextField_cb32226d13174b47ab1ceef7406c637d",
            "inputparams": [{
                "datatype": "collection",
                "name": "eventobject",
                "value": "eventobject"
            }, {
                "datatype": "string",
                "name": "changedtext",
                "value": "changedtext"
            }],
            "parentId": null,
            "callbackType": null,
            "disabled": false,
            "isMasterInstanceAction": true
        }]
    }
}