{
    "AS_TextField_57ede3d3cc0f4fb18e259d42818ea1ac": {
        "id": "AS_TextField_57ede3d3cc0f4fb18e259d42818ea1ac",
        "type": "ACTION_SEQUENCE",
        "params": [{
            "datatype": "collection",
            "name": "eventobject"
        }, {
            "datatype": "string",
            "name": "changedtext"
        }],
        "contextObj": {
            "name": "frmPDP",
            "type": "forms",
            "platform": null,
            "KUID": "6ee61417a0c1499c978be599a8808ad9"
        },
        "sourceObj": {
            "itemKUID": "c8a209c421584479ab525327e213dd86",
            "widgetKUID": "bd1cbf726ec14859af35a9317b753d7b",
            "evt": "onBeginEditing",
            "platform": "iphone"
        },
        "language": "js",
        "actions": [{
            "id": "NAMED_ACTION____bd5223ddd38e42e9ac4749f30f073dd7",
            "type": "NAMED_ACTION",
            "sequenceKUID": "AS_TextField_cb32226d13174b47ab1ceef7406c637d",
            "display": "AS_TextField_cb32226d13174b47ab1ceef7406c637d",
            "inputparams": [{
                "datatype": "collection",
                "name": "eventobject",
                "value": "eventobject"
            }, {
                "datatype": "string",
                "name": "changedtext",
                "value": "changedtext"
            }],
            "parentId": null,
            "callbackType": null,
            "disabled": false,
            "isMasterInstanceAction": true
        }]
    }
}