{
    "AS_TextField_00151ac412b645ab98c50d85f7f3679f": {
        "id": "AS_TextField_00151ac412b645ab98c50d85f7f3679f",
        "type": "ACTION_SEQUENCE",
        "params": [{
            "datatype": "collection",
            "name": "eventobject"
        }, {
            "datatype": "string",
            "name": "changedtext"
        }],
        "contextObj": {
            "name": "CopyfrmHome0499077973e5542",
            "type": "forms",
            "platform": null,
            "KUID": "e7fb73ea571e4d599a7495e09babda06"
        },
        "sourceObj": {
            "itemKUID": "c8a209c421584479ab525327e213dd86",
            "widgetKUID": "bd1cbf726ec14859af35a9317b753d7b",
            "evt": "onBeginEditing",
            "platform": "iphone"
        },
        "language": "js",
        "actions": [{
            "id": "NAMED_ACTION____65e8f2b9e4c344f3bbcb1ebc980a0bf9",
            "type": "NAMED_ACTION",
            "sequenceKUID": "AS_TextField_cb32226d13174b47ab1ceef7406c637d",
            "display": "AS_TextField_cb32226d13174b47ab1ceef7406c637d",
            "inputparams": [{
                "datatype": "collection",
                "name": "eventobject",
                "value": "eventobject"
            }, {
                "datatype": "string",
                "name": "changedtext",
                "value": "changedtext"
            }],
            "parentId": null,
            "callbackType": null,
            "disabled": false,
            "isMasterInstanceAction": true
        }]
    }
}