{
    "AS_TextField_a1390baa19d44fa89caf931c5a437cc6": {
        "id": "AS_TextField_a1390baa19d44fa89caf931c5a437cc6",
        "type": "ACTION_SEQUENCE",
        "params": [{
            "datatype": "collection",
            "name": "eventobject"
        }, {
            "datatype": "string",
            "name": "changedtext"
        }],
        "contextObj": {
            "name": "frmProductCategory",
            "type": "forms",
            "platform": null,
            "KUID": "bdd5e54e589f4bd480abbe5ee428e54d"
        },
        "sourceObj": {
            "itemKUID": "c8a209c421584479ab525327e213dd86",
            "widgetKUID": "bd1cbf726ec14859af35a9317b753d7b",
            "evt": "onEndEditing",
            "platform": "iphone"
        },
        "language": "js",
        "actions": [{
            "id": "NAMED_ACTION___onEndEditing_9072e9c476b142a0b11079be443d5e13",
            "type": "NAMED_ACTION",
            "sequenceKUID": "AS_TextField_0a3d0053aab34c7ea710680c1a513901",
            "display": "AS_TextField_0a3d0053aab34c7ea710680c1a513901",
            "inputparams": [{
                "datatype": "collection",
                "name": "eventobject",
                "value": "eventobject"
            }, {
                "datatype": "string",
                "name": "changedtext",
                "value": "changedtext"
            }],
            "callbackType": null,
            "disabled": false,
            "isMasterInstanceAction": true
        }]
    }
}