{
    "AS_TextField_d7f223cfe6b947f6bcef39bec4493be9": {
        "id": "AS_TextField_d7f223cfe6b947f6bcef39bec4493be9",
        "type": "ACTION_SEQUENCE",
        "params": [{
            "datatype": "collection",
            "name": "eventobject"
        }, {
            "datatype": "string",
            "name": "changedtext"
        }],
        "contextObj": {
            "name": "frmStoreMap",
            "type": "forms",
            "platform": null,
            "KUID": "c2c227a05a6f4899a65e4dd81783ad9e"
        },
        "sourceObj": {
            "itemKUID": "c8a209c421584479ab525327e213dd86",
            "widgetKUID": "bd1cbf726ec14859af35a9317b753d7b",
            "evt": "onEndEditing",
            "platform": "iphone"
        },
        "language": "js",
        "actions": [{
            "id": "NAMED_ACTION____6a2b15cce8a0465da9ef957ea36badeb",
            "type": "NAMED_ACTION",
            "sequenceKUID": "AS_TextField_0a3d0053aab34c7ea710680c1a513901",
            "display": "AS_TextField_0a3d0053aab34c7ea710680c1a513901",
            "inputparams": [{
                "datatype": "collection",
                "name": "eventobject",
                "value": "eventobject"
            }, {
                "datatype": "string",
                "name": "changedtext",
                "value": "changedtext"
            }],
            "parentId": null,
            "callbackType": null,
            "disabled": false,
            "isMasterInstanceAction": true
        }]
    }
}