{
    "AS_TextField_4e5b1cac52f24c5dbee8a91038b3c9b6": {
        "id": "AS_TextField_4e5b1cac52f24c5dbee8a91038b3c9b6",
        "type": "ACTION_SEQUENCE",
        "params": [{
            "datatype": "collection",
            "name": "eventobject"
        }, {
            "datatype": "string",
            "name": "changedtext"
        }],
        "contextObj": {
            "name": "frmProjectsList",
            "type": "forms",
            "platform": null,
            "KUID": "d61f724e103144129f53d10dd262de7f"
        },
        "sourceObj": {
            "itemKUID": "c8a209c421584479ab525327e213dd86",
            "widgetKUID": "bd1cbf726ec14859af35a9317b753d7b",
            "evt": "onBeginEditing",
            "platform": "iphone"
        },
        "language": "js",
        "actions": [{
            "id": "NAMED_ACTION____b79d4c687f504ad4ab868ae340ba51d9",
            "type": "NAMED_ACTION",
            "sequenceKUID": "AS_TextField_cb32226d13174b47ab1ceef7406c637d",
            "display": "AS_TextField_cb32226d13174b47ab1ceef7406c637d",
            "inputparams": [{
                "datatype": "collection",
                "name": "eventobject",
                "value": "eventobject"
            }, {
                "datatype": "string",
                "name": "changedtext",
                "value": "changedtext"
            }],
            "parentId": null,
            "callbackType": null,
            "disabled": false,
            "isMasterInstanceAction": true
        }]
    }
}