{
    "_skin_": "s13f0108436944fbb4edc3193dce2286",
    "_srcKuid_": "36b165d4bdd84516af9ef03a2316d200",
    "canUpdateUI": true,
    "context": {},
    "dataDiffs": {
        "centerX": {
            "type": "string",
            "value": "44%"
        },
        "centerY": {
            "type": "string",
            "value": "48%"
        },
        "height": {
            "type": "string",
            "value": "19dp"
        },
        "id": "cmrImageSearch",
        "right": {
            "type": "string",
            "value": "11%"
        },
        "text": "",
        "top": {
            "type": "string",
            "value": "9dp"
        },
        "width": {
            "type": "string",
            "value": "23dp"
        },
        "zIndex": 1
    },
    "id": "cmrImageSearch",
    "instanceOf": "36b165d4bdd84516af9ef03a2316d200",
    "isvisible": true,
    "kuid": "m555e675e94843fcb1087ac1d5517e5b",
    "masterInstance": true,
    "name": "kony.ui.Camera",
    "parent": "flxCameraContainer",
    "pf": "frmWeeklyAdHome",
    "topLevelInstanceKUID": "m2abb9ed8bbf4e7b99020638016e1d34",
    "wType": "Camera"
}