{
    "@class": "com.kony.gen.viz.model.component.KVizButton",
    "DNDConfig": null,
    "__parentReadjusting__": false,
    "_height_": {
        "type": "string",
        "value": "40dp"
    },
    "_left_": {
        "type": "string",
        "value": "0dp"
    },
    "_margin_": [
        6,
        6,
        6,
        6
    ],
    "_padding_": [
        0,
        0,
        0,
        0
    ],
    "_skin_": "sdc4db61c3fc40a4bed92bc3a6b450e8",
    "_text_": "Ok",
    "_top_": {
        "type": "string",
        "value": "10dp"
    },
    "_width_": {
        "type": "string",
        "value": "100%"
    },
    "canUpdateUI": true,
    "centerx": {
        "type": "string",
        "value": "50%"
    },
    "containerweight": 100,
    "contentalignment": 5,
    "displaytext": true,
    "focusskin": "sdc4db61c3fc40a4bed92bc3a6b450e8",
    "id": "btnOk",
    "info": null,
    "isvisible": false,
    "kuid": "725fcce34cd44edc9752a5a2f4bb82a0",
    "name": "kony.ui.Button",
    "paddinginpixel": false,
    "parent": "flxDialogbox",
    "pf": "frmCreateAccountStep2",
    "texti18n": "i18n.phone.signIn.ok",
    "wType": "Button",
    "zindex": 2
}