{
    "@class": "com.kony.gen.viz.model.component.KVizLabel",
    "DNDConfig": null,
    "__parentReadjusting__": false,
    "_height_": {
        "type": "ref",
        "value": "preferred"
    },
    "_left_": {
        "type": "string",
        "value": "0dp"
    },
    "_margin_": [
        1,
        1,
        1,
        1
    ],
    "_padding_": [
        0,
        0,
        0,
        0
    ],
    "_skin_": "s4c42f99d6e24dce95800a73173f18c4",
    "_text_": "Limit one coupon per product. Limit one coupon of each type per day. Not valid on: Doorbusters; Everyday Value program; Silhouette, Cricut & Canon brands; Polaroid products, special order custom floral arrangements, custom frames & materials, services & package pricing; custom invitations, canvas prints & photo center purchases; Wacom products, Brother, Sensu Brush & Stylus, 3D printers & accessories, 3Doodler 3D Printing Pen & accessories, sewing machines, Typecast typewriters, books, coloring books, magazines, beverages, CD/DVDs, gift cards & debit card products; sale, clearance or buy & get items; online-only products & specials; class, event, birthday party, shipping, delivery or installation fees. Printed coupon must be surrendered or electronic copy scanned at purchase. Not applicable to prior purchases. Limited to stock on hand. Void where prohibited. Exclusions subject to change. See Team Member for details.",
    "_top_": {
        "type": "string",
        "value": "18dp"
    },
    "_width_": {
        "type": "string",
        "value": "96%"
    },
    "_wrapping_": 2,
    "android": {
        "textStyle": {
            "letterSpacing": 0,
            "lineSpacing": 5,
            "strikeThrough": false
        }
    },
    "canUpdateUI": true,
    "centerx": {
        "type": "string",
        "value": "50%"
    },
    "containerweight": 100,
    "contentalignment": 4,
    "id": "lblRestrictions",
    "info": null,
    "iphone": {
        "psp": {
            "wrapping": 2
        },
        "textStyle": {
            "baseline": 0,
            "letterSpacing": 0,
            "lineSpacing": 5,
            "strikeThrough": false
        }
    },
    "isvisible": false,
    "kuid": "c11ac108652e4984b48e8d0d077ca147",
    "name": "kony.ui.Label",
    "parent": "flxCouponDetailsScroll",
    "pf": "frmCoupons",
    "textstyle": {
        "baseline": 0,
        "letterSpacing": 0,
        "lineSpacing": 5,
        "strikeThrough": false
    },
    "tooltip": "",
    "wType": "Label",
    "zindex": 1
}