{
    "__parentReadjusting__": false,
    "_skin_": "sd98bdfc0b1b4fdab4f6abd5abc5963c",
    "_srcKuid_": "81496dc063424723a360c57c28b4d473",
    "canUpdateUI": true,
    "children": [
        "flxSearchIcon",
        "flxTextboxContents",
        "flxCameraContainer",
        "flxBarcodeContainer",
        "btnCameraImageSearch",
        "flxImageVoiceSearch"
    ],
    "context": {},
    "dataDiffs": {
        "centerY": {
            "type": "string",
            "value": "50%"
        },
        "clipBounds": true,
        "enableScrolling": true,
        "height": {
            "type": "string",
            "value": "36dp"
        },
        "id": "flxSearchContents",
        "layoutType": 2,
        "left": {
            "type": "string",
            "value": "45dp"
        },
        "right": {
            "type": "string",
            "value": "50dp"
        },
        "snapGridSize": 10,
        "snapToGrid": true,
        "zIndex": 5
    },
    "id": "flxSearchContents",
    "instanceOf": "81496dc063424723a360c57c28b4d473",
    "isvisible": true,
    "kuid": "mb90b5044f624b34a00f3729a4bc2ff2",
    "layouttype": 2,
    "masterInstance": true,
    "name": "kony.ui.FlexContainer",
    "parent": "flxHeaderWrap",
    "pf": "frmProjects",
    "topLevelInstanceKUID": "m389acf59f16424b89d3f607f05a410a",
    "wType": "FlexContainer"
}