{
    "__parentReadjusting__": false,
    "_skin_": "sd7588b7c91a46c3bce2b735b315a57e",
    "_srcKuid_": "ma1f56ec0ca04de98596839929a7e4ce",
    "canUpdateUI": true,
    "children": [
        "flxProducts",
        "flxMyLists",
        "flxMyCoupons",
        "flxWeeklyAd",
        "flxProjects",
        "flxMore",
        "flxEvents",
        "flxStoreMap"
    ],
    "context": {},
    "dataDiffs": {
        "bottom": {
            "type": "string",
            "value": "0dp"
        },
        "clipBounds": true,
        "enableScrolling": true,
        "height": {
            "type": "string",
            "value": "9%"
        },
        "id": "flxFooterWrap",
        "layoutType": 3,
        "left": {
            "type": "string",
            "value": "0dp"
        },
        "snapGridSize": 10,
        "snapToGrid": true,
        "width": {
            "type": "string",
            "value": "100%"
        },
        "zIndex": 5
    },
    "id": "flxFooterWrap",
    "instanceOf": "ma1f56ec0ca04de98596839929a7e4ce",
    "isTopFlexInstance": true,
    "isvisible": true,
    "kuid": "m8ed524b229849f1bb4f2a22fc438693",
    "layouttype": 3,
    "masterInstance": true,
    "name": "kony.ui.FlexContainer",
    "parent": "frmSortAndRefine",
    "pf": "frmSortAndRefine",
    "vizProps": {
        "hidewidgethierarchy": false
    },
    "wType": "FlexContainer"
}