{
    "__parentReadjusting__": false,
    "_padding_": [
        0,
        0,
        0,
        0
    ],
    "_skin_": "s4edd09d5ad842c7b4322d283ea53066",
    "_srcKuid_": "3a6e39a1a29e4f59b5f3265cd55abbef",
    "canUpdateUI": true,
    "context": {},
    "dataDiffs": {
        "centerY": {
            "type": "string",
            "value": "50%"
        },
        "height": {
            "type": "string",
            "value": "100%"
        },
        "id": "btnClearSearch",
        "right": {
            "type": "string",
            "value": "2%"
        },
        "text": "X",
        "top": {
            "type": "string",
            "value": "0dp"
        },
        "width": {
            "type": "string",
            "value": "10%"
        },
        "zIndex": 1
    },
    "id": "btnClearSearch",
    "instanceOf": "3a6e39a1a29e4f59b5f3265cd55abbef",
    "isvisible": false,
    "kuid": "m2eca41c666344208d2293d133b4f618",
    "masterInstance": true,
    "name": "kony.ui.Button",
    "parent": "flxTextboxContents",
    "pf": "frmMore",
    "topLevelInstanceKUID": "m50d6a1ae2e64c748ae283ef84ee0b6d",
    "wType": "Button"
}