{
    "@class": "com.kony.gen.viz.model.component.KVizLabel",
    "DNDConfig": null,
    "__parentReadjusting__": false,
    "_height_": {
        "type": "string",
        "value": "100%"
    },
    "_margin_": [
        1,
        1,
        1,
        1
    ],
    "_padding_": [
        0,
        0,
        0,
        0
    ],
    "_skin_": "sdbc3b41e828482d8c86254c1ee36c70",
    "_text_": "EVENT DETAIL",
    "_top_": {
        "type": "string",
        "value": "0dp"
    },
    "_width_": {
        "type": "string",
        "value": "55%"
    },
    "_wrapping_": 2,
    "android": {
        "textStyle": {
            "letterSpacing": 0,
            "strikeThrough": false
        }
    },
    "canUpdateUI": true,
    "centerx": {
        "type": "string",
        "value": "50%"
    },
    "centery": {
        "type": "string",
        "value": "50%"
    },
    "containerweight": 100,
    "contentalignment": 5,
    "id": "lblFormTitle",
    "info": null,
    "iphone": {
        "psp": {
            "wrapping": 2
        }
    },
    "isvisible": true,
    "kuid": "dae0c726a0884baf82041a80ac6b6cd2",
    "name": "kony.ui.Label",
    "parent": "flxHeaderTitleContainer",
    "pf": "frmEventDetail",
    "texti18n": "i18n.phone.frmEventDetail.eventDetail",
    "textstyle": {},
    "tooltip": "",
    "wType": "Label",
    "zindex": 1
}