{
    "__parentReadjusting__": false,
    "_padding_": [
        0,
        0,
        0,
        0
    ],
    "_skin_": "s1ce8cae3a554592802044756daad611",
    "_srcKuid_": "b22d5fb61f45409e8ec5a134e88fdf09",
    "areflexpropsreferenced": true,
    "canUpdateUI": true,
    "context": {},
    "dataDiffs": {
        "id": "lblCouponTitle"
    },
    "id": "lblCouponTitle",
    "instanceOf": "b22d5fb61f45409e8ec5a134e88fdf09",
    "isdatareferenced": true,
    "isvisible": true,
    "kuid": "mc46c822f3d94be28d3b8152ab689c06",
    "masterInstance": true,
    "name": "kony.ui.Label",
    "parent": "flxCouponHeader",
    "pf": "frmWeeklyAdHome",
    "topLevelInstanceKUID": "m212755cb2b4430eb45fd37727194228",
    "wType": "Label"
}