{
    "__parentReadjusting__": false,
    "_padding_": [
        0,
        0,
        0,
        0
    ],
    "_skin_": "s83969b0bd9f4c6b9202df4eeaa19b08",
    "_srcKuid_": "c179c4e79a17416b8c49775edc23cc9e",
    "areflexpropsreferenced": true,
    "canUpdateUI": true,
    "children": [
        "imgBarcode"
    ],
    "context": {},
    "dataDiffs": {
        "id": "flxBarCodeWrap"
    },
    "id": "flxBarCodeWrap",
    "instanceOf": "c179c4e79a17416b8c49775edc23cc9e",
    "isdatareferenced": true,
    "isvisible": false,
    "kuid": "m6562b814a2d4dfb9b811d4f8deb51de",
    "masterInstance": true,
    "name": "kony.ui.FlexContainer",
    "parent": "flxCouponRewards",
    "pf": "frmMyAccount",
    "topLevelInstanceKUID": "m5f2dad8f3b2435f8303ec1795c88246",
    "wType": "FlexContainer"
}