{
    "__parentReadjusting__": false,
    "_padding_": [
        0,
        0,
        0,
        0
    ],
    "_skin_": "s333acccac434cb3955b036df5870dd2",
    "_srcKuid_": "da753bf0a3aa4ed289ea4a97b6c245eb",
    "areflexpropsreferenced": true,
    "canUpdateUI": true,
    "centerx": {
        "type": "string",
        "value": "50%"
    },
    "children": [
        "flxCouponDetailsScroll"
    ],
    "context": {},
    "dataDiffs": {
        "id": "flxCouponDetailsPopup"
    },
    "id": "flxCouponDetailsPopup",
    "instanceOf": "da753bf0a3aa4ed289ea4a97b6c245eb",
    "isdatareferenced": true,
    "isvisible": false,
    "kuid": "m7a65e190ac5442dace115b70e5cb90b",
    "masterInstance": true,
    "name": "kony.ui.FlexContainer",
    "parent": "flexCouponContainer",
    "pf": "frmMyAccount",
    "topLevelInstanceKUID": "m5f2dad8f3b2435f8303ec1795c88246",
    "wType": "FlexContainer"
}