{
    "__parentReadjusting__": false,
    "_padding_": [
        0,
        0,
        0,
        0
    ],
    "_skin_": "s413ee06a8ec490fad5b6e8516352329",
    "_srcKuid_": "02955666af6c4a29b47753885434649b",
    "areflexpropsreferenced": true,
    "canUpdateUI": true,
    "children": [
        "flxCloseBtnWrap",
        "flexRestrictionsCode",
        "lblRestrictions",
        "rchTxtRetrictions"
    ],
    "context": {},
    "dataDiffs": {
        "id": "flxCouponDetailsScroll"
    },
    "id": "flxCouponDetailsScroll",
    "instanceOf": "02955666af6c4a29b47753885434649b",
    "isdatareferenced": true,
    "isvisible": true,
    "kuid": "m355dfea886f497bae5a5fe2512234e2",
    "masterInstance": true,
    "name": "kony.ui.FlexScrollContainer",
    "parent": "flxCouponDetailsPopup",
    "pf": "frmMyAccount",
    "topLevelInstanceKUID": "m5f2dad8f3b2435f8303ec1795c88246",
    "vizProps": {},
    "wType": "FlexScrollContainer"
}