{
    "_height_": {
        "type": "ref",
        "value": "preferred"
    },
    "_left_": {
        "type": "string",
        "value": "0dp"
    },
    "_skin_": "se0d686411b8424eb0ce37192912de57",
    "_srcKuid_": "771cd9fa8bcd4851bacef0405dd9fc2c",
    "_top_": {
        "type": "string",
        "value": "18dp"
    },
    "_width_": {
        "type": "string",
        "value": "96%"
    },
    "areflexpropsreferenced": true,
    "canUpdateUI": true,
    "centerx": {
        "type": "string",
        "value": "50%"
    },
    "context": {},
    "dataDiffs": {
        "id": "rchTxtRetrictions"
    },
    "id": "rchTxtRetrictions",
    "instanceOf": "771cd9fa8bcd4851bacef0405dd9fc2c",
    "isdatareferenced": true,
    "isvisible": true,
    "kuid": "me6e2e81083d45a6a2c28ff6f48c3ce3",
    "masterInstance": true,
    "name": "kony.ui.RichText",
    "parent": "flxCouponDetailsScroll",
    "pf": "frmMyAccount",
    "topLevelInstanceKUID": "m5f2dad8f3b2435f8303ec1795c88246",
    "wType": "RichText"
}