{
    "__parentReadjusting__": false,
    "_padding_": [
        0,
        0,
        0,
        0
    ],
    "_skin_": "s11ac4047b5c4c39b96a7060b2cd6179",
    "_srcKuid_": "85842cae47da4b468d590c5a32be11c7",
    "areflexpropsreferenced": true,
    "canUpdateUI": true,
    "children": [
        "lblCouponTitle",
        "btnDone",
        "btnCoupon",
        "flxSeparatorLine",
        "btnCouponMainMaster"
    ],
    "context": {},
    "dataDiffs": {
        "id": "flxCouponHeader"
    },
    "id": "flxCouponHeader",
    "instanceOf": "85842cae47da4b468d590c5a32be11c7",
    "isdatareferenced": true,
    "isvisible": true,
    "kuid": "m3f6f0d0929a457789a796730558ffce",
    "masterInstance": true,
    "name": "kony.ui.FlexContainer",
    "parent": "flexCouponContainer",
    "pf": "frmWeeklyAdDetail",
    "topLevelInstanceKUID": "m1756ef7d4434b78854af765ff5bc4c0",
    "wType": "FlexContainer"
}