{
    "__parentReadjusting__": false,
    "_padding_": [
        0,
        0,
        0,
        0
    ],
    "_skin_": "s1246c5398d54b2098984d38ceb23dd1",
    "_srcKuid_": "0d10213c802748b8b0aa91881abfa20c",
    "areflexpropsreferenced": true,
    "canUpdateUI": true,
    "children": [],
    "context": {},
    "dataDiffs": {
        "id": "flxOverlay"
    },
    "id": "flxOverlay",
    "instanceOf": "0d10213c802748b8b0aa91881abfa20c",
    "isdatareferenced": true,
    "isvisible": true,
    "kuid": "m0ceaeee79974beeaa1acb8406cb24e2",
    "masterInstance": true,
    "name": "kony.ui.FlexContainer",
    "parent": "flexCouponContainer",
    "pf": "frmWeeklyAdDetail",
    "topLevelInstanceKUID": "m1756ef7d4434b78854af765ff5bc4c0",
    "wType": "FlexContainer"
}