{
    "__parentReadjusting__": false,
    "_padding_": [
        0,
        0,
        0,
        0
    ],
    "_skin_": "s13cda51279a4984ac9726a9c95c523d",
    "_srcKuid_": "aceee5dd55c146c0910afc5efc3cce3d",
    "areflexpropsreferenced": true,
    "canUpdateUI": true,
    "context": {},
    "dataDiffs": {
        "id": "lblNoBarcodeValidityRestrictions"
    },
    "id": "lblNoBarcodeValidityRestrictions",
    "instanceOf": "aceee5dd55c146c0910afc5efc3cce3d",
    "isdatareferenced": true,
    "isvisible": true,
    "kuid": "mab1c62e1303415ea6c463207f7b0391",
    "masterInstance": true,
    "name": "kony.ui.Label",
    "parent": "flexInner2",
    "pf": "frmWeeklyAdDetail",
    "topLevelInstanceKUID": "m1756ef7d4434b78854af765ff5bc4c0",
    "wType": "Label"
}