{
    "__parentReadjusting__": false,
    "_height_": {
        "type": "ref",
        "value": "preferred"
    },
    "_left_": {
        "type": "string",
        "value": "0dp"
    },
    "_padding_": [
        0,
        0,
        0,
        0
    ],
    "_skin_": "se0d686411b8424eb0ce37192912de57",
    "_srcKuid_": "771cd9fa8bcd4851bacef0405dd9fc2c",
    "_top_": {
        "type": "string",
        "value": "18dp"
    },
    "_width_": {
        "type": "string",
        "value": "96%"
    },
    "areflexpropsreferenced": true,
    "canUpdateUI": true,
    "centerx": {
        "type": "string",
        "value": "50%"
    },
    "context": {},
    "dataDiffs": {
        "id": "rchTxtRetrictions"
    },
    "id": "rchTxtRetrictions",
    "instanceOf": "771cd9fa8bcd4851bacef0405dd9fc2c",
    "isdatareferenced": true,
    "isvisible": true,
    "kuid": "m8e9d280d8a048bca6dd2fda758122bc",
    "masterInstance": true,
    "name": "kony.ui.RichText",
    "parent": "flxCouponDetailsScroll",
    "pf": "frmWeeklyAdDetail",
    "topLevelInstanceKUID": "m1756ef7d4434b78854af765ff5bc4c0",
    "wType": "RichText"
}