{
    "__parentReadjusting__": false,
    "_padding_": [
        0,
        0,
        0,
        0
    ],
    "_skin_": "s19301cb89bd4ae9a917cdc3b37ebc9c",
    "_srcKuid_": "fbedf6c82068451d95dce00bcb0f6c12",
    "areflexpropsreferenced": true,
    "canUpdateUI": true,
    "children": [],
    "context": {},
    "dataDiffs": {
        "id": "scroll"
    },
    "id": "scroll",
    "instanceOf": "fbedf6c82068451d95dce00bcb0f6c12",
    "isdatareferenced": true,
    "isvisible": true,
    "kuid": "mf41cec7644d4f468cb46aeb0914c318",
    "masterInstance": true,
    "name": "kony.ui.FlexScrollContainer",
    "parent": "flxCouponContents",
    "pf": "frmWeeklyAdDetail",
    "topLevelInstanceKUID": "m1756ef7d4434b78854af765ff5bc4c0",
    "wType": "FlexScrollContainer"
}