{
    "__parentReadjusting__": false,
    "_padding_": [
        0,
        0,
        0,
        0
    ],
    "_skin_": "sc95763aaead4250b98834fcdba00ad0",
    "_srcKuid_": "mfc6a545ce044febb49ac9efc07628d8",
    "canUpdateUI": true,
    "context": {},
    "dataDiffs": {
        "bottom": {
            "type": "string",
            "value": "5dp"
        },
        "centerX": {
            "type": "string",
            "value": "50%"
        },
        "height": {
            "type": "ref",
            "value": "preferred"
        },
        "i18n_text": "i18n.phone.masterFooter.lblProducts",
        "id": "lblProducts",
        "text": "Shop",
        "textStyle": {},
        "width": {
            "type": "string",
            "value": "100%"
        },
        "zIndex": 1
    },
    "id": "lblProducts",
    "instanceOf": "mfc6a545ce044febb49ac9efc07628d8",
    "isvisible": true,
    "kuid": "m73f13e6124e4eeca988cbc422a9410f",
    "masterInstance": true,
    "name": "kony.ui.Label",
    "parent": "flxProducts",
    "pf": "frmWeeklyAdDetail",
    "topLevelInstanceKUID": "mcef028e476449f3b195b61f6f534b79",
    "wType": "Label"
}