{
    "@class": "com.kony.gen.viz.model.component.KVizButton",
    "DNDConfig": null,
    "__parentReadjusting__": false,
    "_height_": {
        "type": "string",
        "value": "100%"
    },
    "_margin_": [
        6,
        6,
        6,
        6
    ],
    "_padding_": [
        0,
        0,
        4,
        0
    ],
    "_right_": {
        "type": "string",
        "value": "0dp"
    },
    "_skin_": "s3c9c7f029b64000a0573a82856bb4bf",
    "_text_": "Done",
    "_top_": {
        "type": "string",
        "value": "0dp"
    },
    "_width_": {
        "type": "string",
        "value": "80dp"
    },
    "canUpdateUI": true,
    "childInstances": [],
    "containerweight": 100,
    "contentalignment": 6,
    "displaytext": true,
    "focusskin": "s52e08eaea6c4232955349b57a051f68",
    "id": "btnDone",
    "info": null,
    "iphone": {
        "psp": {
            "showProgressIndicator": false
        }
    },
    "isvisible": true,
    "kuid": "5e4e826c68bf4ffd8ab00ad9dc26e343",
    "name": "kony.ui.Button",
    "onclick": "AS_Button_49b4e2aff3044c7286f96cc1726796d7",
    "paddinginpixel": false,
    "parent": "flxCouponHeader",
    "pf": "masterCouponContainer",
    "showprogressindicator": false,
    "wType": "Button",
    "zindex": 1
}