{
    "@class": "com.kony.gen.viz.model.component.KVizLabel",
    "DNDConfig": null,
    "__parentReadjusting__": false,
    "_height_": {
        "type": "ref",
        "value": "preferred"
    },
    "_margin_": [
        1,
        1,
        1,
        1
    ],
    "_padding_": [
        0,
        0,
        0,
        0
    ],
    "_skin_": "s13cda51279a4984ac9726a9c95c523d",
    "_text_": "VALID THRU SAT 1/21/17",
    "_top_": {
        "type": "string",
        "value": "5dp"
    },
    "_width_": {
        "type": "string",
        "value": "100%"
    },
    "_wrapping_": 2,
    "android": {
        "textStyle": {
            "letterSpacing": 0,
            "strikeThrough": false
        }
    },
    "canUpdateUI": true,
    "centerx": {
        "type": "string",
        "value": "50%"
    },
    "childInstances": [],
    "containerweight": 100,
    "contentalignment": 2,
    "id": "lblValidityRestrictions",
    "info": null,
    "iphone": {
        "psp": {
            "wrapping": 2
        }
    },
    "isvisible": true,
    "kuid": "e1728b3d1c8b4094a4a3c78c35846b39",
    "name": "kony.ui.Label",
    "parent": "flexRestrictionsCode",
    "pf": "masterCouponContainer",
    "tooltip": "",
    "wType": "Label",
    "zindex": 1
}