{
    "_skin_": "sb1971f0a0774fbda5ff14589c5df551",
    "_srcKuid_": "eedf237de4c648f3b12c0b019c67ef97",
    "canUpdateUI": true,
    "context": {},
    "dataDiffs": {
        "centerY": {
            "type": "string",
            "value": "50%"
        },
        "height": {
            "type": "string",
            "value": "36dp"
        },
        "id": "imgCouponIcon",
        "imageScaleMode": 0,
        "right": {
            "type": "string",
            "value": "25.67%"
        },
        "src": "coupon_icon.png",
        "width": {
            "type": "string",
            "value": "36dp"
        },
        "zIndex": 1
    },
    "id": "imgCouponIcon",
    "instanceOf": "eedf237de4c648f3b12c0b019c67ef97",
    "isvisible": true,
    "kuid": "m2f2deedd7134bef9b4d76cf16d4b5e1",
    "masterInstance": true,
    "name": "kony.ui.Image2",
    "parent": "flxMyLists",
    "pf": "frmMyAccount",
    "topLevelInstanceKUID": "m2e94263c440446090f998206f76157b",
    "wType": "Image"
}