{
    "@class": "com.kony.gen.viz.model.component.KVizLabel",
    "DNDConfig": null,
    "__parentReadjusting__": false,
    "_height_": {
        "type": "ref",
        "value": "preferred"
    },
    "_left_": {
        "type": "string",
        "value": "0dp"
    },
    "_margin_": [
        1,
        1,
        1,
        1
    ],
    "_padding_": [
        0,
        0,
        0,
        0
    ],
    "_skin_": "s2765e9e056f4d83a6ca331978e93ac6",
    "_text_": "5301 Beltline Rd, Ste 101",
    "_top_": {
        "type": "string",
        "value": "2dp"
    },
    "_width_": {
        "type": "string",
        "value": "100%"
    },
    "_wrapping_": 2,
    "android": {
        "textStyle": {
            "letterSpacing": 0,
            "lineSpacing": 1,
            "strikeThrough": false
        }
    },
    "canUpdateUI": true,
    "containerweight": 100,
    "contentalignment": 1,
    "id": "lblAddressLine1",
    "info": null,
    "ipad": {
        "psp": {
            "wrapping": 2
        }
    },
    "iphone": {
        "psp": {
            "wrapping": 2
        },
        "textStyle": {
            "baseline": 0,
            "letterSpacing": 0,
            "lineSpacing": 1,
            "strikeThrough": false
        }
    },
    "isvisible": true,
    "kuid": "a8175c67cf614a4fa38c354ac48231db",
    "name": "kony.ui.Label",
    "parent": "flxStoreDetails",
    "pf": "tempRewardStoreLocator",
    "textStyle": {
        "baseline": 0,
        "letterSpacing": 0,
        "lineSpacing": 1,
        "strikeThrough": false
    },
    "tooltip": "",
    "wType": "Label",
    "zindex": 1
}