{
    "@class": "com.kony.gen.viz.model.component.KVizButton",
    "DNDConfig": null,
    "__parentReadjusting__": false,
    "_bottom_": {
        "type": "string",
        "value": "0dp"
    },
    "_height_": {
        "type": "string",
        "value": "60dp"
    },
    "_margin_": [
        6,
        6,
        6,
        6
    ],
    "_padding_": [
        0,
        0,
        0,
        0
    ],
    "_right_": {
        "type": "string",
        "value": "0dp"
    },
    "_skin_": "s312f499871f4ae6abca9bfeea7e7dc4",
    "_text_": "U",
    "_width_": {
        "type": "string",
        "value": "60dp"
    },
    "canUpdateUI": true,
    "containerId": true,
    "containerweight": 100,
    "contentalignment": 8,
    "displaytext": true,
    "focusskin": "s312f499871f4ae6abca9bfeea7e7dc4",
    "id": "btnCollapse",
    "info": null,
    "iphone": {
        "psp": {
            "showProgressIndicator": false
        }
    },
    "isvisible": true,
    "kuid": "bbd9ebae916e43c9893ef4267d83044c",
    "name": "kony.ui.Button",
    "paddinginpixel": false,
    "parent": "flxStoreHorizontal",
    "pf": "tempStoreDetails",
    "showprogressindicator": false,
    "wType": "Button",
    "zindex": 1
}