{
    "AS_Button_5091d407e66b4f3c92ccdb93de5d1ec6": {
        "id": "AS_Button_5091d407e66b4f3c92ccdb93de5d1ec6",
        "type": "ACTION_SEQUENCE",
        "params": [{
            "datatype": "collection",
            "name": "eventobject"
        }],
        "contextObj": {
            "type": "forms",
            "platform": null,
            "KUID": "e7fb73ea571e4d599a7495e09babda06"
        },
        "sourceObj": {
            "itemKUID": "c8a209c421584479ab525327e213dd86",
            "widgetKUID": "cbd31b760d604f46b20f10aab874aa91",
            "evt": "onClick",
            "platform": null
        },
        "language": "js",
        "actions": [{
            "id": "NAMED_ACTION____27bf3039a6a4475f86fc3d5235ef98da",
            "type": "NAMED_ACTION",
            "sequenceKUID": "AS_Button_b753919524014e1588e3269daa3deeab",
            "display": "AS_Button_b753919524014e1588e3269daa3deeab",
            "inputparams": [{
                "datatype": "collection",
                "name": "eventobject",
                "value": "eventobject"
            }],
            "parentId": null,
            "callbackType": null,
            "disabled": false,
            "isMasterInstanceAction": true
        }]
    }
}