{
    "AS_Button_d5a7805e782c443085eb181f94e654c9": {
        "id": "AS_Button_d5a7805e782c443085eb181f94e654c9",
        "type": "ACTION_SEQUENCE",
        "params": [{
            "datatype": "collection",
            "name": "eventobject"
        }],
        "contextObj": {
            "name": "frmProductCategory",
            "type": "forms",
            "platform": null,
            "KUID": "bdd5e54e589f4bd480abbe5ee428e54d"
        },
        "sourceObj": {
            "itemKUID": "52852c9439b745bfb22abc5becc67c33",
            "widgetKUID": "8e2b7f76938d422c9984cabb9f9a60c8",
            "evt": "onClick",
            "platform": null
        },
        "language": "js",
        "actions": [{
            "id": "NAMED_ACTION____252ce0576f0944e9b3e02940a605b2ac",
            "type": "NAMED_ACTION",
            "sequenceKUID": "AS_Button_49b4e2aff3044c7286f96cc1726796d7",
            "display": "<>",
            "inputparams": [{
                "datatype": "collection",
                "name": "eventobject",
                "value": "eventobject"
            }],
            "parentId": null,
            "callbackType": null,
            "disabled": false,
            "isMasterInstanceAction": true
        }]
    }
}