{
    "AS_Button_39173596af9840c3abecbe5ebb95cd07": {
        "id": "AS_Button_39173596af9840c3abecbe5ebb95cd07",
        "type": "ACTION_SEQUENCE",
        "params": [{
            "datatype": "collection",
            "name": "eventobject"
        }],
        "contextObj": {
            "name": "frmProductCategory",
            "type": "forms",
            "platform": "",
            "KUID": "bdd5e54e589f4bd480abbe5ee428e54d"
        },
        "sourceObj": {
            "itemKUID": "ebecd8cafd7147379a39ec06c14b40d3",
            "widgetKUID": "d9fcbd8b21fc40ffba36f015649d2706",
            "evt": "onClick",
            "platform": null
        },
        "language": "js",
        "actions": []
    }
}