{
    "AS_Button_9cf0824afffb4245941df0a51199027b": {
        "id": "AS_Button_9cf0824afffb4245941df0a51199027b",
        "type": "ACTION_SEQUENCE",
        "params": [{
            "datatype": "collection",
            "name": "eventobject"
        }],
        "contextObj": {
            "name": "frmProductCategoryMore",
            "type": "forms",
            "platform": "",
            "KUID": "f47260f822674fe58bfa438e364b2eb3"
        },
        "sourceObj": {
            "itemKUID": "c8a209c421584479ab525327e213dd86",
            "widgetKUID": "886ed314dcfe48a0b12ecaa31e6ddb7e",
            "evt": "onClick",
            "platform": null
        },
        "language": "js",
        "actions": []
    }
}