{
    "AS_Button_d7000bfd833c4491898577e9e4fccd12": {
        "id": "AS_Button_d7000bfd833c4491898577e9e4fccd12",
        "type": "ACTION_SEQUENCE",
        "params": [{
            "datatype": "collection",
            "name": "eventobject"
        }],
        "contextObj": {
            "name": "frmProjectsCategory",
            "type": "forms",
            "platform": null,
            "KUID": "93152dcd0fa6458987304a4071ddbe53"
        },
        "sourceObj": {
            "itemKUID": "0e1c550ae50f43249384e95456c1d97e",
            "widgetKUID": "0125b25a20ca42fa8e41b4cf3f80e8ca",
            "evt": "onClick",
            "platform": null
        },
        "language": "js",
        "actions": [{
            "id": "NAMED_ACTION____b20d234e1bb54350b1ab1f2b77a029fc",
            "type": "NAMED_ACTION",
            "sequenceKUID": "AS_Button_5b13fbcd53564508ae3a7a9685c9fed8",
            "display": "<>",
            "inputparams": [{
                "datatype": "collection",
                "name": "eventobject",
                "value": "eventobject"
            }],
            "parentId": null,
            "callbackType": null,
            "disabled": false,
            "isMasterInstanceAction": true
        }]
    }
}