{
    "AS_Button_0bf5f077ae554ae894781e20d2571d72": {
        "id": "AS_Button_0bf5f077ae554ae894781e20d2571d72",
        "type": "ACTION_SEQUENCE",
        "params": [{
            "datatype": "collection",
            "name": "eventobject"
        }],
        "contextObj": {
            "name": "frmProjectsCategory",
            "type": "forms",
            "platform": null,
            "KUID": "93152dcd0fa6458987304a4071ddbe53"
        },
        "sourceObj": {
            "itemKUID": "52852c9439b745bfb22abc5becc67c33",
            "widgetKUID": "8e2b7f76938d422c9984cabb9f9a60c8",
            "evt": "onClick",
            "platform": null
        },
        "language": "js",
        "actions": [{
            "id": "NAMED_ACTION____6ddfa3ebb3394b64a20ba3291ab0578a",
            "type": "NAMED_ACTION",
            "sequenceKUID": "AS_Button_49b4e2aff3044c7286f96cc1726796d7",
            "display": "<>",
            "inputparams": [{
                "datatype": "collection",
                "name": "eventobject",
                "value": "eventobject"
            }],
            "parentId": null,
            "callbackType": null,
            "disabled": false,
            "isMasterInstanceAction": true
        }]
    }
}