{
    "AS_Button_c19a42cd1f824ceba3f0d6c7f9e24802": {
        "id": "AS_Button_c19a42cd1f824ceba3f0d6c7f9e24802",
        "type": "ACTION_SEQUENCE",
        "params": [{
            "datatype": "collection",
            "name": "eventobject"
        }],
        "contextObj": {
            "type": "forms",
            "platform": null,
            "KUID": "4f9544153e1b4883904bf60e777bfaec"
        },
        "sourceObj": {
            "itemKUID": "0e1c550ae50f43249384e95456c1d97e",
            "widgetKUID": "0b2a5583f80a45c287a55c0a36d061c1",
            "evt": "onClick",
            "platform": null
        },
        "language": "js",
        "actions": [{
            "id": "NAMED_ACTION____33d643f6def243eaa0faacc732ffd6b2",
            "type": "NAMED_ACTION",
            "sequenceKUID": "AS_Button_20d2b91ac3e643eb8e5f8711ac2d164c",
            "display": "<>",
            "inputparams": [{
                "datatype": "collection",
                "name": "eventobject",
                "value": "eventobject"
            }],
            "parentId": null,
            "callbackType": null,
            "disabled": false,
            "isMasterInstanceAction": true
        }]
    }
}