{
    "AS_Button_f39df9701ce04479b30079bc6f77fbcd": {
        "id": "AS_Button_f39df9701ce04479b30079bc6f77fbcd",
        "type": "ACTION_SEQUENCE",
        "params": [{
            "datatype": "collection",
            "name": "eventobject"
        }],
        "contextObj": {
            "name": "frmStoreMap",
            "type": "forms",
            "platform": null,
            "KUID": "c2c227a05a6f4899a65e4dd81783ad9e"
        },
        "sourceObj": {
            "itemKUID": "c8a209c421584479ab525327e213dd86",
            "widgetKUID": "886ed314dcfe48a0b12ecaa31e6ddb7e",
            "evt": "onClick",
            "platform": null
        },
        "language": "js",
        "actions": []
    }
}