{
    "AS_Button_13b4e4e60a15449aa5a0084b57731f2e": {
        "id": "AS_Button_13b4e4e60a15449aa5a0084b57731f2e",
        "type": "ACTION_SEQUENCE",
        "params": [{
            "datatype": "collection",
            "name": "eventobject"
        }],
        "contextObj": {
            "name": "frmStoreMap",
            "type": "forms",
            "platform": "",
            "KUID": "c2c227a05a6f4899a65e4dd81783ad9e"
        },
        "sourceObj": {
            "itemKUID": "ebecd8cafd7147379a39ec06c14b40d3",
            "widgetKUID": "d9fcbd8b21fc40ffba36f015649d2706",
            "evt": "onClick",
            "platform": null
        },
        "language": "js",
        "actions": []
    }
}