{
    "AS_Button_fb12fbb96e8a4edc88bbfb270c7bd068": {
        "id": "AS_Button_fb12fbb96e8a4edc88bbfb270c7bd068",
        "type": "ACTION_SEQUENCE",
        "params": [{
            "datatype": "collection",
            "name": "eventobject"
        }],
        "contextObj": {
            "name": "frmHome",
            "type": "forms",
            "platform": "",
            "KUID": "6c7574c15314495a849974f48e0bdea5"
        },
        "language": "js",
        "actions": [{
            "id": "INVOKE_FUNCTION___8bac7daccd584a90a317d6e67a3894ed",
            "type": "INVOKE_FUNCTION",
            "sequenceKUID": "MFServiceCallTest",
            "display": "MFServiceCallTest",
            "inputparams": [],
            "parentId": null,
            "callbackType": null,
            "disabled": null,
            "source": "module"
        }]
    }
}