{
    "AS_Button_cbcea04b74904c57aac39487d4e50bb4": {
        "id": "AS_Button_cbcea04b74904c57aac39487d4e50bb4",
        "type": "ACTION_SEQUENCE",
        "params": [{
            "datatype": "collection",
            "name": "eventobject"
        }],
        "contextObj": {
            "name": "frmProjectsList",
            "type": "forms",
            "platform": null,
            "KUID": "d61f724e103144129f53d10dd262de7f"
        },
        "sourceObj": {
            "itemKUID": "0e1c550ae50f43249384e95456c1d97e",
            "widgetKUID": "8450195aa07345e3aacd9b5dbc170ba6",
            "evt": "onClick",
            "platform": null
        },
        "language": "js",
        "actions": [{
            "id": "NAMED_ACTION____d4066deda143465bb3980367530a3d6b",
            "type": "NAMED_ACTION",
            "sequenceKUID": "AS_Button_804fe4a9f0f749c2930f240d73479cc4",
            "display": "<>",
            "inputparams": [{
                "datatype": "collection",
                "name": "eventobject",
                "value": "eventobject"
            }],
            "parentId": null,
            "callbackType": null,
            "disabled": false,
            "isMasterInstanceAction": true
        }]
    }
}