{
    "AS_Button_7ef3b3eec450403587fc9a5a3055fd95": {
        "id": "AS_Button_7ef3b3eec450403587fc9a5a3055fd95",
        "type": "ACTION_SEQUENCE",
        "params": [{
            "datatype": "collection",
            "name": "eventobject"
        }],
        "contextObj": {
            "name": "frmProjectsList",
            "type": "forms",
            "platform": "",
            "KUID": "d61f724e103144129f53d10dd262de7f"
        },
        "sourceObj": {
            "itemKUID": "c8a209c421584479ab525327e213dd86",
            "widgetKUID": "cbd31b760d604f46b20f10aab874aa91",
            "evt": "onClick",
            "platform": null
        },
        "language": "js",
        "actions": [{
            "id": "NAMED_ACTION____28aa3a5120664a69a7cd505787f89272",
            "type": "NAMED_ACTION",
            "sequenceKUID": "AS_Button_b753919524014e1588e3269daa3deeab",
            "display": "AS_Button_b753919524014e1588e3269daa3deeab",
            "inputparams": [{
                "datatype": "collection",
                "name": "eventobject",
                "value": "eventobject"
            }],
            "parentId": null,
            "callbackType": null,
            "disabled": false,
            "isMasterInstanceAction": true
        }]
    }
}