{
    "AS_Button_f398853d40104bc7b9ce2c04cea14cf6": {
        "id": "AS_Button_f398853d40104bc7b9ce2c04cea14cf6",
        "type": "ACTION_SEQUENCE",
        "params": [{
            "datatype": "collection",
            "name": "eventobject"
        }],
        "contextObj": {
            "name": "frmProductCategory",
            "type": "forms",
            "platform": "",
            "KUID": "bdd5e54e589f4bd480abbe5ee428e54d"
        },
        "sourceObj": {
            "itemKUID": "fae63f042b894749b0bc9c8b44e38603",
            "widgetKUID": "6da2493a8116473f9b6c22b190675842",
            "evt": "onClick",
            "platform": null
        },
        "language": "js",
        "actions": []
    }
}