{
    "AS_Button_9aa1dae2cb1d452ebb1243ec7d3588a1": {
        "id": "AS_Button_9aa1dae2cb1d452ebb1243ec7d3588a1",
        "type": "ACTION_SEQUENCE",
        "params": [{
            "datatype": "collection",
            "name": "eventobject"
        }],
        "contextObj": {
            "name": "frmPDP",
            "type": "forms",
            "platform": "",
            "KUID": "6ee61417a0c1499c978be599a8808ad9"
        },
        "sourceObj": {
            "itemKUID": "52852c9439b745bfb22abc5becc67c33",
            "widgetKUID": "f5bcee38cecd45b8b0f78e58fad8dab0",
            "evt": "onClick",
            "platform": null
        },
        "language": "js",
        "actions": [{
            "id": "NAMED_ACTION____bfa03187a06849baaa7dd85ef3dcf808",
            "type": "NAMED_ACTION",
            "sequenceKUID": "AS_Button_fd50b3c22d264495a320b1de6f547e67",
            "display": "<>",
            "inputparams": [{
                "datatype": "collection",
                "name": "eventobject",
                "value": "eventobject"
            }],
            "parentId": null,
            "callbackType": null,
            "disabled": false,
            "isMasterInstanceAction": true
        }]
    }
}