{
    "AS_Button_92071125ed084bf081c43a154e80dd9a": {
        "id": "AS_Button_92071125ed084bf081c43a154e80dd9a",
        "type": "ACTION_SEQUENCE",
        "params": [{
            "datatype": "collection",
            "name": "eventobject"
        }],
        "contextObj": {
            "name": "frmWeeklyAdHome",
            "type": "forms",
            "platform": "",
            "KUID": "5152e83c407f45859d81d5d32ff594e1"
        },
        "sourceObj": {
            "itemKUID": "ebecd8cafd7147379a39ec06c14b40d3",
            "widgetKUID": "5e4e826c68bf4ffd8ab00ad9dc26e343",
            "evt": "onClick",
            "platform": null
        },
        "language": "js",
        "actions": []
    }
}