{
    "AS_Button_98863477aaab4e1c850929d718ad2603": {
        "id": "AS_Button_98863477aaab4e1c850929d718ad2603",
        "type": "ACTION_SEQUENCE",
        "params": [{
            "datatype": "collection",
            "name": "eventobject"
        }],
        "contextObj": {
            "name": "frmProjects",
            "type": "forms",
            "platform": null,
            "KUID": "04db268ef08e4e54997af5a0278de45d"
        },
        "sourceObj": {
            "itemKUID": "0e1c550ae50f43249384e95456c1d97e",
            "widgetKUID": "0125b25a20ca42fa8e41b4cf3f80e8ca",
            "evt": "onClick",
            "platform": null
        },
        "language": "js",
        "actions": [{
            "id": "NAMED_ACTION____51e78b88fced42baa8dfa0e19abf4269",
            "type": "NAMED_ACTION",
            "sequenceKUID": "AS_Button_5b13fbcd53564508ae3a7a9685c9fed8",
            "display": "<>",
            "inputparams": [{
                "datatype": "collection",
                "name": "eventobject",
                "value": "eventobject"
            }],
            "parentId": null,
            "callbackType": null,
            "disabled": false,
            "isMasterInstanceAction": true
        }]
    }
}