{
    "AS_Button_f806149447404c78a58be073bae5d37d": {
        "id": "AS_Button_f806149447404c78a58be073bae5d37d",
        "type": "ACTION_SEQUENCE",
        "params": [{
            "datatype": "collection",
            "name": "eventobject"
        }],
        "contextObj": {
            "name": "frmProducts",
            "type": "forms",
            "platform": "",
            "KUID": "3943ed99b7ae44c086b6f426beed8844"
        },
        "sourceObj": {
            "itemKUID": "52852c9439b745bfb22abc5becc67c33",
            "widgetKUID": "f5bcee38cecd45b8b0f78e58fad8dab0",
            "evt": "onClick"
        },
        "language": "js",
        "actions": [{
            "id": "NAMED_ACTION____113ed00eba104321bf4d382aa8f51edd",
            "type": "NAMED_ACTION",
            "sequenceKUID": "AS_Button_fd50b3c22d264495a320b1de6f547e67",
            "display": "<>",
            "inputparams": [{
                "datatype": "collection",
                "name": "eventobject",
                "value": "eventobject"
            }],
            "parentId": null,
            "callbackType": null,
            "disabled": false,
            "isMasterInstanceAction": true
        }]
    }
}