{
    "AS_Button_8b7844c41b2140aa8ea58c615a36284f": {
        "id": "AS_Button_8b7844c41b2140aa8ea58c615a36284f",
        "type": "ACTION_SEQUENCE",
        "params": [{
            "datatype": "collection",
            "name": "eventobject"
        }],
        "contextObj": {
            "name": "frmFindStoreMapView",
            "type": "forms",
            "platform": "",
            "KUID": "c2640d39f57a4fac842eec66887c7fb5"
        },
        "sourceObj": {
            "itemKUID": "485be18eb9f04dbd8c7b7ecb1b8d9c65",
            "widgetKUID": "6d59afd4802e4a528f87c0fd669d3f0b",
            "evt": "onClick",
            "platform": null
        },
        "language": "js",
        "actions": [{
            "id": "NAMED_ACTION____a24db6ddb238424b8831ad0f5e1f0a5a",
            "type": "NAMED_ACTION",
            "sequenceKUID": "AS_Button_49b4e2aff3044c7286f96cc1726796d7",
            "display": "<>",
            "inputparams": [{
                "datatype": "collection",
                "name": "eventobject",
                "value": "eventobject"
            }],
            "parentId": null,
            "callbackType": null,
            "disabled": false,
            "isMasterInstanceAction": true
        }]
    }
}