{
    "AS_Button_f1e569a239ff4f03b7110f3a5ca88d90": {
        "id": "AS_Button_f1e569a239ff4f03b7110f3a5ca88d90",
        "type": "ACTION_SEQUENCE",
        "params": [{
            "datatype": "collection",
            "name": "eventobject"
        }],
        "contextObj": {
            "name": "frmCoupons",
            "type": "forms",
            "platform": null,
            "KUID": "aab7ec9fbb964e3a9e5f7101489a2481"
        },
        "sourceObj": {
            "itemKUID": "c8a209c421584479ab525327e213dd86",
            "widgetKUID": "886ed314dcfe48a0b12ecaa31e6ddb7e",
            "evt": "onClick",
            "platform": null
        },
        "language": "js",
        "actions": []
    }
}