{
    "AS_Button_a924c5fd218d479a9af1e115221d6b2c": {
        "id": "AS_Button_a924c5fd218d479a9af1e115221d6b2c",
        "type": "ACTION_SEQUENCE",
        "params": [{
            "datatype": "collection",
            "name": "eventobject"
        }],
        "contextObj": {
            "name": "frmPDP",
            "type": "forms",
            "platform": "",
            "KUID": "6ee61417a0c1499c978be599a8808ad9"
        },
        "sourceObj": {
            "itemKUID": "fae63f042b894749b0bc9c8b44e38603",
            "widgetKUID": "6827dd9ba69042549cfd3729f57cb4be",
            "evt": "onClick",
            "platform": null
        },
        "language": "js",
        "actions": []
    }
}