{
    "AS_Button_047859842e3643dc9c06885f5fcd837b": {
        "id": "AS_Button_047859842e3643dc9c06885f5fcd837b",
        "type": "ACTION_SEQUENCE",
        "params": [{
            "datatype": "collection",
            "name": "eventobject"
        }],
        "contextObj": {
            "name": "frmScan",
            "type": "forms",
            "platform": null,
            "KUID": "4be53fe16b4044b3abe5774657625806"
        },
        "sourceObj": {
            "itemKUID": "c8a209c421584479ab525327e213dd86",
            "widgetKUID": "cbd31b760d604f46b20f10aab874aa91",
            "evt": "onClick",
            "platform": null
        },
        "language": "js",
        "actions": [{
            "id": "NAMED_ACTION___onClick_9efc77db89d346abb921f353883b1359",
            "type": "NAMED_ACTION",
            "sequenceKUID": "AS_Button_faa1ac5a675948faaee80dae921b69b5",
            "display": "<>",
            "inputparams": [{
                "datatype": "collection",
                "name": "eventobject",
                "value": "eventobject"
            }],
            "callbackType": null,
            "disabled": false,
            "isMasterInstanceAction": true
        }]
    }
}