{
    "AS_Button_4e2b856bd1804edf8d36338a8a4feaae": {
        "id": "AS_Button_4e2b856bd1804edf8d36338a8a4feaae",
        "type": "ACTION_SEQUENCE",
        "params": [{
            "datatype": "collection",
            "name": "eventobject"
        }],
        "contextObj": {
            "name": "frmScan",
            "type": "forms",
            "platform": null,
            "KUID": "4be53fe16b4044b3abe5774657625806"
        },
        "sourceObj": {
            "itemKUID": "52852c9439b745bfb22abc5becc67c33",
            "widgetKUID": "8e2b7f76938d422c9984cabb9f9a60c8",
            "evt": "onClick",
            "platform": null
        },
        "language": "js",
        "actions": [{
            "id": "NAMED_ACTION____dafae458c52141798663ec12cfd38803",
            "type": "NAMED_ACTION",
            "sequenceKUID": "AS_Button_d8027088a2644dd3b601c0a4eebf1ff1",
            "display": "AS_Button_d8027088a2644dd3b601c0a4eebf1ff1",
            "inputparams": [{
                "datatype": "collection",
                "name": "eventobject",
                "value": "eventobject"
            }],
            "parentId": null,
            "callbackType": null,
            "disabled": false,
            "isMasterInstanceAction": true
        }]
    }
}