{
    "AS_Button_7d492e2f66294a7d82f251c34e951b1f": {
        "id": "AS_Button_7d492e2f66294a7d82f251c34e951b1f",
        "type": "ACTION_SEQUENCE",
        "params": [{
            "datatype": "collection",
            "name": "eventobject"
        }],
        "contextObj": {
            "name": "frmProducts",
            "type": "forms",
            "platform": "",
            "KUID": "3943ed99b7ae44c086b6f426beed8844"
        },
        "sourceObj": {
            "itemKUID": "0e1c550ae50f43249384e95456c1d97e",
            "widgetKUID": "0125b25a20ca42fa8e41b4cf3f80e8ca",
            "evt": "onClick"
        },
        "language": "js",
        "actions": [{
            "id": "NAMED_ACTION____282959866bf848dc96ba131115d85fa6",
            "type": "NAMED_ACTION",
            "sequenceKUID": "AS_Button_5b13fbcd53564508ae3a7a9685c9fed8",
            "display": "<>",
            "inputparams": [{
                "datatype": "collection",
                "name": "eventobject",
                "value": "eventobject"
            }],
            "parentId": null,
            "callbackType": null,
            "disabled": false,
            "isMasterInstanceAction": true
        }]
    }
}