{
    "AS_Button_f70e929eb1864df2821f55e5adde69dd": {
        "id": "AS_Button_f70e929eb1864df2821f55e5adde69dd",
        "type": "ACTION_SEQUENCE",
        "params": [{
            "datatype": "collection",
            "name": "eventobject"
        }],
        "contextObj": {
            "name": "frmProjects",
            "type": "forms",
            "platform": null,
            "KUID": "04db268ef08e4e54997af5a0278de45d"
        },
        "sourceObj": {
            "itemKUID": "0e1c550ae50f43249384e95456c1d97e",
            "widgetKUID": "0b2a5583f80a45c287a55c0a36d061c1",
            "evt": "onClick",
            "platform": null
        },
        "language": "js",
        "actions": [{
            "id": "NAMED_ACTION____24484573128940c98057b89b5dbe4ecf",
            "type": "NAMED_ACTION",
            "sequenceKUID": "AS_Button_20d2b91ac3e643eb8e5f8711ac2d164c",
            "display": "<>",
            "inputparams": [{
                "datatype": "collection",
                "name": "eventobject",
                "value": "eventobject"
            }],
            "parentId": null,
            "callbackType": null,
            "disabled": false,
            "isMasterInstanceAction": true
        }]
    }
}