{
    "AS_Button_d971f9ece42744b9a152f11c2a08b210": {
        "id": "AS_Button_d971f9ece42744b9a152f11c2a08b210",
        "type": "ACTION_SEQUENCE",
        "params": [{
            "datatype": "collection",
            "name": "eventobject"
        }],
        "contextObj": {
            "name": "frmProjectsList",
            "type": "forms",
            "platform": "",
            "KUID": "d61f724e103144129f53d10dd262de7f"
        },
        "sourceObj": {
            "itemKUID": "ebecd8cafd7147379a39ec06c14b40d3",
            "widgetKUID": "d9fcbd8b21fc40ffba36f015649d2706",
            "evt": "onClick",
            "platform": null
        },
        "language": "js",
        "actions": []
    }
}