{
    "AS_Button_2558913012634033ad1b5b53937b946f": {
        "id": "AS_Button_2558913012634033ad1b5b53937b946f",
        "type": "ACTION_SEQUENCE",
        "params": [{
            "datatype": "collection",
            "name": "eventobject"
        }],
        "contextObj": {
            "name": "frmPDP",
            "type": "forms",
            "platform": null,
            "KUID": "6ee61417a0c1499c978be599a8808ad9"
        },
        "sourceObj": {
            "itemKUID": "c8a209c421584479ab525327e213dd86",
            "widgetKUID": "886ed314dcfe48a0b12ecaa31e6ddb7e",
            "evt": "onClick",
            "platform": null
        },
        "language": "js",
        "actions": []
    }
}