{
    "AS_Button_fe8e6f332dd9459ab38c8f1a96dad103": {
        "id": "AS_Button_fe8e6f332dd9459ab38c8f1a96dad103",
        "type": "ACTION_SEQUENCE",
        "name": "AS_Display_Coupon",
        "params": [{
            "datatype": "collection",
            "name": "eventobject"
        }],
        "contextObj": {
            "name": "frmHome",
            "type": "forms",
            "platform": "",
            "KUID": "6c7574c15314495a849974f48e0bdea5"
        },
        "language": "js",
        "actions": [{
            "id": "INVOKE_FUNCTION___5d1b5a4a72e246baa914eae46f15978b",
            "type": "INVOKE_FUNCTION",
            "sequenceKUID": "openCoupon",
            "display": "openCoupon",
            "inputparams": [],
            "parentId": null,
            "callbackType": null,
            "disabled": null,
            "source": "module"
        }]
    }
}