{
    "AS_FlexContainer_c0c47be12fae4e3dbacbd3de8dd814a7": {
        "id": "AS_FlexContainer_c0c47be12fae4e3dbacbd3de8dd814a7",
        "type": "ACTION_SEQUENCE",
        "params": [{
            "datatype": "collection",
            "name": "eventobject"
        }],
        "contextObj": {
            "name": "frmProjects",
            "type": "forms",
            "platform": "",
            "KUID": "04db268ef08e4e54997af5a0278de45d"
        },
        "sourceObj": {
            "itemKUID": "ebecd8cafd7147379a39ec06c14b40d3",
            "widgetKUID": "3e081a2e33534efabf614f1d0b6389d3",
            "evt": "onClick"
        },
        "language": "js",
        "actions": []
    }
}