{
    "AS_FlexScrollContainer_34d8c26fb4304004b0a30344d45d7658": {
        "id": "AS_FlexScrollContainer_34d8c26fb4304004b0a30344d45d7658",
        "type": "ACTION_SEQUENCE",
        "params": [{
            "datatype": "collection",
            "name": "eventobject"
        }],
        "contextObj": {
            "name": "frmCoupons",
            "type": "forms",
            "platform": null,
            "KUID": "aab7ec9fbb964e3a9e5f7101489a2481"
        },
        "language": "js",
        "actions": [{
            "id": "INVOKE_FUNCTION__ide_onScrollEnd_113ea05eaa1d4f3eae8bc9acf1495ee2",
            "type": "INVOKE_FUNCTION",
            "sequenceKUID": "dispFooter",
            "display": "dispFooter",
            "inputparams": [],
            "callbackType": null,
            "disabled": null,
            "source": "module"
        }]
    }
}