{
    "AS_FlexContainer_6b4dc3b392d049bea981cb80ec4a694e": {
        "id": "AS_FlexContainer_6b4dc3b392d049bea981cb80ec4a694e",
        "type": "ACTION_SEQUENCE",
        "params": [{
            "datatype": "collection",
            "name": "eventobject"
        }],
        "contextObj": {
            "name": "frmProjectsCategory",
            "type": "forms",
            "platform": "",
            "KUID": "93152dcd0fa6458987304a4071ddbe53"
        },
        "sourceObj": {
            "itemKUID": "ebecd8cafd7147379a39ec06c14b40d3",
            "widgetKUID": "3e081a2e33534efabf614f1d0b6389d3",
            "evt": "onClick"
        },
        "language": "js",
        "actions": []
    }
}