{
    "AS_Button_60934e33ac4a43cba4b7e50f43530c39": {
        "id": "AS_Button_60934e33ac4a43cba4b7e50f43530c39",
        "type": "ACTION_SEQUENCE",
        "name": "AS_Nav_Home",
        "params": [{
            "datatype": "collection",
            "name": "eventobject"
        }],
        "contextObj": {
            "name": "frmMore",
            "type": "forms",
            "platform": "",
            "KUID": "95b0ed905da640c9b065ee885d5e55f9"
        },
        "language": "js",
        "actions": [{
            "id": "INVOKE_FUNCTION___8b6223bee4024aaf9a8cfc4c28219e7a",
            "type": "INVOKE_FUNCTION",
            "sequenceKUID": "NAV_frmHome",
            "display": "NAV_frmHome",
            "inputparams": [],
            "parentId": null,
            "callbackType": null,
            "disabled": null,
            "source": "module"
        }]
    }
}