{
    "AS_Segment_3921c189908c49fb969b13600e4a036a": {
        "id": "AS_Segment_3921c189908c49fb969b13600e4a036a",
        "type": "ACTION_SEQUENCE",
        "params": [{
            "datatype": "collection",
            "name": "eventobject"
        }, {
            "datatype": "number",
            "name": "sectionNumber"
        }, {
            "datatype": "number",
            "name": "rowNumber"
        }],
        "contextObj": {
            "name": "frmProductCategory",
            "type": "forms",
            "platform": null,
            "KUID": "bdd5e54e589f4bd480abbe5ee428e54d"
        },
        "sourceObj": {
            "itemKUID": "db7a2b33ff7642c4aa1d62f414180043",
            "widgetKUID": "me6f1e09fda54b68aa88ff4fde184490",
            "evt": "onRowClick",
            "platform": null
        },
        "language": "js",
        "actions": [{
            "id": "NAMED_ACTION____98eae64396b94d77baa1fd50e56e3dfb",
            "type": "NAMED_ACTION",
            "sequenceKUID": "AS_Segment_c9660bc84f354ebdae40444a469d8d5b",
            "display": "AS_Segment_c9660bc84f354ebdae40444a469d8d5b",
            "inputparams": [{
                "datatype": "collection",
                "name": "eventobject",
                "value": "eventobject"
            }, {
                "datatype": "number",
                "name": "sectionNumber",
                "value": "sectionNumber"
            }, {
                "datatype": "number",
                "name": "rowNumber",
                "value": "rowNumber"
            }],
            "parentId": null,
            "callbackType": null,
            "disabled": false,
            "isMasterInstanceAction": true
        }]
    }
}