{
    "AS_Segment_b70d99c4e81c4c79b59891d0090bb25a": {
        "id": "AS_Segment_b70d99c4e81c4c79b59891d0090bb25a",
        "type": "ACTION_SEQUENCE",
        "params": [{
            "datatype": "collection",
            "name": "eventobject"
        }, {
            "datatype": "number",
            "name": "sectionNumber"
        }, {
            "datatype": "number",
            "name": "rowNumber"
        }],
        "contextObj": {
            "type": "forms",
            "platform": null,
            "KUID": "4f9544153e1b4883904bf60e777bfaec"
        },
        "sourceObj": {
            "itemKUID": "db7a2b33ff7642c4aa1d62f414180043",
            "widgetKUID": "me6f1e09fda54b68aa88ff4fde184490",
            "evt": "onRowClick",
            "platform": null
        },
        "language": "js",
        "actions": [{
            "id": "NAMED_ACTION____a9155d17bb834378865f0f127c7995f6",
            "type": "NAMED_ACTION",
            "sequenceKUID": "AS_Segment_c9660bc84f354ebdae40444a469d8d5b",
            "display": "AS_Segment_c9660bc84f354ebdae40444a469d8d5b",
            "inputparams": [{
                "datatype": "collection",
                "name": "eventobject",
                "value": "eventobject"
            }, {
                "datatype": "number",
                "name": "sectionNumber",
                "value": "sectionNumber"
            }, {
                "datatype": "number",
                "name": "rowNumber",
                "value": "rowNumber"
            }],
            "parentId": null,
            "callbackType": null,
            "disabled": false,
            "isMasterInstanceAction": true
        }]
    }
}