{
    "AS_TextField_cc808f19122b4caea9a7c2cac2e60330": {
        "id": "AS_TextField_cc808f19122b4caea9a7c2cac2e60330",
        "type": "ACTION_SEQUENCE",
        "params": [{
            "datatype": "collection",
            "name": "eventobject"
        }, {
            "datatype": "string",
            "name": "changedtext"
        }],
        "contextObj": {
            "name": "frmProductCategory",
            "type": "forms",
            "platform": null,
            "KUID": "bdd5e54e589f4bd480abbe5ee428e54d"
        },
        "sourceObj": {
            "itemKUID": "c8a209c421584479ab525327e213dd86",
            "widgetKUID": "bd1cbf726ec14859af35a9317b753d7b",
            "evt": "onBeginEditing",
            "platform": "iphone"
        },
        "language": "js",
        "actions": []
    }
}