{
    "AS_TextField_f15158c896f54b3f8be5169364cc0869": {
        "id": "AS_TextField_f15158c896f54b3f8be5169364cc0869",
        "type": "ACTION_SEQUENCE",
        "params": [{
            "datatype": "collection",
            "name": "eventobject"
        }, {
            "datatype": "string",
            "name": "changedtext"
        }],
        "contextObj": {
            "name": "frmProjects",
            "type": "forms",
            "platform": null,
            "KUID": "04db268ef08e4e54997af5a0278de45d"
        },
        "sourceObj": {
            "itemKUID": "c8a209c421584479ab525327e213dd86",
            "widgetKUID": "bd1cbf726ec14859af35a9317b753d7b",
            "evt": "onEndEditing",
            "platform": "iphone"
        },
        "language": "js",
        "actions": []
    }
}