{
    "AS_TextField_003c7853e096491c9cfb549546777180": {
        "id": "AS_TextField_003c7853e096491c9cfb549546777180",
        "type": "ACTION_SEQUENCE",
        "params": [{
            "datatype": "collection",
            "name": "eventobject"
        }, {
            "datatype": "string",
            "name": "changedtext"
        }],
        "contextObj": {
            "name": "frmPDP",
            "type": "forms",
            "platform": null,
            "KUID": "6ee61417a0c1499c978be599a8808ad9"
        },
        "sourceObj": {
            "itemKUID": "c8a209c421584479ab525327e213dd86",
            "widgetKUID": "bd1cbf726ec14859af35a9317b753d7b",
            "evt": "onBeginEditing",
            "platform": "iphone"
        },
        "language": "js",
        "actions": []
    }
}