{
    "AS_TextField_b45a716e18b94484bbef73e843636866": {
        "id": "AS_TextField_b45a716e18b94484bbef73e843636866",
        "type": "ACTION_SEQUENCE",
        "params": [{
            "datatype": "collection",
            "name": "eventobject"
        }, {
            "datatype": "string",
            "name": "changedtext"
        }],
        "contextObj": {
            "name": "frmProjectsList",
            "type": "forms",
            "platform": null,
            "KUID": "d61f724e103144129f53d10dd262de7f"
        },
        "sourceObj": {
            "itemKUID": "c8a209c421584479ab525327e213dd86",
            "widgetKUID": "bd1cbf726ec14859af35a9317b753d7b",
            "evt": "onEndEditing",
            "platform": "iphone"
        },
        "language": "js",
        "actions": []
    }
}