{
    "AS_Segment_3cba152fa5d54002b935889ba266a8b8": {
        "id": "AS_Segment_3cba152fa5d54002b935889ba266a8b8",
        "type": "ACTION_SEQUENCE",
        "name": "onPushSegProductsList",
        "params": [{
            "datatype": "collection",
            "name": "eventobject"
        }],
        "contextObj": {
            "name": "frmProductsList",
            "type": "forms",
            "platform": "",
            "KUID": "6459ddd468e4473eaed3b6acdf326072"
        },
        "language": "js",
        "actions": [{
            "id": "ADD_SNIPPET__e7cfca03c9bd492280240e2f35121653",
            "type": "ADD_SNIPPET",
            "codeSnippet": "showMenuBar(frmProductsList.segProductsList);\nfunction showMenuBar(obj){\n    try{\n      var form = kony.application.getCurrentForm();\n      form.flxFooterWrap.animate(\n        kony.ui.createAnimation({\"100\":{\"stepConfig\":{\"timingFunction\":kony.anim.EASE}, \"bottom\":\"0dp\"}}),\n        {\"delay\":0,\"iterationCount\":1,\"fillMode\":kony.anim.FILL_MODE_FORWARDS,\"duration\":0.5}\n      );\n\t  MVCApp.getProductsListController().showMore(frmProductsList.segProductsList);\n      \n    }catch(e){\n      kony.print(\"exception---\"+e);\n    }\n  }",
            "parentId": null,
            "callbackType": null
        }]
    }
}