{
    "AS_Form_7b7e3a0577d247c7902c7956ca3fac22": {
        "id": "AS_Form_7b7e3a0577d247c7902c7956ca3fac22",
        "type": "ACTION_SEQUENCE",
        "name": "postShowHome",
        "params": [{
            "datatype": "collection",
            "name": "eventobject"
        }],
        "contextObj": {
            "name": "frmHome",
            "type": "forms",
            "platform": "",
            "KUID": "6c7574c15314495a849974f48e0bdea5"
        },
        "language": "js",
        "actions": [{
            "id": "INVOKE_FUNCTION___51716c795f224199a0581c3712be3b51",
            "type": "INVOKE_FUNCTION",
            "sequenceKUID": "postShowHomeAnimate",
            "display": "postShowHomeAnimate",
            "inputparams": [],
            "parentId": null,
            "callbackType": null,
            "disabled": null,
            "source": "module"
        }]
    }
}