{
    "__parentReadjusting__": false,
    "_padding_": [
        0,
        0,
        0,
        0
    ],
    "_skin_": "s61886db45824820846e292717ca8077",
    "_srcKuid_": "b560d3bd2095404181cae548178857d9",
    "_top_": {
        "type": "string",
        "value": "10dp"
    },
    "areflexpropsreferenced": true,
    "canUpdateUI": true,
    "children": [
        "lblOfferTitle1Restrictions",
        "lblOfferTitle2Restrictions",
        "lblOfferSubTitleRestrictions",
        "lblValidityRestrictions",
        "lblPromoCodeRestrictions",
        "imgBarcodeRestrictions"
    ],
    "context": {},
    "dataDiffs": {
        "id": "flexInner1",
        "layoutType": 4
    },
    "id": "flexInner1",
    "instanceOf": "b560d3bd2095404181cae548178857d9",
    "isdatareferenced": true,
    "isvisible": false,
    "kuid": "mc764c2c4c694befa3b46965e365fbcb",
    "layouttype": 4,
    "masterInstance": true,
    "name": "kony.ui.FlexContainer",
    "parent": "flexRestrictionsCode",
    "pf": "frmProductCategory",
    "topLevelInstanceKUID": "mdf9476af219468f9a9ac5557aa58658",
    "wType": "FlexContainer"
}