{
    "__parentReadjusting__": false,
    "_padding_": [
        0,
        0,
        0,
        0
    ],
    "_skin_": "sb1971f0a0774fbda5ff14589c5df551",
    "_srcKuid_": "e8732404326d4ee0a3595b61ba89defa",
    "areflexpropsreferenced": true,
    "canUpdateUI": true,
    "context": {},
    "dataDiffs": {
        "id": "Image0a5620b6427ec41"
    },
    "id": "Image0a5620b6427ec41",
    "instanceOf": "e8732404326d4ee0a3595b61ba89defa",
    "isdatareferenced": true,
    "isvisible": true,
    "kuid": "m57b9a118a93463bbf8366b330e40ea5",
    "masterInstance": true,
    "name": "kony.ui.Image2",
    "parent": "flxCloseBtnWrap",
    "pf": "frmProductCategory",
    "topLevelInstanceKUID": "mdf9476af219468f9a9ac5557aa58658",
    "wType": "Image"
}