{
    "__parentReadjusting__": false,
    "_padding_": [
        0,
        0,
        0,
        0
    ],
    "_skin_": "sb1971f0a0774fbda5ff14589c5df551",
    "_srcKuid_": "b3c48081a0054fb18afa9e5f8f87435c",
    "areflexpropsreferenced": true,
    "canUpdateUI": true,
    "context": {},
    "dataDiffs": {
        "id": "imgBarcodeRestrictions"
    },
    "id": "imgBarcodeRestrictions",
    "instanceOf": "b3c48081a0054fb18afa9e5f8f87435c",
    "isdatareferenced": true,
    "isvisible": true,
    "kuid": "mf13e8fc8c2c4bd7baee854fe5646262",
    "masterInstance": true,
    "name": "kony.ui.Image2",
    "parent": "flexInner1",
    "pf": "frmProductCategory",
    "topLevelInstanceKUID": "mdf9476af219468f9a9ac5557aa58658",
    "wType": "Image"
}