{
    "__parentReadjusting__": false,
    "_padding_": [
        0,
        0,
        0,
        0
    ],
    "_skin_": "sa34786f8cd54c14a5c400d3ff525f93",
    "_srcKuid_": "9dc4d54b195845728c83fa4d8e63a2a1",
    "areflexpropsreferenced": true,
    "canUpdateUI": true,
    "context": {},
    "dataDiffs": {
        "id": "lblNoBarcode"
    },
    "id": "lblNoBarcode",
    "instanceOf": "9dc4d54b195845728c83fa4d8e63a2a1",
    "isdatareferenced": true,
    "isvisible": true,
    "kuid": "mdb5a4a0a92b438bab0b19907a620a2d",
    "masterInstance": true,
    "name": "kony.ui.Label",
    "parent": "flexInner2",
    "pf": "frmProductCategory",
    "topLevelInstanceKUID": "mdf9476af219468f9a9ac5557aa58658",
    "wType": "Label"
}