{
    "__parentReadjusting__": false,
    "_padding_": [
        0,
        0,
        0,
        0
    ],
    "_skin_": "s23df4229f114ec4a9cead3747be811c",
    "_srcKuid_": "25641b223020464c977e292bf98e3989",
    "areflexpropsreferenced": true,
    "canUpdateUI": true,
    "context": {},
    "dataDiffs": {
        "id": "lblOfferTitle2Restrictions"
    },
    "id": "lblOfferTitle2Restrictions",
    "instanceOf": "25641b223020464c977e292bf98e3989",
    "isdatareferenced": true,
    "isvisible": true,
    "kuid": "m1cf47a53b1947b2a5c23855a3e584f1",
    "masterInstance": true,
    "name": "kony.ui.Label",
    "parent": "flexInner1",
    "pf": "frmProductCategory",
    "topLevelInstanceKUID": "mdf9476af219468f9a9ac5557aa58658",
    "wType": "Label"
}