{
    "__parentReadjusting__": false,
    "_padding_": [
        0,
        0,
        0,
        0
    ],
    "_skin_": "s4c42f99d6e24dce95800a73173f18c4",
    "_srcKuid_": "86f73f347fb94de79fa1352b651dd14c",
    "areflexpropsreferenced": true,
    "canUpdateUI": true,
    "context": {},
    "dataDiffs": {
        "id": "lblRestrictions"
    },
    "id": "lblRestrictions",
    "instanceOf": "86f73f347fb94de79fa1352b651dd14c",
    "isdatareferenced": true,
    "isvisible": true,
    "kuid": "m34eac4fceb64f5e951171af69881617",
    "masterInstance": true,
    "name": "kony.ui.Label",
    "parent": "flxCouponDetailsScroll",
    "pf": "frmProductCategory",
    "topLevelInstanceKUID": "mdf9476af219468f9a9ac5557aa58658",
    "wType": "Label"
}