{
    "__parentReadjusting__": false,
    "_skin_": "s61886db45824820846e292717ca8077",
    "_srcKuid_": "cafa71f1a7c746f3b2b1c5c5155a0057",
    "canUpdateUI": true,
    "children": [
        "imageVoiceSearch"
    ],
    "context": {},
    "dataDiffs": {
        "clipBounds": true,
        "enableScrolling": true,
        "height": {
            "type": "string",
            "value": "100%"
        },
        "id": "flxImageVoiceSearch",
        "layoutType": 2,
        "right": {
            "type": "string",
            "value": "18%"
        },
        "snapGridSize": 10,
        "snapToGrid": true,
        "top": {
            "type": "string",
            "value": "0dp"
        },
        "width": {
            "type": "string",
            "value": "12%"
        },
        "zIndex": 2
    },
    "id": "flxImageVoiceSearch",
    "instanceOf": "cafa71f1a7c746f3b2b1c5c5155a0057",
    "isvisible": true,
    "kuid": "mbfc4aa6f70447a08a09a8c8b7bd9a4d",
    "layouttype": 2,
    "masterInstance": true,
    "name": "kony.ui.FlexContainer",
    "parent": "flxSearchContents",
    "pf": "frmPDP",
    "topLevelInstanceKUID": "md822c528f4a4582a53a05c793a51206",
    "wType": "FlexContainer"
}