{
    "__parentReadjusting__": false,
    "_padding_": [
        0,
        0,
        0,
        0
    ],
    "_skin_": "s07f1d1fff60437cbc0e272108bd632f",
    "_srcKuid_": "dcba32740fdc44caa8469cab2c9cedd2",
    "canUpdateUI": true,
    "context": {},
    "dataDiffs": {
        "height": {
            "type": "string",
            "value": "42%"
        },
        "id": "lblItemsCount",
        "right": {
            "type": "string",
            "value": "3%"
        },
        "text": "",
        "textStyle": {},
        "top": {
            "type": "string",
            "value": "7%"
        },
        "width": {
            "type": "string",
            "value": "30%"
        },
        "zIndex": 2
    },
    "id": "lblItemsCount",
    "instanceOf": "dcba32740fdc44caa8469cab2c9cedd2",
    "isvisible": true,
    "kuid": "m5cbc0c61a5c4f9ab987a5610a100eca",
    "masterInstance": true,
    "name": "kony.ui.Label",
    "parent": "flxCart",
    "pf": "frmPDP",
    "topLevelInstanceKUID": "md822c528f4a4582a53a05c793a51206",
    "wType": "Label"
}