{
    "AS_Button_982bda2f27124d19b13a3fa69fdc7615": {
        "id": "AS_Button_982bda2f27124d19b13a3fa69fdc7615",
        "type": "ACTION_SEQUENCE",
        "params": [{
            "datatype": "collection",
            "name": "eventobject"
        }],
        "language": "js",
        "actions": [{
            "id": "INVOKE_FUNCTION__onClick_8268dc7c3c574dd49173233d4ec4b643",
            "type": "INVOKE_FUNCTION",
            "sequenceKUID": "openCoupon",
            "display": "openCoupon",
            "inputparams": [],
            "callbackType": null,
            "disabled": null
        }]
    }
}