{
    "__parentReadjusting__": false,
    "_skin_": "s01620b9784a48e0952ac25f1f2ded3f",
    "_srcKuid_": "ab46824af00b4d39abe1c4919c0957a7",
    "canUpdateUI": true,
    "context": {},
    "dataDiffs": {
        "centerX": {
            "type": "string",
            "value": "50%"
        },
        "height": {
            "type": "ref",
            "value": "preferred"
        },
        "id": "lblVoice",
        "text": "Voice Search",
        "textStyle": {
            "letterSpacing": 0,
            "strikeThrough": false
        },
        "top": {
            "type": "string",
            "value": "67%"
        },
        "width": {
            "type": "string",
            "value": "100%"
        },
        "zIndex": 1
    },
    "id": "lblVoice",
    "instanceOf": "ab46824af00b4d39abe1c4919c0957a7",
    "isvisible": true,
    "kuid": "mb6b74972ffa4ff8b34802beb044335f",
    "masterInstance": true,
    "name": "kony.ui.Label",
    "parent": "flxVoice",
    "pf": "frmShoppingList",
    "topLevelInstanceKUID": "mdf699fe5922454e80aca3a18bfbe49d",
    "wType": "Label"
}