{
    "__parentReadjusting__": false,
    "_padding_": [
        0,
        0,
        0,
        0
    ],
    "_skin_": "s0a9adcff4444d87be96a053a743aa80",
    "_srcKuid_": "d19707b964cb4ce9ad625fe121fe3b9f",
    "areflexpropsreferenced": true,
    "canUpdateUI": true,
    "context": {},
    "dataDiffs": {
        "id": "btnCoupon"
    },
    "id": "btnCoupon",
    "instanceOf": "d19707b964cb4ce9ad625fe121fe3b9f",
    "isdatareferenced": true,
    "isvisible": false,
    "kuid": "m9b643b8e1ca4fb29f2003394f0a2bf4",
    "masterInstance": true,
    "name": "kony.ui.Button",
    "parent": "flxCouponHeader",
    "pf": "frmPDP",
    "topLevelInstanceKUID": "mfef6266e80f4e7f93738a1a533ea5c8",
    "wType": "Button"
}