{
    "__parentReadjusting__": false,
    "_padding_": [
        0,
        0,
        0,
        0
    ],
    "_skin_": "s61886db45824820846e292717ca8077",
    "_srcKuid_": "b34968a9896a402c866af24c5fe8cfdb",
    "areflexpropsreferenced": true,
    "canUpdateUI": true,
    "children": [
        "lblRewardText"
    ],
    "context": {},
    "dataDiffs": {
        "id": "flxRewardTxt"
    },
    "id": "flxRewardTxt",
    "instanceOf": "b34968a9896a402c866af24c5fe8cfdb",
    "isdatareferenced": true,
    "isvisible": true,
    "kuid": "m85374c357df4780873505d9728e53e8",
    "masterInstance": true,
    "name": "kony.ui.FlexContainer",
    "parent": "flxCouponRewards",
    "pf": "frmPDP",
    "topLevelInstanceKUID": "mfef6266e80f4e7f93738a1a533ea5c8",
    "wType": "FlexContainer"
}