{
    "__parentReadjusting__": false,
    "_padding_": [
        0,
        0,
        0,
        0
    ],
    "_skin_": "sb1971f0a0774fbda5ff14589c5df551",
    "_srcKuid_": "e8732404326d4ee0a3595b61ba89defa",
    "areflexpropsreferenced": true,
    "canUpdateUI": true,
    "context": {},
    "dataDiffs": {
        "id": "Image0a5620b6427ec41"
    },
    "id": "Image0a5620b6427ec41",
    "instanceOf": "e8732404326d4ee0a3595b61ba89defa",
    "isdatareferenced": true,
    "isvisible": true,
    "kuid": "m2b8186ed9cc4b53b7a332dc7ddc9b2d",
    "masterInstance": true,
    "name": "kony.ui.Image2",
    "parent": "flxCloseBtnWrap",
    "pf": "frmPDP",
    "topLevelInstanceKUID": "mfef6266e80f4e7f93738a1a533ea5c8",
    "wType": "Image"
}