{
    "DNDConfig": null,
    "__parentReadjusting__": false,
    "_height_": {
        "type": "string",
        "value": "50%"
    },
    "_left_": {
        "type": "string",
        "value": "0dp"
    },
    "_margin_": [
        0,
        0,
        0,
        0
    ],
    "_orientation_": 6,
    "_padding_": [
        0,
        0,
        0,
        0
    ],
    "_percent_": true,
    "_skin_": "s941cd8d6ec448169b01f2096fa380ad",
    "_top_": {
        "type": "string",
        "value": "50%"
    },
    "_width_": {
        "type": "string",
        "value": "100%"
    },
    "allboxes": [],
    "autogrowmode": 0,
    "canUpdateUI": true,
    "children": [
        "lblGuideTitle3",
        "lblGuideDesc3",
        "flexGuideControl31",
        "flexGuideControl32"
    ],
    "clipbounds": true,
    "containerweight": 100,
    "enablescrolling": true,
    "id": "flexGuideContent3",
    "info": null,
    "isvisible": true,
    "kuid": "97c9e3fc97774cb09063042737f12a6a",
    "layouttype": 2,
    "name": "kony.ui.FlexContainer",
    "parent": "flexGuide3",
    "pf": "frmGuide",
    "snapgridsize": 10,
    "snaptogrid": true,
    "wType": "FlexContainer",
    "widgetalignment": 1,
    "zindex": 1
}