{
    "@class": "com.kony.gen.viz.model.component.KVizLabel",
    "DNDConfig": null,
    "__parentReadjusting__": false,
    "_height_": {
        "type": "ref",
        "value": "preferred"
    },
    "_left_": {
        "type": "string",
        "value": "10dp"
    },
    "_margin_": [
        1,
        1,
        1,
        1
    ],
    "_padding_": [
        0,
        0,
        0,
        0
    ],
    "_skin_": "sf2f51089cc84938bd5092f3d6dc5c17",
    "_text_": "",
    "_top_": {
        "type": "string",
        "value": "10%"
    },
    "_width_": {
        "type": "string",
        "value": "95%"
    },
    "_wrapping_": 2,
    "android": {
        "textStyle": {
            "letterSpacing": 0,
            "lineSpacing": 4,
            "strikeThrough": false
        }
    },
    "canUpdateUI": true,
    "containerweight": 100,
    "contentalignment": 5,
    "id": "lblGuideTitle5",
    "info": null,
    "ipad": {
        "psp": {
            "wrapping": 2
        }
    },
    "iphone": {
        "psp": {
            "wrapping": 2
        },
        "textStyle": {
            "baseline": 0,
            "letterSpacing": 0,
            "lineSpacing": 4,
            "strikeThrough": false
        }
    },
    "isvisible": true,
    "kuid": "284b18fed120475a95540ffd305defcf",
    "name": "kony.ui.Label",
    "parent": "flexGuideContent5",
    "pf": "frmGuide",
    "textStyle": {
        "baseline": 0,
        "letterSpacing": 0,
        "lineSpacing": 4,
        "strikeThrough": false
    },
    "texti18n": "i18n.phone.frmGuide.lblGuideTitle5",
    "tooltip": "",
    "wType": "Label",
    "zindex": 1
}