{
    "@class": "com.kony.gen.viz.model.component.KVizLabel",
    "DNDConfig": null,
    "__parentReadjusting__": false,
    "_height_": {
        "type": "string",
        "value": "40dp"
    },
    "_left_": {
        "type": "number",
        "value": "10"
    },
    "_margin_": [
        1,
        1,
        1,
        1
    ],
    "_padding_": [
        0,
        0,
        0,
        0
    ],
    "_skin_": "s779dc7a38f345afbae1836022f2a794",
    "_text_": "",
    "_top_": {
        "type": "string",
        "value": "6%"
    },
    "_width_": {
        "type": "string",
        "value": "95%"
    },
    "_wrapping_": 2,
    "android": {
        "textStyle": {
            "letterSpacing": 0,
            "lineSpacing": 2,
            "strikeThrough": false
        }
    },
    "canUpdateUI": true,
    "containerweight": 100,
    "contentalignment": 5,
    "id": "lblGuideDesc1",
    "info": null,
    "ipad": {
        "psp": {
            "wrapping": 2
        }
    },
    "iphone": {
        "psp": {
            "wrapping": 2
        },
        "textStyle": {
            "baseline": 0,
            "letterSpacing": 0,
            "lineSpacing": 2,
            "strikeThrough": false
        }
    },
    "isvisible": true,
    "kuid": "332ff3c443b040da8297f7b03716b4b3",
    "name": "kony.ui.Label",
    "parent": "flexGuideContent1",
    "pf": "frmGuide",
    "textStyle": {
        "baseline": 0,
        "letterSpacing": 0,
        "lineSpacing": 2,
        "strikeThrough": false
    },
    "tooltip": "",
    "wType": "Label",
    "zindex": 1
}