{
    "__parentReadjusting__": false,
    "_skin_": "s8ed8c4dcbcc4279b1a5d3c4cefb9dbf",
    "_srcKuid_": "a55b5389d0724325a9c1427fca6e320b",
    "canUpdateUI": true,
    "children": [
        "btnBarCode"
    ],
    "context": {},
    "dataDiffs": {
        "clipBounds": true,
        "enableScrolling": true,
        "height": {
            "type": "string",
            "value": "100%"
        },
        "id": "flxBarcodeContainer",
        "layoutType": 2,
        "right": {
            "type": "string",
            "value": "5%"
        },
        "snapGridSize": 10,
        "snapToGrid": true,
        "top": {
            "type": "string",
            "value": "0dp"
        },
        "width": {
            "type": "string",
            "value": "12%"
        }
    },
    "id": "flxBarcodeContainer",
    "instanceOf": "a55b5389d0724325a9c1427fca6e320b",
    "isvisible": true,
    "kuid": "m474800a8e6d4b08a5d6e91e3a0748e6",
    "layouttype": 2,
    "masterInstance": true,
    "name": "kony.ui.FlexContainer",
    "parent": "flxSearchContents",
    "pf": "frmProductCategory",
    "topLevelInstanceKUID": "m3a0844f34cd493cae5f499ad349ec94",
    "wType": "FlexContainer"
}