{
    "__parentReadjusting__": false,
    "_skin_": "s8ed8c4dcbcc4279b1a5d3c4cefb9dbf",
    "_srcKuid_": "dc5aec4769ec45c2ab656fb8100656b7",
    "canUpdateUI": true,
    "children": [
        "textSearch",
        "btnClearSearch"
    ],
    "context": {},
    "dataDiffs": {
        "clipBounds": true,
        "enableScrolling": true,
        "height": {
            "type": "string",
            "value": "100%"
        },
        "id": "flxTextboxContents",
        "layoutType": 2,
        "left": {
            "type": "string",
            "value": "12.50%"
        },
        "snapGridSize": 10,
        "snapToGrid": true,
        "top": {
            "type": "string",
            "value": "0dp"
        },
        "width": {
            "type": "string",
            "value": "57%"
        }
    },
    "id": "flxTextboxContents",
    "instanceOf": "dc5aec4769ec45c2ab656fb8100656b7",
    "isvisible": true,
    "kuid": "mb8969c7febc4546a53318af8e059fe2",
    "layouttype": 2,
    "masterInstance": true,
    "name": "kony.ui.FlexContainer",
    "parent": "flxSearchContents",
    "pf": "frmProductCategory",
    "topLevelInstanceKUID": "m3a0844f34cd493cae5f499ad349ec94",
    "wType": "FlexContainer"
}