{
    "__parentReadjusting__": false,
    "_skin_": "s4edd09d5ad842c7b4322d283ea53066",
    "_srcKuid_": "3c67f31e81e64b059b53aa42486d9838",
    "canUpdateUI": true,
    "context": {},
    "dataDiffs": {
        "centerY": {
            "type": "string",
            "value": "15dp"
        },
        "height": {
            "type": "string",
            "value": "13.93%"
        },
        "id": "btnClearVoiceSearch",
        "right": {
            "type": "string",
            "value": "9dp"
        },
        "text": "X",
        "top": {
            "type": "string",
            "value": "0dp"
        },
        "width": {
            "type": "string",
            "value": "8%"
        },
        "zIndex": 1
    },
    "id": "btnClearVoiceSearch",
    "instanceOf": "3c67f31e81e64b059b53aa42486d9838",
    "isvisible": false,
    "kuid": "m6b426dc80554e5986da5628f863623e",
    "masterInstance": true,
    "name": "kony.ui.Button",
    "parent": "flxContainerSearchInner",
    "pf": "frmProductCategoryMore",
    "topLevelInstanceKUID": "m4226360dafb4fcaa12f3a224783ccf8",
    "wType": "Button"
}