{
    "@class": "com.kony.gen.viz.model.component.KVizButton",
    "DNDConfig": null,
    "__parentReadjusting__": false,
    "_height_": {
        "type": "string",
        "value": "35dp"
    },
    "_left_": {
        "type": "string",
        "value": "11dp"
    },
    "_margin_": [
        6,
        6,
        6,
        6
    ],
    "_padding_": [
        0,
        0,
        0,
        0
    ],
    "_right_": {
        "type": "string",
        "value": "2.50%"
    },
    "_skin_": "sad2714c6eb44284aadaee997f123912",
    "_text_": "C ",
    "_width_": {
        "type": "string",
        "value": "35dp"
    },
    "canUpdateUI": true,
    "centery": {
        "type": "string",
        "value": "50%"
    },
    "childInstances": [
        "m9308e5d7b5549f4b6ca252f201ed3fc",
        "mc4c3668111f4cb9bd864bfade39b753",
        "m604ddb7092a4feab2080bf3a099d45c",
        "md9557028c81401f89ba6f6803514096",
        "me19fdb26a3b4e6dae8d33ad2bec1a12",
        "m49d04e056944a76a6a19cd42b5ab513",
        "mf3fd419ab4342e8ab66783c77f49173",
        "mf91f345a0914c6f8fb9b833de3f4b4b",
        "m834657daf0a4f21b3110fc7e5484dc0",
        "ma7455a6fa6d4f97a35921ca510a9396",
        "mec075ab7f9b400689d827c607c548f4",
        "m7dabd4ee5574e50b6e812020a0fc624",
        "m162822cfbdc436891ceefaab3364716",
        "m36600125b1641d3bf4a20c76c8d0607",
        "m7c15c67c1614ee0b16b0b688297a9ae",
        "mbb6f0d4ac8a45c9b4951adc3482f501",
        "mdd11e4333ca4d20bc030bf2d98496d7",
        "m93a2c3bb818450caa8f18821ae22b96"
    ],
    "containerweight": 100,
    "contentalignment": 5,
    "displaytext": true,
    "focusskin": "s2dc43baa65040b590c061e94a23f8f8",
    "id": "btnCouponMainMaster",
    "info": null,
    "ipad": {
        "psp": {
            "showProgressIndicator": false
        }
    },
    "iphone": {
        "psp": {
            "showProgressIndicator": false
        }
    },
    "isvisible": true,
    "kuid": "006e56435de4429ebd3921c5ce7a9114",
    "name": "kony.ui.Button",
    "onclick": "AS_Button_f361424f81c84367840daf398747dbf9",
    "parent": "flxCouponHeader",
    "pf": "masterCouponContainerNew",
    "showprogressindicator": false,
    "wType": "Button",
    "zindex": 1
}