{
    "@class": "com.kony.gen.viz.model.component.KVizButton",
    "DNDConfig": null,
    "__parentReadjusting__": false,
    "_height_": {
        "type": "string",
        "value": "30dp"
    },
    "_left_": {
        "type": "string",
        "value": "51%"
    },
    "_margin_": [
        6,
        6,
        6,
        6
    ],
    "_padding_": [
        0,
        0,
        0,
        0
    ],
    "_skin_": "sce95ae6278b4b8bba5cb3b931bf822f",
    "_text_": "SIGN IN",
    "_width_": {
        "type": "string",
        "value": "110dp"
    },
    "canUpdateUI": true,
    "centery": {
        "type": "string",
        "value": "50%"
    },
    "childInstances": [
        "m0245f80a6c640a9a40f325ae19924d6",
        "m4050c52ddfc45cd8c0d7eab92a277f1",
        "mc59162b0d5f4c90abfb07491d5dbf4b",
        "m8a92bb1b89a4bb6b6c6c10ddbb40b34",
        "m28127da9acb4267a634c32aa88d7bf0",
        "m2f0f677e9174ecfbf02a9f509b11875",
        "me65cfacd0f344659e2282746a14be58",
        "mb4c5212f1224d5fac0ee46a5e9ed04b",
        "mbbbc6248a114088ab88e7f19599930a",
        "med076beab1649de8cf5130947a7a658",
        "m17f8566656d4475a923c1825c89aa51",
        "m4f98524196e4c64a4ed2c5ecda9e00f",
        "m8392fb0414c4c69bb0713e04fd4b315",
        "mfc78ded2eb547f09b435c339364918d",
        "m504c6192c5e49709168c6345cff7b5c",
        "mb76c83bd9eb4224b2b58a526a0308a7",
        "mce33fcbc2644b4dbad147cae786a634",
        "m965af10f8d44f4492d0daf71df748be"
    ],
    "containerweight": 100,
    "contentalignment": 5,
    "displaytext": true,
    "focusskin": "s1d70ca0a1c9456498bde299af34ff0b",
    "id": "btnSignIn",
    "info": null,
    "isvisible": true,
    "kuid": "8899f700e127495291d1ca9cfe824211",
    "name": "kony.ui.Button",
    "parent": "flxNotUser",
    "pf": "masterCouponContainerNew",
    "wType": "Button",
    "zindex": 1
}