{
    "DNDConfig": null,
    "__parentReadjusting__": false,
    "_height_": {
        "type": "string",
        "value": "40dp"
    },
    "_margin_": [
        0,
        0,
        0,
        0
    ],
    "_orientation_": 6,
    "_padding_": [
        0,
        0,
        0,
        0
    ],
    "_percent_": true,
    "_right_": {
        "type": "string",
        "value": "0dp"
    },
    "_skin_": "s61886db45824820846e292717ca8077",
    "_top_": {
        "type": "string",
        "value": "0dp"
    },
    "_width_": {
        "type": "string",
        "value": "50dp"
    },
    "allboxes": [],
    "autogrowmode": 0,
    "canUpdateUI": true,
    "childInstances": [
        "m8f70d4724be43e3aba78c14cafd8abf",
        "m55a66b1b3b34bfd86face1624ba8a79",
        "m531ff8df0084e67b1984e864739be83",
        "m6ff051fcf6841b192b4422aef9e9644",
        "md1cee76858a4432a7a5557a2cb5c3db",
        "made35cbcf4d4e6cbd38aa79e32211e3",
        "m8049485719044e0809cf9a9be4c5b8e",
        "m35ab8a66a5048bf97e839d40ea6572d",
        "ma62274424cd4286a8e1f91848e67ddd",
        "m86e5de5b7fa4cd7b46c8ffd6637e9c6",
        "m6768122ebd344b181e8a782a1bf876f",
        "m44d5217e6074c31b5a5eb470f2f7e75",
        "m568cfbd0cf243e186befd1b6f1be3a3",
        "m12fc13d605d42a8a32e15ae68cb052c",
        "ma78c0d329784fcc941f558997b77640",
        "m3f018939dce460f88302e0d8f3c09dd",
        "mcb64c7bafd3472bb4fd22c9ea96e058",
        "m39456077bd64a7ba1fbb9a3f1bfdb35"
    ],
    "children": [
        "btnPopupClose",
        "Image0a5620b6427ec41"
    ],
    "clipbounds": true,
    "containerweight": 100,
    "enablescrolling": true,
    "id": "flxCloseBtnWrap",
    "info": null,
    "isvisible": true,
    "kuid": "e83717ee3c7a4728a56b1d0fd3a6bbc8",
    "layouttype": 2,
    "name": "kony.ui.FlexContainer",
    "parent": "flxCouponDetailsScroll",
    "pf": "masterCouponContainerNew",
    "snapgridsize": 10,
    "snaptogrid": true,
    "wType": "FlexContainer",
    "widgetalignment": 1
}