{
    "DNDConfig": null,
    "__parentReadjusting__": false,
    "_height_": {
        "type": "string",
        "value": "99%"
    },
    "_margin_": [
        0,
        0,
        0,
        0
    ],
    "_orientation_": 6,
    "_padding_": [
        0,
        0,
        0,
        0
    ],
    "_percent_": true,
    "_skin_": "s413ee06a8ec490fad5b6e8516352329",
    "_top_": {
        "type": "string",
        "value": "0dp"
    },
    "_width_": {
        "type": "string",
        "value": "94%"
    },
    "allboxes": [],
    "allowhorizontalbounce": false,
    "allowverticalbounce": true,
    "bounces": true,
    "canUpdateUI": true,
    "centerx": {
        "type": "string",
        "value": "50%"
    },
    "childInstances": [
        "m6133fc39c344853937c552b35710421",
        "mc770072a0c04b9fb3093526353a8b0a",
        "m0c5d94b3f3e463fb39a18d04a677b94",
        "m43243aa3f544628a51f235317b47390",
        "m99925da30194cf780d9a84469114112",
        "m31d6020707a4cc3a5561ee8f4a3a10a",
        "m40c992bee6c43dbb8e09ad6b74905b0",
        "m5de7039d98d4f33be2a0a13b3d6d7d9",
        "mbc561f57ab14fd5b265036aa1b3dab7",
        "m9fdbd488980436e8016bbf8e91c2fc6",
        "m9b452856ac140a3b7a350fe1e2827c4",
        "m5c135a581c4471d8d1924ddd8aa958e",
        "m9a6d284d59a424289f079f47efdfe03",
        "m39b5abe836649e4ae1057125f82cb62",
        "m355dfea886f497bae5a5fe2512234e2",
        "mc7e596055ed475685c12a144ae57bb3",
        "m9d2b2a53d3447ea9d2b6225256fbe25",
        "meab99e9c40f415dbea0e9772dc347b6"
    ],
    "children": [
        "flxCloseBtnWrap",
        "flexRestrictionsCode",
        "lblRestrictions",
        "rchTxtRetrictions"
    ],
    "clipbounds": true,
    "containerweight": 100,
    "decelerat": false,
    "dragg": false,
    "enablescrolling": true,
    "horizontalscrollindicator": true,
    "id": "flxCouponDetailsScroll",
    "info": null,
    "isvisible": true,
    "kuid": "02955666af6c4a29b47753885434649b",
    "layouttype": 4,
    "name": "kony.ui.FlexScrollContainer",
    "pagingenabled": false,
    "parent": "flxCouponDetailsPopup",
    "pf": "masterCouponContainerNew",
    "scrolldirection": 2,
    "snapgridsize": 10,
    "snaptogrid": true,
    "track": false,
    "verticalscrollindicator": true,
    "vizProps": {},
    "wType": "FlexScrollContainer",
    "widgetalignment": 1,
    "zindex": 1
}