{
    "DNDConfig": null,
    "__parentReadjusting__": false,
    "_height_": {
        "type": "string",
        "value": "30dp"
    },
    "_margin_": [
        0,
        0,
        0,
        0
    ],
    "_orientation_": 6,
    "_padding_": [
        0,
        0,
        0,
        0
    ],
    "_percent_": true,
    "_skin_": "s61886db45824820846e292717ca8077",
    "_top_": {
        "type": "string",
        "value": "21dp"
    },
    "_width_": {
        "type": "string",
        "value": "100%"
    },
    "allboxes": [],
    "autogrowmode": 0,
    "canUpdateUI": true,
    "childInstances": [
        "me3ed91ff2754ba289c1ad1fc8e7419e",
        "m69cb8a5f773437faef65dd170d3bc34",
        "m3cb153ffdd347ffa8cb2c21415b550e",
        "mb77851e3c464cec9b663764a2a87377",
        "m06137a1669240db86b7f94f0045e152",
        "m0dde02e867b443db440e9c24d21836a",
        "m052032d8a7d4aef8c14bc6edb38a6ce",
        "mddd7f1eb6254559891b259b725e80c1",
        "m955af7421814e9bae9babb990d5eb1f",
        "m1b2592ba7a64b128679aa8a8bce7781",
        "m5a77adb137a454eb0ba59c18e88d400",
        "m7e3204a0b664658bdaad4180d775f02",
        "m2b4f7b1079d41d392614fbc2524b268",
        "mb953ab90e384b8e89f9fe79a2ec8946",
        "mc55d9017108473093da0503b2cf16ac",
        "m51a279554c34922817a6d5d9fda5dad",
        "m68835056d3b475fa0f834e5d6786e91",
        "m55d46e74bcb4f34b7a2f9ff2a17558a"
    ],
    "children": [
        "btnSignUp",
        "btnSignIn"
    ],
    "clipbounds": true,
    "containerweight": 100,
    "enablescrolling": true,
    "id": "flxNotUser",
    "info": null,
    "isvisible": true,
    "kuid": "f482e402d5b548488dcd4790ba730360",
    "layouttype": 2,
    "name": "kony.ui.FlexContainer",
    "parent": "flxCouponRewards",
    "pf": "masterCouponContainerNew",
    "snapgridsize": 10,
    "snaptogrid": true,
    "wType": "FlexContainer",
    "widgetalignment": 1,
    "zindex": 1
}