{
    "@class": "com.kony.gen.viz.model.component.KVizImage2",
    "DNDConfig": null,
    "__parentReadjusting__": false,
    "_base64_": null,
    "_height_": {
        "type": "string",
        "value": "55dp"
    },
    "_margin_": [
        0,
        0,
        0,
        0
    ],
    "_padding_": [
        0,
        0,
        0,
        0
    ],
    "_skin_": "sb1971f0a0774fbda5ff14589c5df551",
    "_src_": "barcode.png",
    "_top_": {
        "type": "string",
        "value": "8dp"
    },
    "_width_": {
        "type": "string",
        "value": "94%"
    },
    "canUpdateUI": true,
    "centerx": {
        "type": "string",
        "value": "50%"
    },
    "centery": {
        "type": "string",
        "value": "50%"
    },
    "childInstances": [
        "m7ee937211ef4b96be66e29658a56543",
        "m5bb0c47ad004be6a7acde3f23cd6639",
        "mdd15862a0e149d89708e4be966e5268",
        "m0abfa627a2448c1aab1f65c90bda244",
        "mb7e1ea710614683b479c17a6664f8a9",
        "mcf4e1d3656e49b1a902e17544876edf",
        "m331374ba68f4813bbbffd67edadd5f7",
        "mcd87ecb2910414f8045930449f5de52",
        "m6183a58f1d44a53b3a8b1f46fa0cf6c",
        "mefc0b3fd0a7410a96fb6aaa8ae6dd80",
        "m6f01f7e38db4a5e991ce22e2e759012",
        "meb842d08df14e2f8e89bb657e0f8db1",
        "mb3ff71f6f41402c929d0bfc741dacee",
        "m1c5e44d38154fd89c1211754387ca48",
        "m09be51dba5d4dd1b43187a09b2e7e70",
        "ma0c2e5ad5384cf4a119280bc83dceec",
        "me602b6b98044873a6789be431948301",
        "m7aeab3646174dbf82f93829a031cafc"
    ],
    "containerweight": 100,
    "context": {
        "channel": "mobile",
        "formID": "masterCouponContainerNew",
        "platform": "iphone",
        "templateType": "masters",
        "topLevelBox": null
    },
    "id": "imgBarcode",
    "imagescalemode": 1,
    "info": null,
    "invokedProperty": "src",
    "isvisible": true,
    "kuid": "a9c8c241a6a44e699c524a79b2ee45f4",
    "name": "kony.ui.Image2",
    "parent": "flxBarCodeWrap",
    "pf": "masterCouponContainerNew",
    "srcType": 1,
    "wType": "Image",
    "widgetalignment": 5,
    "zindex": 1
}