{
    "@class": "com.kony.gen.viz.model.component.KVizLabel",
    "DNDConfig": null,
    "__parentReadjusting__": false,
    "_height_": {
        "type": "ref",
        "value": "preferred"
    },
    "_margin_": [
        1,
        1,
        1,
        1
    ],
    "_padding_": [
        0,
        0,
        0,
        0
    ],
    "_skin_": "s97663bbb8ed49489429f77954052d3a",
    "_text_": "PROMO CODE 40SAVE11517",
    "_top_": {
        "type": "string",
        "value": "2dp"
    },
    "_width_": {
        "type": "string",
        "value": "100%"
    },
    "_wrapping_": 2,
    "android": {
        "textStyle": {
            "letterSpacing": 0,
            "strikeThrough": false
        }
    },
    "canUpdateUI": true,
    "centerx": {
        "type": "string",
        "value": "50%"
    },
    "childInstances": [
        "mfdf3391cdf741acacd7a1ab7a347372",
        "mf393095366146429890528cf9a0f52c",
        "m96719d0f8ec4be69bf027cbb3091799",
        "m3be219fe60f4aad945294a4025d7031",
        "me5b37a423b44560b9c4bf533fcc168c",
        "m51e568f91fe487e9c4454742076f52a",
        "m2b1522663184f9fab49a79236e3628b",
        "mb03c7ee2ea843cd9cb68542f836d4b2",
        "m7bc0b29b6b843b78549304c48bbb8fb",
        "mdb529de9cdf40caa55d9abdda7c73cc",
        "m0128225537748108fe4b0a86d8b0a48",
        "m635bad1627748fd9f6a12aec2e04d10",
        "ma36afa4e5c44921b3a07c8ee8cc8e45",
        "m3db68efd16a4ed88c318fc106553b16",
        "m6afb41ce7fd4a279e7a0fb37365371b",
        "m2a6edd1647a45f98c1212a690af57fc",
        "m2a02541591e4d9db2de66c92f08dc2d",
        "m3b1ff15190c485cb8854959fcd0c550"
    ],
    "containerweight": 100,
    "contentalignment": 2,
    "id": "lblPromoCodeRestrictions",
    "info": null,
    "ipad": {
        "psp": {
            "wrapping": 2
        }
    },
    "iphone": {
        "psp": {
            "wrapping": 2
        }
    },
    "isvisible": true,
    "kuid": "d11d44ca50224bca814434001965bd29",
    "name": "kony.ui.Label",
    "parent": "flexInner1",
    "pf": "masterCouponContainerNew",
    "tabrcandroid": {
        "textStyle": {
            "letterSpacing": 0,
            "strikeThrough": false
        }
    },
    "tooltip": "",
    "wType": "Label",
    "zindex": 1
}