{
    "__parentReadjusting__": false,
    "_padding_": [
        0,
        0,
        0,
        20
    ],
    "_skin_": "s78034944caa468192d0bb4be07545dc",
    "_srcKuid_": "m0564eb9edc54825b70620430234385a",
    "canUpdateUI": true,
    "context": {},
    "dataDiffs": {
        "height": {
            "type": "string",
            "value": "100%"
        },
        "id": "btnWeeklyAd",
        "left": {
            "type": "string",
            "value": "0dp"
        },
        "text": "W",
        "top": {
            "type": "string",
            "value": "0dp"
        },
        "width": {
            "type": "string",
            "value": "100%"
        },
        "zIndex": 1
    },
    "id": "btnWeeklyAd",
    "instanceOf": "m0564eb9edc54825b70620430234385a",
    "isvisible": true,
    "kuid": "m6c41b87b8834e69a50f289b475f0e53",
    "masterInstance": true,
    "name": "kony.ui.Button",
    "parent": "flxWeeklyAd",
    "pf": "frmHome",
    "topLevelInstanceKUID": "m75b63ccacef49818107dbe200302104",
    "wType": "Button"
}