{
    "__parentReadjusting__": false,
    "_padding_": [
        0,
        0,
        0,
        20
    ],
    "_skin_": "s78034944caa468192d0bb4be07545dc",
    "_srcKuid_": "m883b4710730488b912a6acd50704f92",
    "canUpdateUI": true,
    "context": {},
    "dataDiffs": {
        "height": {
            "type": "string",
            "value": "100%"
        },
        "id": "btnProducts",
        "left": {
            "type": "string",
            "value": "0dp"
        },
        "text": "O",
        "top": {
            "type": "string",
            "value": "0dp"
        },
        "width": {
            "type": "string",
            "value": "100%"
        },
        "zIndex": 1
    },
    "id": "btnProducts",
    "instanceOf": "m883b4710730488b912a6acd50704f92",
    "isvisible": true,
    "kuid": "m8e3779253974b6390c37dc8be3449b2",
    "masterInstance": true,
    "name": "kony.ui.Button",
    "parent": "flxProducts",
    "pf": "frmRewardsProfileAddChild",
    "topLevelInstanceKUID": "me80d8fb9b884dc786ad0cde47170fde",
    "wType": "Button"
}