{
    "__parentReadjusting__": false,
    "_skin_": "s61886db45824820846e292717ca8077",
    "_srcKuid_": "b560d3bd2095404181cae548178857d9",
    "canUpdateUI": true,
    "children": [
        "lblOfferTitle1Restrictions",
        "lblOfferTitle2Restrictions",
        "lblOfferSubTitleRestrictions",
        "lblValidityRestrictions",
        "lblPromoCodeRestrictions",
        "imgBarcodeRestrictions"
    ],
    "context": {},
    "dataDiffs": {
        "clipBounds": true,
        "enableScrolling": true,
        "height": {
            "type": "ref",
            "value": "preferred"
        },
        "id": "flexInner1",
        "layoutType": 4,
        "left": {
            "type": "string",
            "value": "0dp"
        },
        "snapGridSize": 10,
        "snapToGrid": true,
        "top": {
            "type": "string",
            "value": "10dp"
        },
        "width": {
            "type": "string",
            "value": "100%"
        },
        "zIndex": 1
    },
    "id": "flexInner1",
    "instanceOf": "b560d3bd2095404181cae548178857d9",
    "isvisible": true,
    "kuid": "m96b9d96c20c483c88225cb502191abe",
    "layouttype": 4,
    "masterInstance": true,
    "name": "kony.ui.FlexContainer",
    "parent": "flexRestrictionsCode",
    "pf": "frmWebView",
    "topLevelInstanceKUID": "mb21661ae1a546e3ad5d6bd706112baf",
    "wType": "FlexContainer"
}