{
    "__parentReadjusting__": false,
    "_padding_": [
        0,
        0,
        0,
        0
    ],
    "_skin_": "s237066b81ec44b691920d4bc6949f69",
    "_srcKuid_": "3b54052916d34ba998995213ecc7b8a2",
    "canUpdateUI": true,
    "context": {},
    "dataDiffs": {
        "centerY": {
            "type": "string",
            "value": "50%"
        },
        "height": {
            "type": "string",
            "value": "15dp"
        },
        "id": "lblRewardText",
        "left": {
            "type": "string",
            "value": "3%"
        },
        "text": "MICHAELS REWARDS CARD",
        "textStyle": {},
        "top": {
            "type": "string",
            "value": "17dp"
        },
        "width": {
            "type": "string",
            "value": "94%"
        },
        "zIndex": 1
    },
    "id": "lblRewardText",
    "instanceOf": "3b54052916d34ba998995213ecc7b8a2",
    "isvisible": true,
    "kuid": "mf079034062f4226bbdea477711bd7cf",
    "masterInstance": true,
    "name": "kony.ui.Label",
    "parent": "flxRewardTxt",
    "pf": "frmWebView",
    "topLevelInstanceKUID": "mb21661ae1a546e3ad5d6bd706112baf",
    "wType": "Label"
}