{
    "DNDConfig": null,
    "__parentReadjusting__": false,
    "_bottom_": {
        "type": "string",
        "value": "0%"
    },
    "_height_": {
        "type": "string",
        "value": "8%"
    },
    "_left_": {
        "type": "string",
        "value": "0dp"
    },
    "_margin_": [
        0,
        0,
        0,
        0
    ],
    "_orientation_": 6,
    "_padding_": [
        0,
        0,
        0,
        0
    ],
    "_percent_": true,
    "_skin_": "s61886db45824820846e292717ca8077",
    "_top_": {
        "type": "string",
        "value": "92%"
    },
    "_width_": {
        "type": "string",
        "value": "100%"
    },
    "allboxes": [],
    "autogrowmode": 0,
    "canUpdateUI": true,
    "children": [
        "btnClose",
        "btnCross",
        "flexBack",
        "flexForward"
    ],
    "clipbounds": true,
    "containerweight": 100,
    "enablescrolling": true,
    "id": "flxContainerClose",
    "info": null,
    "isvisible": true,
    "kuid": "2bbac60b97b34c0b94ad28aac7efcc48",
    "layouttype": 2,
    "name": "kony.ui.FlexContainer",
    "parent": "frmVoiceSearchVideos",
    "pf": "frmVoiceSearchVideos",
    "snapgridsize": 10,
    "snaptogrid": true,
    "wType": "FlexContainer",
    "widgetalignment": 1,
    "zindex": 2
}