{
    "DNDConfig": null,
    "__parentReadjusting__": false,
    "_height_": {
        "type": "string",
        "value": "100%"
    },
    "_margin_": [
        0,
        0,
        0,
        0
    ],
    "_orientation_": 6,
    "_padding_": [
        0,
        0,
        0,
        0
    ],
    "_percent_": true,
    "_right_": {
        "type": "number",
        "value": "0"
    },
    "_skin_": "s61886db45824820846e292717ca8077",
    "_top_": {
        "type": "string",
        "value": "0dp"
    },
    "_width_": {
        "type": "string",
        "value": "17.64%"
    },
    "allboxes": [],
    "autogrowmode": 0,
    "canUpdateUI": true,
    "childInstances": [
        "m38888644b124671b8ebba794d6a65d2",
        "m97b8eb19ef848e4b72d185ada93ab6d",
        "m63b8a4c050144089749b17003486fe3",
        "m777ff0402a24c07b8517f1131b04102",
        "med79669f1e2412999365daef2d12a56",
        "m849d4df5d6c4d118c121837344c7dda",
        "mdd793d43d3043a2be2b79906adc08e6",
        "m281cab5fb5b42e1ba6dc171609911f8",
        "m0c1544485234915a21094dae799ca6d",
        "m722a66a0d74490387769574b4861776",
        "m84ca905f6c14e3ea0c0995c95426c4c",
        "md69b90848b047fd8ecfecc8748dfe88",
        "m26796ea2bc649a1ad5e2446c28f4e22",
        "mcc2e4fbd2b44c3e908d5455f6827e04",
        "macd0f5d620140079ddc6b7c686be22c"
    ],
    "children": [
        "lblItemsCount",
        "imgCart"
    ],
    "clipbounds": true,
    "containerweight": 100,
    "enablescrolling": true,
    "id": "flxCart",
    "info": null,
    "iscustomlayout": false,
    "isvisible": true,
    "kuid": "ccfe34d0af564e938f254dcbb32d20b6",
    "layouttype": 2,
    "name": "kony.ui.FlexContainer",
    "parent": "flxHeaderWrap",
    "pf": "masterHeaderAll",
    "retaincontentalignment": false,
    "retainflexpositionproperties": false,
    "retainflowhorizontalalignment": false,
    "snapgridsize": 10,
    "snaptogrid": true,
    "wType": "FlexContainer",
    "widgetalignment": 1,
    "zindex": 1
}