{
    "__parentReadjusting__": false,
    "_padding_": [
        0,
        0,
        0,
        0
    ],
    "_skin_": "s75c3541e0e54da89019a1220eba9370",
    "_srcKuid_": "15e372a7ddb749d4b14d7a7f721dec6f",
    "canUpdateUI": true,
    "context": {},
    "dataDiffs": {
        "centerX": {
            "type": "string",
            "value": "50%"
        },
        "height": {
            "type": "ref",
            "value": "preferred"
        },
        "id": "lblSomething",
        "text": "Say something like...",
        "textStyle": {},
        "top": {
            "type": "string",
            "value": "10dp"
        },
        "width": {
            "type": "string",
            "value": "80%"
        },
        "zIndex": 1
    },
    "id": "lblSomething",
    "instanceOf": "15e372a7ddb749d4b14d7a7f721dec6f",
    "isvisible": true,
    "kuid": "m0aef0911d23411b87c7cc13075b16c6",
    "masterInstance": true,
    "name": "kony.ui.Label",
    "parent": "flxMicPanelContent",
    "pf": "frmPDP",
    "topLevelInstanceKUID": "m8a81f93d026448993e18dcee902003a",
    "wType": "Label"
}