{
    "@class": "com.kony.gen.viz.model.component.KVizTextBox2",
    "DNDConfig": null,
    "__parentReadjusting__": false,
    "_height_": {
        "type": "string",
        "value": "37dp"
    },
    "_margin_": [
        0,
        0,
        0,
        0
    ],
    "_padding_": [
        3,
        0,
        0,
        0
    ],
    "_placeholder_": "LAST NAME",
    "_skin_": "s0e83e3fd29641948d4a7b716e2fbac5",
    "_text_": "",
    "_top_": {
        "type": "string",
        "value": "10dp"
    },
    "_width_": {
        "type": "string",
        "value": "94%"
    },
    "autocapitalize": "none",
    "autocomplete": false,
    "autocorrect": false,
    "autofilter": false,
    "canUpdateUI": true,
    "centerx": {
        "type": "string",
        "value": "50%"
    },
    "containerheight": "",
    "containerheightmode": 1,
    "containerweight": 100,
    "contentalignment": 4,
    "focusskin": "s0e83e3fd29641948d4a7b716e2fbac5",
    "id": "CopyTextField0ba96bd9329b74e",
    "info": null,
    "iphone": {},
    "isvisible": true,
    "keyboardtype": "A",
    "kuid": "442a2fb2be2b4c54b0f2b29776668f4c",
    "mode": "A",
    "name": "kony.ui.TextBox2",
    "parent": "flxMainContainer",
    "pf": "frmMyRewards",
    "placeholderi18n": "i18n.phone.common.txtLastName",
    "placeholderskin": "s0e83e3fd29641948d4a7b716e2fbac5",
    "securetextentry": false,
    "textinputmode": "A",
    "viewtype": "default",
    "wType": "TextField",
    "zindex": 1
}