{
    "DNDConfig": null,
    "__parentReadjusting__": false,
    "_height_": {
        "type": "string",
        "value": "100%"
    },
    "_left_": {
        "type": "string",
        "value": "0dp"
    },
    "_margin_": [
        0,
        0,
        0,
        0
    ],
    "_orientation_": 6,
    "_padding_": [
        0,
        0,
        0,
        0
    ],
    "_percent_": true,
    "_skin_": "s060da2a8fc94e58b8dcd9995aaf2bc6",
    "_top_": {
        "type": "string",
        "value": "0dp"
    },
    "_width_": {
        "type": "string",
        "value": "100%"
    },
    "allboxes": [],
    "allowhorizontalbounce": false,
    "allowverticalbounce": true,
    "bounces": true,
    "canUpdateUI": true,
    "children": [
        "flxTopSpacerDND",
        "TextField0355b4ebd46864c",
        "CopyTextField0ba96bd9329b74e",
        "CopyTextField09deae8d19a5240",
        "CopyTextField0af624fa000114e",
        "Label01c395a531eb648",
        "CopyTextField0906a8a8c16db46",
        "CopyTextField012d3918e4d8448",
        "CopyTextField0d6172d59a5c444",
        "CopyTextField0ba7858de0d4449",
        "FlexContainer08545d32dca7842",
        "CopyFlexContainer008a1f175435b45",
        "CopyFlexContainer0178e706c216d49",
        "btnBuyOnline2",
        "flxBottomSpacerDND"
    ],
    "clipbounds": true,
    "containerweight": 100,
    "decelerat": false,
    "dragg": false,
    "enablescrolling": true,
    "horizontalscrollindicator": true,
    "id": "flxMainContainer",
    "info": null,
    "isvisible": true,
    "kuid": "4c892caa84dd4aa79835856f48bbb4bc",
    "layouttype": 4,
    "name": "kony.ui.FlexScrollContainer",
    "pagingenabled": false,
    "parent": "frmMyRewards",
    "pf": "frmMyRewards",
    "scrolldirection": 2,
    "snapgridsize": 10,
    "snaptogrid": true,
    "track": false,
    "verticalscrollindicator": true,
    "wType": "FlexScrollContainer",
    "widgetalignment": 1,
    "zindex": 1
}