{
    "__parentReadjusting__": false,
    "_padding_": [
        0,
        0,
        0,
        20
    ],
    "_skin_": "s78034944caa468192d0bb4be07545dc",
    "_srcKuid_": "mc8417a690f840799d1bd30edfc6a1ae",
    "canUpdateUI": true,
    "context": {},
    "dataDiffs": {
        "height": {
            "type": "string",
            "value": "100%"
        },
        "id": "btnMore",
        "left": {
            "type": "string",
            "value": "0dp"
        },
        "text": "G",
        "top": {
            "type": "string",
            "value": "0dp"
        },
        "width": {
            "type": "string",
            "value": "100%"
        },
        "zIndex": 1
    },
    "id": "btnMore",
    "instanceOf": "mc8417a690f840799d1bd30edfc6a1ae",
    "isvisible": true,
    "kuid": "m6c5a985fd11487ead4dfddf2afc022d",
    "masterInstance": true,
    "name": "kony.ui.Button",
    "parent": "flxMore",
    "pf": "frmWeeklyAdHome",
    "topLevelInstanceKUID": "me34c887faaf45f9b25a815b547bdf13",
    "wType": "Button"
}