{
    "__parentReadjusting__": false,
    "_skin_": "s61886db45824820846e292717ca8077",
    "_srcKuid_": "d8347df107354b3d9f44a56aceef78d0",
    "canUpdateUI": true,
    "children": [
        "lblCoupons",
        "btnCoupon"
    ],
    "context": {},
    "dataDiffs": {
        "clipBounds": true,
        "enableScrolling": true,
        "height": {
            "type": "string",
            "value": "100%"
        },
        "id": "flxMyCoupons",
        "layoutType": 2,
        "left": {
            "type": "string",
            "value": "0dp"
        },
        "snapGridSize": 10,
        "snapToGrid": true,
        "top": {
            "type": "string",
            "value": "0dp"
        },
        "width": {
            "type": "string",
            "value": "20%"
        },
        "zIndex": 1
    },
    "id": "flxMyCoupons",
    "instanceOf": "d8347df107354b3d9f44a56aceef78d0",
    "isvisible": true,
    "kuid": "m9ccf50e25b14022869b3db7ced34ae1",
    "layouttype": 2,
    "masterInstance": true,
    "name": "kony.ui.FlexContainer",
    "parent": "flxFooterWrap",
    "pf": "frmWeeklyAdHome",
    "topLevelInstanceKUID": "me34c887faaf45f9b25a815b547bdf13",
    "wType": "FlexContainer"
}