{
    "__parentReadjusting__": false,
    "_padding_": [
        0,
        0,
        0,
        20
    ],
    "_skin_": "s78034944caa468192d0bb4be07545dc",
    "_srcKuid_": "mc8417a690f840799d1bd30edfc6a1ae",
    "canUpdateUI": true,
    "context": {},
    "dataDiffs": {
        "height": {
            "type": "string",
            "value": "100%"
        },
        "id": "btnMore",
        "left": {
            "type": "string",
            "value": "0dp"
        },
        "text": "G",
        "top": {
            "type": "string",
            "value": "0dp"
        },
        "width": {
            "type": "string",
            "value": "100%"
        },
        "zIndex": 1
    },
    "id": "btnMore",
    "instanceOf": "mc8417a690f840799d1bd30edfc6a1ae",
    "isvisible": true,
    "kuid": "m673350f9f5b48fa80c2c1a12ef950c9",
    "masterInstance": true,
    "name": "kony.ui.Button",
    "parent": "flxMore",
    "pf": "frmWeeklyAd",
    "topLevelInstanceKUID": "m9e74bdd36c64d5384b45a6ff683c929",
    "wType": "Button"
}