{
    "__parentReadjusting__": false,
    "_padding_": [
        0,
        0,
        0,
        20
    ],
    "_skin_": "s78034944caa468192d0bb4be07545dc",
    "_srcKuid_": "me9f3d5cae44452b8f3b0528f2bbfdd0",
    "canUpdateUI": true,
    "context": {},
    "dataDiffs": {
        "height": {
            "type": "string",
            "value": "100%"
        },
        "id": "btnStoreMap",
        "left": {
            "type": "string",
            "value": "0dp"
        },
        "text": "N",
        "top": {
            "type": "string",
            "value": "0dp"
        },
        "width": {
            "type": "string",
            "value": "100%"
        },
        "zIndex": 1
    },
    "id": "btnStoreMap",
    "instanceOf": "me9f3d5cae44452b8f3b0528f2bbfdd0",
    "isvisible": true,
    "kuid": "m52318d2578b4fbba6f1b1873c6e4600",
    "masterInstance": true,
    "name": "kony.ui.Button",
    "parent": "flxStoreMap",
    "pf": "frmWeeklyAd",
    "topLevelInstanceKUID": "m9e74bdd36c64d5384b45a6ff683c929",
    "wType": "Button"
}