{
    "@class": "com.kony.gen.viz.model.component.KVizButton",
    "DNDConfig": null,
    "__parentReadjusting__": false,
    "_height_": {
        "type": "string",
        "value": "30dp"
    },
    "_margin_": [
        6,
        6,
        6,
        6
    ],
    "_padding_": [
        0,
        0,
        0,
        0
    ],
    "_right_": {
        "type": "string",
        "value": "51%"
    },
    "_skin_": "s8c0b5c18bf848ed95b7bb9009b45435",
    "_text_": "SIGN UP",
    "_width_": {
        "type": "string",
        "value": "110dp"
    },
    "canUpdateUI": true,
    "centery": {
        "type": "string",
        "value": "50%"
    },
    "childInstances": [],
    "containerweight": 100,
    "contentalignment": 5,
    "displaytext": true,
    "focusskin": "s7e763f16a6941e29e46b72e3aca1985",
    "id": "btnSignUp",
    "info": null,
    "isvisible": true,
    "kuid": "m52b1b2c55134497a22d387e88d655fc",
    "name": "kony.ui.Button",
    "parent": "flxNotUser",
    "pf": "CopymasterCouponContainerNew",
    "wType": "Button",
    "zindex": 1
}