{
    "DNDConfig": null,
    "__parentReadjusting__": false,
    "_height_": {
        "type": "ref",
        "value": "preferred"
    },
    "_left_": {
        "type": "string",
        "value": "0dp"
    },
    "_margin_": [
        0,
        0,
        0,
        0
    ],
    "_orientation_": 6,
    "_padding_": [
        0,
        0,
        0,
        0
    ],
    "_percent_": true,
    "_skin_": "sff2a96377c34b7191324007a911bbee",
    "_top_": {
        "type": "string",
        "value": "0dp"
    },
    "_width_": {
        "type": "string",
        "value": "100%"
    },
    "allboxes": [],
    "autogrowmode": 1,
    "canUpdateUI": true,
    "childInstances": [],
    "children": [
        "flxRewardTxt",
        "flxBarCodeWrap",
        "flxNotUser",
        "lblSeparator100"
    ],
    "clipbounds": true,
    "containerweight": 100,
    "enablescrolling": true,
    "id": "flxCouponRewards",
    "info": null,
    "isvisible": true,
    "kuid": "m1d0165d6c5a4e5b93a16377b6affed3",
    "layouttype": 4,
    "name": "kony.ui.FlexContainer",
    "parent": "flxCouponContents",
    "pf": "CopymasterCouponContainerNew",
    "snapgridsize": 10,
    "snaptogrid": true,
    "wType": "FlexContainer",
    "widgetalignment": 1,
    "zindex": 1
}