{
    "__parentReadjusting__": false,
    "_padding_": [
        0,
        0,
        0,
        0
    ],
    "_skin_": "sc95763aaead4250b98834fcdba00ad0",
    "_srcKuid_": "m86c833e3e714364a02ba69887c73b1c",
    "canUpdateUI": true,
    "context": {},
    "dataDiffs": {
        "bottom": {
            "type": "string",
            "value": "5dp"
        },
        "centerX": {
            "type": "string",
            "value": "50%"
        },
        "height": {
            "type": "ref",
            "value": "preferred"
        },
        "i18n_text": "i18n.phone.masterFooter.lblEvents",
        "id": "lblEvents",
        "text": "Events",
        "textStyle": {},
        "width": {
            "type": "string",
            "value": "100%"
        },
        "zIndex": 1
    },
    "id": "lblEvents",
    "instanceOf": "m86c833e3e714364a02ba69887c73b1c",
    "isvisible": true,
    "kuid": "m73b835f1f9642e68ae02f889761b175",
    "masterInstance": true,
    "name": "kony.ui.Label",
    "parent": "flxEvents",
    "pf": "frmSignIn",
    "topLevelInstanceKUID": "md1ac311c5b943c6a2b79fc17ba7b399",
    "wType": "Label"
}