{
    "DNDConfig": null,
    "__parentReadjusting__": false,
    "_height_": {
        "type": "ref",
        "value": "preferred"
    },
    "_margin_": [
        0,
        0,
        0,
        0
    ],
    "_orientation_": 6,
    "_padding_": [
        0,
        0,
        0,
        0
    ],
    "_percent_": true,
    "_right_": {
        "type": "string",
        "value": "0dp"
    },
    "_skin_": "s61886db45824820846e292717ca8077",
    "_top_": {
        "type": "string",
        "value": "94dp"
    },
    "_width_": {
        "type": "string",
        "value": "110dp"
    },
    "allboxes": [],
    "autogrowmode": 1,
    "canUpdateUI": true,
    "children": [
        "lblStar1",
        "lblStar2",
        "lblStar3",
        "lblStar4",
        "lblStar5",
        "imgStar1",
        "imgStar2",
        "imgStar3",
        "imgStar4",
        "imgStar5",
        "lblItemNumberReviews"
    ],
    "clipbounds": true,
    "containerId": true,
    "containerweight": 100,
    "enablescrolling": true,
    "id": "flxStarRating",
    "info": null,
    "isvisible": true,
    "kuid": "2bf351a6dd2f4dc5b1053189e239fb3d",
    "layouttype": 3,
    "name": "kony.ui.FlexContainer",
    "parent": "flxItemDetailsWrap",
    "pf": "tempProdList",
    "snapgridsize": 10,
    "snaptogrid": true,
    "wType": "FlexContainer",
    "widgetalignment": 1
}