{
    "@class": "com.kony.gen.viz.model.component.KVizImage2",
    "DNDConfig": null,
    "__parentReadjusting__": false,
    "_base64_": null,
    "_height_": {
        "type": "string",
        "value": "15dp"
    },
    "_left_": {
        "type": "string",
        "value": "0dp"
    },
    "_margin_": [
        0,
        0,
        0,
        0
    ],
    "_padding_": [
        0,
        0,
        0,
        0
    ],
    "_skin_": "sb1971f0a0774fbda5ff14589c5df551",
    "_src_": "starempty.png",
    "_top_": {
        "type": "string",
        "value": "0dp"
    },
    "_width_": {
        "type": "string",
        "value": "13%"
    },
    "canUpdateUI": true,
    "containerId": true,
    "containerweight": 100,
    "context": {
        "channel": "mobile",
        "formID": "tempProdList",
        "templateType": "segments",
        "topLevelBox": null
    },
    "id": "imgStar3",
    "imagescalemode": 1,
    "info": null,
    "isvisible": true,
    "kuid": "d550f9f340fe4189af2c87817a733575",
    "name": "kony.ui.Image2",
    "parent": "flxStarRating",
    "pf": "tempProdList",
    "srcType": 1,
    "wType": "Image",
    "widgetalignment": 5,
    "zindex": 1
}