{
    "__parentReadjusting__": false,
    "_padding_": [
        0,
        0,
        0,
        20
    ],
    "_skin_": "s78034944caa468192d0bb4be07545dc",
    "_srcKuid_": "j3eeb9de6dc147a29d427c68972d6fd9",
    "canUpdateUI": true,
    "context": {},
    "dataDiffs": {
        "height": {
            "type": "string",
            "value": "100%"
        },
        "id": "btnCoupon",
        "left": {
            "type": "string",
            "value": "0dp"
        },
        "text": "C",
        "top": {
            "type": "string",
            "value": "0dp"
        },
        "width": {
            "type": "string",
            "value": "100%"
        },
        "zIndex": 1
    },
    "id": "btnCoupon",
    "instanceOf": "j3eeb9de6dc147a29d427c68972d6fd9",
    "isvisible": true,
    "kuid": "md00d8e76fc246319bac6d04ef69864b",
    "masterInstance": true,
    "name": "kony.ui.Button",
    "parent": "flxMyCoupons",
    "pf": "frmSettings",
    "topLevelInstanceKUID": "m78db149dd394eb2adc0ca060cba037d",
    "wType": "Button"
}