{
    "__parentReadjusting__": false,
    "_skin_": "s61886db45824820846e292717ca8077",
    "_srcKuid_": "m77b99a1804f4e318451c0cbbbe8ba8c",
    "canUpdateUI": true,
    "children": [
        "lblStoreMap",
        "btnStoreMap"
    ],
    "context": {},
    "dataDiffs": {
        "clipBounds": true,
        "enableScrolling": true,
        "height": {
            "type": "string",
            "value": "100%"
        },
        "id": "flxStoreMap",
        "layoutType": 2,
        "left": {
            "type": "string",
            "value": "0dp"
        },
        "snapGridSize": 10,
        "snapToGrid": true,
        "top": {
            "type": "string",
            "value": "0dp"
        },
        "width": {
            "type": "string",
            "value": "20%"
        },
        "zIndex": 1
    },
    "id": "flxStoreMap",
    "instanceOf": "m77b99a1804f4e318451c0cbbbe8ba8c",
    "isvisible": true,
    "kuid": "m11b3fe87f0646e3b1cd3c93246e4f34",
    "layouttype": 2,
    "masterInstance": true,
    "name": "kony.ui.FlexContainer",
    "parent": "flxFooterWrap",
    "pf": "frmSettings",
    "topLevelInstanceKUID": "m78db149dd394eb2adc0ca060cba037d",
    "wType": "FlexContainer"
}