{
    "__parentReadjusting__": false,
    "_padding_": [
        0,
        0,
        0,
        20
    ],
    "_skin_": "s78034944caa468192d0bb4be07545dc",
    "_srcKuid_": "m883b4710730488b912a6acd50704f92",
    "canUpdateUI": true,
    "context": {},
    "dataDiffs": {
        "height": {
            "type": "string",
            "value": "100%"
        },
        "id": "btnProducts",
        "left": {
            "type": "string",
            "value": "0dp"
        },
        "text": "O",
        "top": {
            "type": "string",
            "value": "0dp"
        },
        "width": {
            "type": "string",
            "value": "100%"
        },
        "zIndex": 1
    },
    "id": "btnProducts",
    "instanceOf": "m883b4710730488b912a6acd50704f92",
    "isvisible": true,
    "kuid": "m35c5afe1a5f482e97d763198649cb34",
    "masterInstance": true,
    "name": "kony.ui.Button",
    "parent": "flxProducts",
    "pf": "frmReviews",
    "topLevelInstanceKUID": "m959715e4d1d4d5a961ab8cace299358",
    "wType": "Button"
}