{
    "@class": "com.kony.gen.viz.model.component.KVizButton",
    "DNDConfig": null,
    "__parentReadjusting__": false,
    "_height_": {
        "type": "string",
        "value": "30dp"
    },
    "_left_": {
        "type": "string",
        "value": "2%"
    },
    "_margin_": [
        6,
        6,
        6,
        6
    ],
    "_padding_": [
        0,
        0,
        0,
        0
    ],
    "_skin_": "s6acec949ec140298e1bc480e4bc1967",
    "_text_": "SIGN IN",
    "_top_": {
        "type": "string",
        "value": "50dp"
    },
    "_width_": {
        "type": "string",
        "value": "47%"
    },
    "canUpdateUI": true,
    "containerweight": 100,
    "contentalignment": 5,
    "displaytext": true,
    "focusskin": "s73eba82a75d45bd9058032cde34eb75",
    "id": "btnSignIn",
    "info": null,
    "iphone": {
        "psp": {
            "showProgressIndicator": false
        }
    },
    "isvisible": true,
    "kuid": "8115ad77e9a446d789d3e16c5f34f7a7",
    "name": "kony.ui.Button",
    "parent": "flxShortProfile",
    "pf": "frmMore",
    "showprogressindicator": false,
    "texti18n": "i18n.phone.common.SignInBtn",
    "wType": "Button",
    "zindex": 1
}