{
    "@class": "com.kony.gen.viz.model.component.KVizLabel",
    "DNDConfig": null,
    "__parentReadjusting__": false,
    "_height_": {
        "type": "ref",
        "value": "preferred"
    },
    "_left_": {
        "type": "string",
        "value": "50dp"
    },
    "_margin_": [
        1,
        1,
        1,
        1
    ],
    "_padding_": [
        0,
        0,
        0,
        0
    ],
    "_skin_": "s6b4651c2d7b40038fb7ef24d4166b30",
    "_text_": "Rewards Profile",
    "_width_": {
        "type": "string",
        "value": "70%"
    },
    "_wrapping_": 2,
    "android": {
        "textStyle": {
            "letterSpacing": 0,
            "strikeThrough": false
        }
    },
    "canUpdateUI": true,
    "centery": {
        "type": "string",
        "value": "50%"
    },
    "containerweight": 100,
    "contentalignment": 4,
    "id": "CopylblMyRewardsCard081998359f0ab48",
    "info": null,
    "iphone": {
        "psp": {
            "wrapping": 2
        }
    },
    "isvisible": true,
    "kuid": "c081c60700b242a29d5ecf3405f75ef9",
    "name": "kony.ui.Label",
    "parent": "flexRewardsProfile",
    "pf": "frmMore",
    "texti18n": "i18n.phone.frmMore.rewardsProfile",
    "tooltip": "",
    "wType": "Label",
    "zindex": 1
}