{
    "@class": "com.kony.gen.viz.model.component.KVizLabel",
    "DNDConfig": null,
    "__parentReadjusting__": false,
    "_height_": {
        "type": "ref",
        "value": "preferred"
    },
    "_left_": {
        "type": "string",
        "value": "10dp"
    },
    "_margin_": [
        1,
        1,
        1,
        1
    ],
    "_padding_": [
        0,
        0,
        0,
        0
    ],
    "_skin_": "s561a7ea822c462d954e1dd6548c9580",
    "_text_": "Welcome!",
    "_width_": {
        "type": "string",
        "value": "70%"
    },
    "_wrapping_": 2,
    "android": {
        "textStyle": {
            "letterSpacing": 0,
            "strikeThrough": false
        }
    },
    "canUpdateUI": true,
    "centery": {
        "type": "string",
        "value": "60%"
    },
    "containerweight": 100,
    "contentalignment": 4,
    "id": "lblWelcome",
    "info": null,
    "iphone": {
        "psp": {
            "wrapping": 2
        }
    },
    "isvisible": true,
    "kuid": "5a7244f8223443f6bca99d3bbde0e167",
    "name": "kony.ui.Label",
    "parent": "flxWelcomeContainer",
    "pf": "frmMore",
    "texti18n": "i18n.phone.frmMore.lblWelcome",
    "textstyle": {},
    "tooltip": "",
    "wType": "Label",
    "zindex": 1
}