{
    "__parentReadjusting__": false,
    "_skin_": "s8ed8c4dcbcc4279b1a5d3c4cefb9dbf",
    "_srcKuid_": "34ec8dc7e8734ef1aae040778855fc69",
    "canUpdateUI": true,
    "children": [
        "imgSearchIcon"
    ],
    "context": {},
    "dataDiffs": {
        "clipBounds": true,
        "enableScrolling": true,
        "height": {
            "type": "string",
            "value": "100%"
        },
        "id": "flxSearchIcon",
        "layoutType": 2,
        "left": {
            "type": "string",
            "value": "0dp"
        },
        "snapGridSize": 10,
        "snapToGrid": true,
        "top": {
            "type": "string",
            "value": "0dp"
        },
        "width": {
            "type": "string",
            "value": "12.50%"
        }
    },
    "id": "flxSearchIcon",
    "instanceOf": "34ec8dc7e8734ef1aae040778855fc69",
    "isvisible": true,
    "kuid": "m3b8cd7edfb648e1915b58ef5b56566c",
    "layouttype": 2,
    "masterInstance": true,
    "name": "kony.ui.FlexContainer",
    "parent": "flxSearchContents",
    "pf": "frmProjectsList",
    "topLevelInstanceKUID": "m11380e11e8a44649da50a86b55a54fe",
    "wType": "FlexContainer"
}