{
    "__parentReadjusting__": false,
    "_skin_": "s61886db45824820846e292717ca8077",
    "_srcKuid_": "efd63395274d4d78879781ead7d0ced7",
    "canUpdateUI": true,
    "children": [
        "imgBack"
    ],
    "context": {},
    "dataDiffs": {
        "clipBounds": true,
        "enableScrolling": true,
        "height": {
            "type": "string",
            "value": "100%"
        },
        "id": "flexBack",
        "layoutType": 2,
        "left": {
            "type": "number",
            "value": "0"
        },
        "snapGridSize": 10,
        "snapToGrid": true,
        "top": {
            "type": "number",
            "value": "0"
        },
        "width": {
            "type": "string",
            "value": "50dp"
        },
        "zIndex": 1
    },
    "id": "flexBack",
    "instanceOf": "efd63395274d4d78879781ead7d0ced7",
    "isvisible": true,
    "kuid": "m8e227da56134b6ca6fe51ccca8a2f2b",
    "layouttype": 2,
    "masterInstance": true,
    "name": "kony.ui.FlexContainer",
    "parent": "flxContainerRed",
    "pf": "frmWebView",
    "topLevelInstanceKUID": "m83a9c6d33334d98ac176c03ba677214",
    "wType": "FlexContainer"
}