{
    "__parentReadjusting__": false,
    "_skin_": "se9d248a497840f18ccfc9c1b49ca97b",
    "_srcKuid_": "4b61104601654e6bae444417e408c556",
    "canUpdateUI": true,
    "children": [
        "lblUtterence1",
        "lblUtterenace2",
        "lblUtterance3"
    ],
    "context": {},
    "dataDiffs": {
        "centerX": {
            "type": "string",
            "value": "50%"
        },
        "clipBounds": true,
        "enableScrolling": true,
        "height": {
            "type": "string",
            "value": "132dp"
        },
        "id": "flxSampleUtterances",
        "layoutType": 2,
        "snapGridSize": 10,
        "snapToGrid": true,
        "top": {
            "type": "string",
            "value": "60dp"
        },
        "width": {
            "type": "string",
            "value": "220dp"
        }
    },
    "id": "flxSampleUtterances",
    "instanceOf": "4b61104601654e6bae444417e408c556",
    "isvisible": true,
    "kuid": "m3063ee2028248cebe98b334923f18fd",
    "layouttype": 2,
    "masterInstance": true,
    "name": "kony.ui.FlexContainer",
    "parent": "flxMicPanelContent",
    "pf": "frmWebView",
    "topLevelInstanceKUID": "m83a9c6d33334d98ac176c03ba677214",
    "wType": "FlexContainer"
}