{
    "background_color": "d30e2cff",
    "bg_type": "one",
    "border_color": "ffffff00",
    "border_style": "plain",
    "border_type": 0,
    "border_width": 0,
    "isDefaultSkin": false,
    "kuid": "se12f8f7156a46eb9c38e94c9ce8de2e",
    "wType": "FlexContainer"
}