{
    "background_color": "ffffffff",
    "bg_type": "one",
    "border_color": "ffffff00",
    "border_radius": 2,
    "border_style": "custom",
    "border_type": 0,
    "border_width": 1,
    "isDefaultSkin": false,
    "kuid": "s54212c237b14a608e4b248b77e9a498",
    "wType": "FlexContainer"
}