{
  "android": {
    "font_name": "Gotham Book",
    "font_size": 86,
    "isForked": false
  },
  "desktopweb": {
    "font_name": "Helvetica",
    "font_size": 86,
    "isForked": false
  },
  "font_color": "515151ff",
  "font_name": "Helvetica",
  "font_size": 86,
  "ipad": {
    "font_name": "Helvetica",
    "font_size": 86,
    "isForked": false
  },
  "iphone": {
    "font_name": "Gotham Book",
    "font_size": 86,
    "isForked": false
  },
  "isDefaultSkin": false,
  "kiosk": {
    "font_name": "GenericMonospace",
    "font_size": 86,
    "isForked": false
  },
  "kuid": "s9b8b16fc6f34817a8ba54e123934525",
  "spaan": {
    "font_name": "Gotham Book",
    "font_size": 86,
    "isForked": false
  },
  "spaandroidtablet": {
    "font_name": "Helvetica",
    "font_size": 86,
    "isForked": false
  },
  "spabb": {
    "font_name": "Helvetica",
    "font_size": 86,
    "isForked": false
  },
  "spaip": {
    "font_name": "Gotham Book",
    "font_size": 86,
    "isForked": false
  },
  "spaipad": {
    "font_name": "Helvetica",
    "font_size": 86,
    "isForked": false
  },
  "spawindowstablet": {
    "font_name": "Helvetica",
    "font_size": 86,
    "isForked": false
  },
  "spawinphone8": {
    "font_name": "Helvetica",
    "font_size": 86,
    "isForked": false
  },
  "tabrcandroid": {
    "font_name": "Helvetica",
    "font_size": 86,
    "isForked": false
  },
  "wType": "RichText",
  "watchos": {
    "font_name": "Helvetica",
    "font_size": 86,
    "isForked": false
  },
  "windows8": {
    "font_name": "GenericMonospace",
    "font_size": 86,
    "isForked": false
  },
  "winphone8": {
    "font_name": "GenericMonospace",
    "font_size": 86,
    "isForked": false
  }
}