{
  "android": {
    "font_name": "Gotham Bold",
    "font_size": 93,
    "isForked": false
  },
  "background_color": "56a9dd00",
  "bg_type": "one",
  "border_color": "ffffffff",
  "border_style": "plain",
  "border_type": 0,
  "border_width": 0,
  "desktopweb": {
    "font_name": "Helvetica",
    "font_size": 93,
    "isForked": false
  },
  "fontSizeInPx": false,
  "font_color": "489ca7ff",
  "font_name": "Helvetica",
  "font_size": 93,
  "font_style": "normal",
  "font_weight": "normal",
  "ipad": {
    "font_name": "Helvetica",
    "font_size": 93,
    "isForked": false
  },
  "iphone": {
    "font_name": "Gotham Bold",
    "font_size": 93,
    "isForked": false
  },
  "isDefaultSkin": false,
  "kiosk": {
    "font_name": "GenericMonospace",
    "font_size": 93,
    "isForked": false
  },
  "kuid": "s2fcffc9b49c4d6eb1162500b2147db3",
  "spaan": {
    "font_name": "Helvetica",
    "font_size": 93,
    "isForked": false
  },
  "spaandroidtablet": {
    "font_name": "Helvetica",
    "font_size": 93,
    "isForked": false
  },
  "spabb": {
    "font_name": "Helvetica",
    "font_size": 93,
    "isForked": false
  },
  "spaip": {
    "font_name": "Helvetica",
    "font_size": 93,
    "isForked": false
  },
  "spaipad": {
    "font_name": "Helvetica",
    "font_size": 93,
    "isForked": false
  },
  "spawindowstablet": {
    "font_name": "Helvetica",
    "font_size": 93,
    "isForked": false
  },
  "spawinphone8": {
    "font_name": "Helvetica",
    "font_size": 93,
    "isForked": false
  },
  "tabrcandroid": {
    "font_name": "Helvetica",
    "font_size": 93,
    "isForked": false
  },
  "wType": "Button",
  "watchos": {
    "font_name": "Helvetica",
    "font_size": 93,
    "isForked": false
  },
  "windows8": {
    "font_name": "GenericMonospace",
    "font_size": 93,
    "isForked": false
  },
  "winphone8": {
    "font_name": "GenericMonospace",
    "font_size": 93,
    "isForked": false
  }
}