{
  "android": {
    "font_name": "Montserrat-SemiBold",
    "font_size": 115,
    "isForked": false
  },
  "background_color": "cf181fff",
  "bg_type": "one",
  "border_color": "cf181fff",
  "border_style": "rc",
  "border_type": 0,
  "border_width": 1,
  "desktopweb": {
    "font_size": 115,
    "isForked": false
  },
  "fontSizeInPx": false,
  "font_color": "ffffffff",
  "font_name": "Helvetica",
  "font_size": 115,
  "font_style": "normal",
  "font_weight": "normal",
  "ipad": {
    "font_size": 115,
    "isForked": false
  },
  "iphone": {
    "font_name": "Montserrat-SemiBold",
    "font_size": 115,
    "isForked": false
  },
  "isDefaultSkin": false,
  "kiosk": {
    "font_size": 115,
    "isForked": false
  },
  "kuid": "saec294b48a64b7cb65a654bfa7dbf83",
  "spaan": {
    "font_size": 115,
    "isForked": false
  },
  "spaandroidtablet": {
    "font_size": 115,
    "isForked": false
  },
  "spabb": {
    "font_size": 115,
    "isForked": false
  },
  "spaip": {
    "font_size": 115,
    "isForked": false
  },
  "spaipad": {
    "font_size": 115,
    "isForked": false
  },
  "spawindowstablet": {
    "font_size": 115,
    "isForked": false
  },
  "spawinphone8": {
    "font_size": 115,
    "isForked": false
  },
  "tabrcandroid": {
    "font_size": 115,
    "isForked": false
  },
  "wType": "Camera",
  "watchos": {
    "font_size": 115,
    "isForked": false
  },
  "windows8": {
    "font_size": 115,
    "isForked": false
  },
  "winphone8": {
    "font_size": 115,
    "isForked": false
  }
}