{
  "background_color": "f6f6f6ff",
  "bg_type": "one",
  "border_color": "e0e0e0ff",
  "border_style": "plain",
  "border_type": 0,
  "border_width": 1,
  "isDefaultSkin": false,
  "kuid": "s8c6e390cdf54cb2923426816cf6840f",
  "wType": "FlexContainer"
}