{
  "background_color": "d30e2cff",
  "bg_type": "one",
  "border_color": "000000ff",
  "border_style": "plain",
  "border_type": 0,
  "border_width": 0,
  "isDefaultSkin": false,
  "kuid": "s988c50b9eb245dfb7a705829efb2799",
  "wType": "FlexContainer"
}