{
  "background_color": "00000033",
  "bg_type": "one",
  "border_color": "000000ff",
  "border_style": "plain",
  "border_type": 0,
  "border_width": 0,
  "isDefaultSkin": false,
  "kuid": "s2d5481d81904add8ae362b90f765997",
  "wType": "FlexContainer"
}