{
  "background_color": "d30e2cff",
  "bg_type": "one",
  "border_color": "ffffff00",
  "border_style": "plain",
  "border_type": 0,
  "border_width": 0,
  "isDefaultSkin": false,
  "kuid": "sa59bd5bd75848cba8fa5651b856a978",
  "wType": "FlexContainer"
}