{
  "background_color": "ffffffff",
  "bg_type": "one",
  "border_color": "ffffff00",
  "border_radius": 2,
  "border_style": "custom",
  "border_type": 0,
  "border_width": 1,
  "isDefaultSkin": false,
  "kuid": "s2bb4d3bf1314772999c6942849f6fc6",
  "wType": "FlexContainer"
}