{
  "android": {
    "font_name": "Gotham Book",
    "font_size": 116,
    "isForked": false
  },
  "background_color": "ffffffff",
  "bg_type": "one",
  "border_color": "979797ff",
  "border_style": "plain",
  "border_type": 0,
  "border_width": 1,
  "desktopweb": {
    "font_name": "Helvetica",
    "font_size": 116,
    "isForked": false
  },
  "fontSizeInPx": false,
  "font_color": "555555ff",
  "font_name": "Helvetica",
  "font_size": 116,
  "font_style": "normal",
  "font_weight": "normal",
  "ipad": {
    "font_name": "Helvetica",
    "font_size": 116,
    "isForked": false
  },
  "iphone": {
    "font_name": "Gotham Book",
    "font_size": 116,
    "isForked": false
  },
  "isDefaultSkin": false,
  "kiosk": {
    "font_name": "GenericMonospace",
    "font_size": 116,
    "isForked": false
  },
  "kuid": "s0e83e3fd29641948d4a7b716e2fbac5",
  "spaan": {
    "font_name": "Gotham Book",
    "font_size": 116,
    "isForked": false
  },
  "spaandroidtablet": {
    "font_name": "Helvetica",
    "font_size": 116,
    "isForked": false
  },
  "spabb": {
    "font_name": "Helvetica",
    "font_size": 116,
    "isForked": false
  },
  "spaip": {
    "font_name": "Gotham Book",
    "font_size": 116,
    "isForked": false
  },
  "spaipad": {
    "font_name": "Helvetica",
    "font_size": 116,
    "isForked": false
  },
  "spawindowstablet": {
    "font_name": "Helvetica",
    "font_size": 116,
    "isForked": false
  },
  "spawinphone8": {
    "font_name": "Helvetica",
    "font_size": 116,
    "isForked": false
  },
  "tabrcandroid": {
    "font_name": "Helvetica",
    "font_size": 116,
    "isForked": false
  },
  "wType": "TextField",
  "watchos": {
    "font_name": "Helvetica",
    "font_size": 116,
    "isForked": false
  },
  "windows8": {
    "font_name": "GenericMonospace",
    "font_size": 116,
    "isForked": false
  },
  "winphone8": {
    "font_name": "GenericMonospace",
    "font_size": 116,
    "isForked": false
  }
}