{
    "@class": "com.kony.gen.viz.model.component.KVizLabel",
    "DNDConfig": null,
    "__parentReadjusting__": false,
    "_height_": {
        "type": "string",
        "value": "15dp"
    },
    "_left_": {
        "type": "string",
        "value": "0dp"
    },
    "_margin_": [
        1,
        1,
        1,
        1
    ],
    "_padding_": [
        0,
        0,
        0,
        0
    ],
    "_skin_": "sa73913b77f84154aadec148c5a2dd0a",
    "_text_": "Y",
    "_top_": {
        "type": "string",
        "value": "0dp"
    },
    "_width_": {
        "type": "string",
        "value": "6%"
    },
    "_wrapping_": 2,
    "android": {
        "textStyle": {
            "letterSpacing": 1,
            "strikeThrough": false
        }
    },
    "canUpdateUI": true,
    "containerId": true,
    "containerweight": 100,
    "contentalignment": 5,
    "id": "lblStar1",
    "info": null,
    "ipad": {
        "psp": {
            "wrapping": 2
        }
    },
    "iphone": {
        "psp": {
            "wrapping": 2
        },
        "textStyle": {
            "baseline": 0,
            "letterSpacing": 1,
            "strikeThrough": false
        }
    },
    "isvisible": false,
    "kuid": "8736608b998d4d6c8024bace1667c8b2",
    "name": "kony.ui.Label",
    "paddinginpixel": false,
    "parent": "flxStarRating",
    "pf": "tempPDPProductList",
    "textStyle": {
        "baseline": 0,
        "letterSpacing": 1,
        "strikeThrough": false
    },
    "tooltip": "",
    "wType": "Label",
    "zindex": 1
}