{
    "@class": "com.kony.gen.viz.model.component.KVizButton",
    "DNDConfig": null,
    "__parentReadjusting__": false,
    "_height_": {
        "type": "string",
        "value": "100%"
    },
    "_left_": {
        "type": "string",
        "value": "0dp"
    },
    "_margin_": [
        6,
        6,
        6,
        6
    ],
    "_padding_": [
        3,
        0,
        0,
        0
    ],
    "_skin_": "sa29a2e4460d4027b65386655adf3d6c",
    "_text_": "WHAT YOU'LL NEED",
    "_top_": {
        "type": "string",
        "value": "0dp"
    },
    "_width_": {
        "type": "string",
        "value": "100%"
    },
    "canUpdateUI": true,
    "containerweight": 100,
    "contentalignment": 4,
    "displaytext": true,
    "focusskin": "s0e5c80fd7ab42e0899babae5f3200fb",
    "id": "btnExpColp",
    "info": null,
    "iphone": {
        "psp": {
            "showProgressIndicator": false
        }
    },
    "isvisible": true,
    "kuid": "a7047327e3b34112994231c5075fd439",
    "name": "kony.ui.Button",
    "paddinginpixel": false,
    "parent": "flxPrimaryProductsHead",
    "pf": "frmPJDP",
    "showprogressindicator": false,
    "texti18n": "i18n.phone.frmPJDP.whatYoullneed",
    "wType": "Button",
    "zindex": 1
}