{
    "__parentReadjusting__": false,
    "_padding_": [
        0,
        0,
        0,
        0
    ],
    "_srcKuid_": "24eda7dc6ca840df9845a48acc416fca",
    "areflexpropsreferenced": true,
    "canUpdateUI": true,
    "context": {},
    "dataDiffs": {
        "id": "segSearchResults"
    },
    "id": "segSearchResults",
    "instanceOf": "24eda7dc6ca840df9845a48acc416fca",
    "isdatareferenced": true,
    "isvisible": true,
    "kuid": "m123ab394f144783930b71d852b6d2c6",
    "masterInstance": true,
    "name": "kony.ui.SegmentedUI2",
    "parent": "flxSearchResultsContainer",
    "pf": "frmProjectsList",
    "selectedState": false,
    "topLevelInstanceKUID": "mb813b33317c4803b7ec19a8250b67ba",
    "wType": "Segment"
}