{
    "__parentReadjusting__": false,
    "_padding_": [
        0,
        0,
        0,
        0
    ],
    "_skin_": "s11ac4047b5c4c39b96a7060b2cd6179",
    "_srcKuid_": "85842cae47da4b468d590c5a32be11c7",
    "areflexpropsreferenced": true,
    "canUpdateUI": true,
    "children": [
        "lblCouponTitle",
        "btnDone",
        "btnCoupon",
        "flxSeparatorLine",
        "btnCouponMainMaster"
    ],
    "context": {},
    "dataDiffs": {
        "id": "flxCouponHeader"
    },
    "id": "flxCouponHeader",
    "instanceOf": "85842cae47da4b468d590c5a32be11c7",
    "isdatareferenced": true,
    "isvisible": true,
    "kuid": "m898cd4f372a4aa080647fdad2bfeeca",
    "masterInstance": true,
    "name": "kony.ui.FlexContainer",
    "parent": "flexCouponContainer",
    "pf": "frmProductCategoryMore",
    "topLevelInstanceKUID": "mb4dc230a4fb48699ae5410c2136eeb8",
    "wType": "FlexContainer"
}