{
    "__parentReadjusting__": false,
    "_padding_": [
        0,
        0,
        0,
        0
    ],
    "_skin_": "s1246c5398d54b2098984d38ceb23dd1",
    "_srcKuid_": "0d10213c802748b8b0aa91881abfa20c",
    "areflexpropsreferenced": true,
    "canUpdateUI": true,
    "children": [],
    "context": {},
    "dataDiffs": {
        "id": "flxOverlay"
    },
    "id": "flxOverlay",
    "instanceOf": "0d10213c802748b8b0aa91881abfa20c",
    "isdatareferenced": true,
    "isvisible": true,
    "kuid": "md605e548d3a4cdabf9ce1b5f8c5f932",
    "masterInstance": true,
    "name": "kony.ui.FlexContainer",
    "parent": "flexCouponContainer",
    "pf": "frmProductCategoryMore",
    "topLevelInstanceKUID": "mb4dc230a4fb48699ae5410c2136eeb8",
    "wType": "FlexContainer"
}