{
    "__parentReadjusting__": false,
    "_padding_": [
        0,
        0,
        0,
        0
    ],
    "_skin_": "s13cda51279a4984ac9726a9c95c523d",
    "_srcKuid_": "aceee5dd55c146c0910afc5efc3cce3d",
    "areflexpropsreferenced": true,
    "canUpdateUI": true,
    "context": {},
    "dataDiffs": {
        "id": "lblNoBarcodeValidityRestrictions"
    },
    "id": "lblNoBarcodeValidityRestrictions",
    "instanceOf": "aceee5dd55c146c0910afc5efc3cce3d",
    "isdatareferenced": true,
    "isvisible": true,
    "kuid": "m5486ffa4ce94d53a122c1f9bb7943ee",
    "masterInstance": true,
    "name": "kony.ui.Label",
    "parent": "flexInner2",
    "pf": "frmProductCategoryMore",
    "topLevelInstanceKUID": "mb4dc230a4fb48699ae5410c2136eeb8",
    "wType": "Label"
}