{
    "@class": "com.kony.gen.viz.model.component.KVizButton",
    "DNDConfig": null,
    "__parentReadjusting__": false,
    "_height_": {
        "type": "string",
        "value": "100%"
    },
    "_margin_": [
        6,
        6,
        6,
        6
    ],
    "_padding_": [
        0,
        0,
        12,
        0
    ],
    "_right_": {
        "type": "string",
        "value": "0dp"
    },
    "_skin_": "s72e0608514e4b8782501f91690a6c14",
    "_text_": "STORE MAP",
    "_top_": {
        "type": "string",
        "value": "0dp"
    },
    "_width_": {
        "type": "string",
        "value": "55%"
    },
    "canUpdateUI": true,
    "containerweight": 100,
    "contentalignment": 6,
    "displaytext": true,
    "focusskin": "s0d47764d00e4a5fb2cdef884a0184b2",
    "id": "btnStoreMapMap",
    "info": null,
    "iphone": {
        "psp": {
            "showProgressIndicator": false
        }
    },
    "isvisible": true,
    "kuid": "e617911bc3984a36a38b7486a42ec90a",
    "name": "kony.ui.Button",
    "paddinginpixel": false,
    "parent": "flxItemLocationMap",
    "pf": "frmFindStoreMapView",
    "showprogressindicator": false,
    "texti18n": "i18n.phone.Common.btnStoreMap",
    "wType": "Button",
    "zindex": 1
}