{
    "@class": "com.kony.gen.viz.model.component.KVizButton",
    "DNDConfig": null,
    "__parentReadjusting__": false,
    "_height_": {
        "type": "string",
        "value": "100%"
    },
    "_left_": {
        "type": "string",
        "value": "0dp"
    },
    "_margin_": [
        6,
        6,
        6,
        6
    ],
    "_padding_": [
        3,
        0,
        0,
        0
    ],
    "_skin_": "s7c1fa3dc3f44ed18e4ada3bacdd261b",
    "_text_": "Canada - français",
    "_top_": {
        "type": "string",
        "value": "0dp"
    },
    "_width_": {
        "type": "string",
        "value": "100%"
    },
    "canUpdateUI": true,
    "containerweight": 100,
    "contentalignment": 4,
    "displaytext": true,
    "focusskin": "s794a8c1f3ef4657a3752e20b1b36d65",
    "id": "btnLangRegion3",
    "info": null,
    "iphone": {
        "psp": {
            "showProgressIndicator": false
        }
    },
    "isvisible": true,
    "kuid": "4f10eae47208428980bec148d3c12127",
    "name": "kony.ui.Button",
    "paddinginpixel": false,
    "parent": "flxCanadaFrench",
    "pf": "frmRegions",
    "showprogressindicator": false,
    "wType": "Button",
    "zindex": 1
}