{
    "__parentReadjusting__": false,
    "_padding_": [
        0,
        0,
        0,
        20
    ],
    "_skin_": "s78034944caa468192d0bb4be07545dc",
    "_srcKuid_": "m409abbca6e540cc9da88175516e7698",
    "canUpdateUI": true,
    "context": {},
    "dataDiffs": {
        "height": {
            "type": "string",
            "value": "100%"
        },
        "id": "btnProjects",
        "left": {
            "type": "string",
            "value": "0dp"
        },
        "text": "J",
        "top": {
            "type": "string",
            "value": "0dp"
        },
        "width": {
            "type": "string",
            "value": "100%"
        },
        "zIndex": 1
    },
    "id": "btnProjects",
    "instanceOf": "m409abbca6e540cc9da88175516e7698",
    "isvisible": true,
    "kuid": "m1a3b58d81354ca4aac1a5afb9bfa9bb",
    "masterInstance": true,
    "name": "kony.ui.Button",
    "parent": "flxProjects",
    "pf": "frmProductCategory",
    "topLevelInstanceKUID": "m1063ad8125847c49115875545e2ffe8",
    "wType": "Button"
}