{
    "@class": "com.kony.gen.viz.model.component.KVizButton",
    "DNDConfig": null,
    "__parentReadjusting__": false,
    "_height_": {
        "type": "string",
        "value": "100%"
    },
    "_left_": {
        "type": "string",
        "value": "0dp"
    },
    "_margin_": [
        6,
        6,
        6,
        6
    ],
    "_padding_": [
        9,
        0,
        0,
        0
    ],
    "_skin_": "s0b6579a18144b32b0db0dc83c09740d",
    "_text_": "",
    "_top_": {
        "type": "string",
        "value": "0dp"
    },
    "_width_": {
        "type": "string",
        "value": "25%"
    },
    "canUpdateUI": true,
    "centery": {
        "type": "string",
        "value": "50%"
    },
    "containerweight": 100,
    "contentalignment": 4,
    "displaytext": true,
    "focusskin": "s498abef98fe4f45b636ff6bc2c497bf",
    "id": "btnHeaderLeft",
    "info": null,
    "iphone": {
        "psp": {
            "showProgressIndicator": false
        }
    },
    "isvisible": true,
    "kuid": "730d4c7e4d884eab9011f94b464fcb1d",
    "name": "kony.ui.Button",
    "paddinginpixel": false,
    "parent": "flxHeaderTitleContainer",
    "pf": "frmForgotPwd",
    "wType": "Button",
    "zindex": 1
}