{
    "_skin_": "sad2714c6eb44284aadaee997f123912",
    "_srcKuid_": "m7ca28e4712e4f589468e8d8a0d68e43",
    "canUpdateUI": true,
    "context": {},
    "dataDiffs": {
        "height": {
            "type": "string",
            "value": "100%"
        },
        "id": "btnMyLists",
        "left": {
            "type": "string",
            "value": "0dp"
        },
        "text": "I",
        "top": {
            "type": "string",
            "value": "0dp"
        },
        "width": {
            "type": "string",
            "value": "100%"
        },
        "zIndex": 1
    },
    "id": "btnMyLists",
    "instanceOf": "m7ca28e4712e4f589468e8d8a0d68e43",
    "isvisible": true,
    "kuid": "m173e54b40da419d895010746200aae0",
    "masterInstance": true,
    "name": "kony.ui.Button",
    "parent": "flxMyLists",
    "pf": "frmMore",
    "topLevelInstanceKUID": "mde98ab8d1534593a16ed94ca0812b00",
    "wType": "Button"
}