{
    "__parentReadjusting__": false,
    "_padding_": [
        0,
        0,
        0,
        20
    ],
    "_skin_": "s78034944caa468192d0bb4be07545dc",
    "_srcKuid_": "j3eeb9de6dc147a29d427c68972d6fd9",
    "canUpdateUI": true,
    "context": {},
    "dataDiffs": {
        "height": {
            "type": "string",
            "value": "100%"
        },
        "id": "btnCoupon",
        "left": {
            "type": "string",
            "value": "0dp"
        },
        "text": "C",
        "top": {
            "type": "string",
            "value": "0dp"
        },
        "width": {
            "type": "string",
            "value": "100%"
        },
        "zIndex": 1
    },
    "id": "btnCoupon",
    "instanceOf": "j3eeb9de6dc147a29d427c68972d6fd9",
    "isvisible": true,
    "kuid": "m81e438dd09742e8bb68db9c1892c244",
    "masterInstance": true,
    "name": "kony.ui.Button",
    "parent": "flxMyCoupons",
    "pf": "frmWebView",
    "topLevelInstanceKUID": "m704bf0103da417aaaab0737c021a39e",
    "wType": "Button"
}