{
    "__parentReadjusting__": false,
    "_skin_": "s61886db45824820846e292717ca8077",
    "_srcKuid_": "m86a80169b324aff86ab74f79c1a5f89",
    "canUpdateUI": true,
    "children": [
        "lblMyLists",
        "btnMyLists",
        "imgCouponIcon"
    ],
    "context": {},
    "dataDiffs": {
        "clipBounds": true,
        "enableScrolling": true,
        "height": {
            "type": "string",
            "value": "100%"
        },
        "id": "flxMyLists",
        "layoutType": 2,
        "left": {
            "type": "string",
            "value": "0dp"
        },
        "snapGridSize": 10,
        "snapToGrid": true,
        "top": {
            "type": "string",
            "value": "0dp"
        },
        "width": {
            "type": "string",
            "value": "20%"
        },
        "zIndex": 1
    },
    "id": "flxMyLists",
    "instanceOf": "m86a80169b324aff86ab74f79c1a5f89",
    "isvisible": false,
    "kuid": "mc3e452131b0481888844a935cde6a22",
    "layouttype": 2,
    "masterInstance": true,
    "name": "kony.ui.FlexContainer",
    "parent": "flxFooterWrap",
    "pf": "frmWebView",
    "topLevelInstanceKUID": "m704bf0103da417aaaab0737c021a39e",
    "wType": "FlexContainer"
}