{
    "@class": "com.kony.gen.viz.model.component.KVizButton",
    "DNDConfig": null,
    "__parentReadjusting__": false,
    "_height_": {
        "type": "string",
        "value": "100%"
    },
    "_margin_": [
        6,
        6,
        6,
        6
    ],
    "_padding_": [
        0,
        0,
        0,
        0
    ],
    "_render_": true,
    "_right_": {
        "type": "string",
        "value": "2%"
    },
    "_skin_": "s017356f8a4645458f581666994ef369",
    "_text_": "X",
    "_top_": {
        "type": "string",
        "value": "0dp"
    },
    "_width_": {
        "type": "string",
        "value": "10%"
    },
    "android": {
        "render": true
    },
    "canUpdateUI": true,
    "centery": {
        "type": "string",
        "value": "50%"
    },
    "childInstances": [
        "m3d5e244b8dd4228872e9d51bc9cb12c"
    ],
    "containerweight": 100,
    "contentalignment": 5,
    "displaytext": true,
    "focusskin": "s9da35d8be20441dbf0f4b590040def7",
    "id": "btnClearSearch",
    "info": null,
    "iphone": {
        "render": false
    },
    "isvisible": false,
    "kuid": "m90e84864cb64099a47ffc6dc79ccab9",
    "name": "kony.ui.Button",
    "parent": "flxTextboxContents",
    "pf": "masterHeaderWebView",
    "spaan": {
        "render": false
    },
    "spabb": {
        "render": false
    },
    "spaip": {
        "render": false
    },
    "spawinphone8": {
        "render": false
    },
    "wType": "Button",
    "winphone8": {
        "render": false
    },
    "zindex": 1
}