{
    "_skin_": "s4b0f23587d44995bc1e318b08b03332",
    "_srcKuid_": "0f18600a0bce4cc4a4065a8f3fdbc235",
    "canUpdateUI": true,
    "children": [
        "flxContainerSearchInner"
    ],
    "context": {},
    "dataDiffs": {
        "clipBounds": true,
        "enableScrolling": true,
        "height": {
            "type": "string",
            "value": "100%"
        },
        "id": "flxContainerSearchExpand",
        "layoutType": 2,
        "left": {
            "type": "string",
            "value": "-0.02%"
        },
        "snapGridSize": 10,
        "snapToGrid": true,
        "top": {
            "type": "string",
            "value": "-0.03%"
        },
        "width": {
            "type": "string",
            "value": "100%"
        },
        "zIndex": 10
    },
    "id": "flxContainerSearchExpand",
    "instanceOf": "0f18600a0bce4cc4a4065a8f3fdbc235",
    "isvisible": true,
    "kuid": "m1ff410425b74719abc6b3e2f818d74e",
    "layouttype": 2,
    "masterInstance": true,
    "name": "kony.ui.FlexContainer",
    "parent": "flxSearchOverlay",
    "pf": "frmProjectsList",
    "topLevelInstanceKUID": "m736a8151ff04417a56034b198368d1e",
    "wType": "FlexContainer"
}