{
    "AS_Button_7674f64b55874587a6ac85ecca31806b": {
        "id": "AS_Button_7674f64b55874587a6ac85ecca31806b",
        "type": "ACTION_SEQUENCE",
        "params": [{
            "datatype": "collection",
            "name": "eventobject"
        }],
        "contextObj": {
            "name": "masterCouponContainer",
            "type": "masters",
            "KUID": "ebecd8cafd7147379a39ec06c14b40d3"
        },
        "language": "js",
        "actions": []
    }
}