{
    "AS_Button_202ef8b882ee4ae1813b03bef022375c": {
        "id": "AS_Button_202ef8b882ee4ae1813b03bef022375c",
        "type": "ACTION_SEQUENCE",
        "params": [{
            "datatype": "collection",
            "name": "eventobject"
        }],
        "language": "js",
        "actions": [{
            "id": "INVOKE_FUNCTION__onClick_494bba8088d94bfda0e107f9e6c63c36",
            "type": "INVOKE_FUNCTION",
            "sequenceKUID": "closeCoupon",
            "display": "closeCoupon",
            "inputparams": [],
            "callbackType": null,
            "disabled": null,
            "source": "module"
        }]
    }
}