{
    "AS_Button_b753919524014e1588e3269daa3deeab": {
        "id": "AS_Button_b753919524014e1588e3269daa3deeab",
        "type": "ACTION_SEQUENCE",
        "params": [{
            "datatype": "collection",
            "name": "eventobject"
        }],
        "contextObj": {
            "name": "masterHeader",
            "type": "masters",
            "KUID": "c8a209c421584479ab525327e213dd86"
        },
        "language": "js",
        "actions": [{
            "id": "INVOKE_FUNCTION___4e817a1ef02d456bbbfad7aabd744a41",
            "type": "INVOKE_FUNCTION",
            "sequenceKUID": "openCoupon",
            "display": "openCoupon",
            "inputparams": [],
            "parentId": null,
            "callbackType": null,
            "disabled": null,
            "source": "module"
        }]
    }
}