{
    "AS_Button_28761b9cb27a4421aca1f1412b862a13": {
        "id": "AS_Button_28761b9cb27a4421aca1f1412b862a13",
        "type": "ACTION_SEQUENCE",
        "params": [{
            "datatype": "collection",
            "name": "eventobject"
        }],
        "language": "js",
        "actions": [{
            "id": "INVOKE_FUNCTION__onClick_7ac71f6f6d9b47948f6a46721777d2e0",
            "type": "INVOKE_FUNCTION",
            "sequenceKUID": "openCouponDetails",
            "display": "openCouponDetails",
            "inputparams": [],
            "callbackType": null,
            "disabled": null,
            "source": "module"
        }]
    }
}