{
    "AS_TextField_cb32226d13174b47ab1ceef7406c637d": {
        "id": "AS_TextField_cb32226d13174b47ab1ceef7406c637d",
        "type": "ACTION_SEQUENCE",
        "params": [{
            "datatype": "collection",
            "name": "eventobject"
        }, {
            "datatype": "string",
            "name": "changedtext"
        }],
        "contextObj": {
            "name": "masterHeader",
            "type": "masters",
            "KUID": "c8a209c421584479ab525327e213dd86"
        },
        "language": "js",
        "actions": [{
            "id": "INVOKE_FUNCTION___6d5dea65f1ce4cf885e5c2463f541138",
            "type": "INVOKE_FUNCTION",
            "sequenceKUID": "searchFocus",
            "display": "searchFocus",
            "inputparams": [],
            "parentId": null,
            "callbackType": null,
            "disabled": null,
            "source": "module"
        }]
    }
}