{
    "@class": "com.kony.gen.viz.model.component.KVizButton",
    "DNDConfig": null,
    "__parentReadjusting__": false,
    "_height_": {
        "type": "string",
        "value": "100%"
    },
    "_left_": {
        "type": "string",
        "value": "0dp"
    },
    "_margin_": [
        6,
        6,
        6,
        6
    ],
    "_padding_": [
        0,
        0,
        0,
        20
    ],
    "_skin_": "s78034944caa468192d0bb4be07545dc",
    "_text_": "E",
    "_top_": {
        "type": "string",
        "value": "0dp"
    },
    "_width_": {
        "type": "string",
        "value": "100%"
    },
    "canUpdateUI": true,
    "childInstances": [
        "md6d126668814e7983ee55e3c8c3f9ff",
        "m1629209c9494286bd41a0c71d365a60",
        "me63f741d2f54df0a4b4bac39b0c06ff",
        "ma00dda7f3aa4379846b020c626e6ca1",
        "mccb3972c26f4d6182b3655a7ad149f4",
        "mff23a177aa24d7abdfd0c2ebeec9305",
        "m311207bc2d847b4a4db0ea340437821",
        "mb9b39888fde4a40a41ad188d265bfcb",
        "mf10a900ccc64da194405ea4e9d74c2d",
        "mcf26f3c067e48fcb80be449efa182bb",
        "m955059a217e4eb1b2d1b09d4fe12c15",
        "mdc6f3d67821483997ac7695f6b566de",
        "m65980c74d764671aaf21eb8b2a242c6",
        "mfe401a9f872462e99ce8a261217e309",
        "mcad02f184394166b0e6191cb2ec9183",
        "m0bbe8c98eac4974bd97fd1996e20eb6",
        "m4a0ee62b9dc47c1a49485311d21df8d",
        "m4454180d09e42f78e6bdd05d258691b",
        "m49ed2f41a4542cdb8b85d5bcc43d9b6",
        "m4277395cf0e4cfbaa2390906deb17c1",
        "m366ac41c9504f428d3298dffe9957bf",
        "mddf396b725343e68853c045293850eb",
        "m15bd3b97fe949f09614126461fd6143",
        "mf54c87b572a4d51b86cffa7c9db34ae",
        "m5d510b6a22f47858c0e178faf8d86ef",
        "me85533fe3e24ae69b376db16147c18f",
        "m48a9bfadd974fd68f3851cd3bda75d6",
        "m6a4951c9a684816b057eb5fb8a33ed4",
        "m163d524f936426395af29d40c8cf943",
        "m2ecc908af3842a8acfa2350b36006ff",
        "me6c00a3a2704971808960af8e110ade",
        "mbb0d816559143889a2aec1144b5af63",
        "m12a9ae20fd04ccf987e1c14623debf1",
        "m16878b2ea174931a875fc1441742af3",
        "m865987c65114f49a43aa23218dfb94a"
    ],
    "containerweight": 100,
    "contentalignment": 5,
    "displaytext": true,
    "focusskin": "s3013b7096c24cad82a39f0cdc8dedb4",
    "id": "btnEvents",
    "info": null,
    "iphone": {
        "psp": {
            "showProgressIndicator": false
        }
    },
    "isvisible": true,
    "kuid": "m1c0bc5d77d240aab26b078218698dd1",
    "name": "kony.ui.Button",
    "parent": "flxEvents",
    "pf": "masterFooter",
    "showprogressindicator": false,
    "wType": "Button",
    "zindex": 1
}