{
    "DNDConfig": null,
    "__parentReadjusting__": false,
    "_height_": {
        "type": "string",
        "value": "100%"
    },
    "_left_": {
        "type": "string",
        "value": "0dp"
    },
    "_margin_": [
        0,
        0,
        0,
        0
    ],
    "_orientation_": 6,
    "_padding_": [
        0,
        0,
        0,
        0
    ],
    "_percent_": true,
    "_skin_": "s61886db45824820846e292717ca8077",
    "_top_": {
        "type": "string",
        "value": "0dp"
    },
    "_width_": {
        "type": "string",
        "value": "20%"
    },
    "allboxes": [],
    "autogrowmode": 0,
    "canUpdateUI": true,
    "childInstances": [
        "me1db3ca47f14ea395c49e193a54ca91",
        "mf9c496b4e3f44caafd98837b3f13a4d",
        "m6a56d5883a2445ea401d0a3013d229b",
        "m0ac3514907943839c275e8ed4f510d2",
        "m217df987ebf4366947c5718d97a7073",
        "m4ee24d531b9405486788cf5330b8141",
        "m9e1a8270c76497783fa0e376bf0c594",
        "m197212c54b347ecbf804f3b10d42333",
        "m174b0b379c14f6fb5c45d7d0037579b",
        "m9ced30f3f694909b7577f4097730a58",
        "m1eaf959b13244f190fe0bae3005f913",
        "mdb803a9cfda4a0fa7730abde7ee2c17",
        "ma7e2fb2ab224982a71749cd1394e8b5",
        "m88989534887446690947e8539ce04fe",
        "m5db6466336e41aebf20f2805f54e621",
        "m6f940a51b704d61b0405437e08f6917",
        "md00757ed37c47ab9621a621f7cc0ac7",
        "m5f8ed03917d44cf8af5b4c9ecbe6e69",
        "m8e772919f494f34b770b02efabefc70",
        "m6c58e7333ed4b10afd255a591db8033",
        "mcb127778b3d4fa0b7c908e6bca9338f",
        "mf28af244bb140bf988db8fccf19ca42",
        "m8caf264e3b04a4b9cbac783ee81860f",
        "md06f0509d0f471fa2d06c5790b7496d",
        "me40bcb7bb6b4df7968b454bca483d8c",
        "m442df96fcb04e3f9858315cfc5dc078",
        "m7f1cdeb7f13475c87148161a5888580",
        "mb2e1df7d89d46579bc83704bdc725dc",
        "md96f61dac894d0facd7327c4ec64a5c",
        "mdf66c2e7cd242f28e11cd04e606c2c3",
        "m77757ebf1d24ed59551d55b2e722170",
        "m17aa687a80641ea83ec066a0f3a275a",
        "m62a95df6bde4d438d2e7cc8d6ca4ee2",
        "m2b44b2efc8f4f1ebe2d0e5a6ef3ebcf",
        "m128af7ba9e547569a1100d4514aabbd"
    ],
    "children": [
        "lblEvents",
        "btnEvents"
    ],
    "clipbounds": true,
    "containerweight": 100,
    "enablescrolling": true,
    "id": "flxEvents",
    "info": null,
    "isvisible": true,
    "kuid": "m5c7135747c64b26a5413f7dd943ad38",
    "layouttype": 2,
    "name": "kony.ui.FlexContainer",
    "parent": "flxFooterWrap",
    "pf": "masterFooter",
    "snapgridsize": 10,
    "snaptogrid": true,
    "wType": "FlexContainer",
    "widgetalignment": 1,
    "zindex": 1
}