{
    "DNDConfig": null,
    "__parentReadjusting__": false,
    "_height_": {
        "type": "string",
        "value": "100%"
    },
    "_left_": {
        "type": "string",
        "value": "0dp"
    },
    "_margin_": [
        0,
        0,
        0,
        0
    ],
    "_orientation_": 6,
    "_padding_": [
        0,
        0,
        0,
        0
    ],
    "_percent_": true,
    "_skin_": "s61886db45824820846e292717ca8077",
    "_top_": {
        "type": "string",
        "value": "0dp"
    },
    "_width_": {
        "type": "string",
        "value": "20%"
    },
    "allboxes": [],
    "autogrowmode": 0,
    "canUpdateUI": true,
    "childInstances": [
        "m0b92aa82dd04914a847c46679cbec09",
        "m962fe879eb1408590a94e11e35161f9",
        "me69b7eecc234fcaa6a09373764a96b0",
        "mbfc0d9062ad4580beced26ea7a8b612",
        "m632cfd4338f4a3dbb3467c660958229",
        "mcc00c8f57d047c9b4e9b4286c4dd07a",
        "m55f3b85873c472596afb429e2d21b9a",
        "mf25b9de17df46349480bfe612db081f",
        "mc08cfc921c84e1eba9ff2494a8d3899",
        "m1e7809e1aa947439cb7829dc273981b",
        "med831102b0844c99f21c3cca987f9ef",
        "m2a8aae48cca4a678e3ea177c824db6d",
        "m95d016bb63249fc91c7a8d430be93fb",
        "m3ebb326cfe84575a18474278c471ae2",
        "m74ddfbc089b41b696e29617d7b21200",
        "ma4b0685e4ff4468b5dd391d01bc3878",
        "m5114f1267cb415eab9e93c731f2017a",
        "m587aeed096a47cd871e0ef777d7cdee",
        "m5d0a4fa556b4dd6a15f2de86076f0ba",
        "me64d14090b945598ed861066fc49f30",
        "m3fda298e80d4c80ba06db89d2224e60",
        "md1c96a419ef4da2ba9e7c5a30018f62",
        "mc9f22c91f52489d9b843c0e17c7dd36",
        "mcc6ff2b3dac4abb8fedbaa8191a6a38",
        "m8150f9064dc4c5eb2f1cbe3a6f3da60",
        "m46b66738bcc4a97bfaaed8694f81a16",
        "m0f34eeb7df64294bbc3c8c67ee77a4a",
        "m06a81e9025f4c229f3d1e2c144aba78",
        "m3831aa14f304c83a2dbc44769933ba7",
        "ma0585a690674ea8a95a980241d01c6a",
        "m26bc688aab5487eaf7caf5c8651100d",
        "ma054835df4f475e866d4324aa216f1f",
        "m56e6438d4c84d06ac336e131c42b3ef",
        "m8cc4c9d1e9f46ad8fe93c39a95cbcd8",
        "m27ca980caa64d88bdabfaf2c772225d"
    ],
    "children": [
        "lblMore",
        "btnMore"
    ],
    "clipbounds": true,
    "containerweight": 100,
    "enablescrolling": true,
    "id": "flxMore",
    "info": null,
    "isvisible": true,
    "kuid": "md0bb6b8361241e0abe3f31d189fdaec",
    "layouttype": 2,
    "name": "kony.ui.FlexContainer",
    "parent": "flxFooterWrap",
    "pf": "masterFooter",
    "snapgridsize": 10,
    "snaptogrid": true,
    "wType": "FlexContainer",
    "widgetalignment": 1,
    "zindex": 1
}