{
    "__parentReadjusting__": false,
    "_padding_": [
        0,
        0,
        0,
        0
    ],
    "_skin_": "sce95ae6278b4b8bba5cb3b931bf822f",
    "_srcKuid_": "de9d4551f0cf497ba6a4f36916263251",
    "areflexpropsreferenced": true,
    "canUpdateUI": true,
    "context": {},
    "dataDiffs": {
        "id": "btnSignUp"
    },
    "id": "btnSignUp",
    "instanceOf": "de9d4551f0cf497ba6a4f36916263251",
    "isdatareferenced": true,
    "isvisible": true,
    "kuid": "med723ed497a43df8e6592b9834e5eb9",
    "masterInstance": true,
    "name": "kony.ui.Button",
    "parent": "flxNotUser",
    "pf": "frmFindStoreMapView",
    "topLevelInstanceKUID": "mfb035be53f347e9bd53e528719addeb",
    "wType": "Button"
}