{
    "__parentReadjusting__": false,
    "_padding_": [
        0,
        0,
        0,
        0
    ],
    "_skin_": "sb1507d0a0254310b90f066d847fec2e",
    "_srcKuid_": "3c4d0073184b42979a773cf82dc6ed69",
    "areflexpropsreferenced": true,
    "canUpdateUI": true,
    "children": [],
    "context": {},
    "dataDiffs": {
        "id": "flxSeparatorLine"
    },
    "id": "flxSeparatorLine",
    "instanceOf": "3c4d0073184b42979a773cf82dc6ed69",
    "isdatareferenced": true,
    "isvisible": true,
    "kuid": "m983a337d52b421195b737b57378db96",
    "masterInstance": true,
    "name": "kony.ui.FlexContainer",
    "parent": "flxCouponHeader",
    "pf": "frmFindStoreMapView",
    "topLevelInstanceKUID": "mfb035be53f347e9bd53e528719addeb",
    "wType": "FlexContainer"
}