{
    "DNDConfig": null,
    "__parentReadjusting__": false,
    "_height_": {
        "type": "string",
        "value": "185dp"
    },
    "_left_": {
        "type": "string",
        "value": "10dp"
    },
    "_margin_": [
        0,
        0,
        0,
        0
    ],
    "_orientation_": 6,
    "_padding_": [
        0,
        0,
        0,
        0
    ],
    "_percent_": true,
    "_right_": {
        "type": "string",
        "value": "10dp"
    },
    "_skin_": "sae51009ab6346aaa104d6f81de07e2f",
    "_top_": {
        "type": "string",
        "value": "10dp"
    },
    "allboxes": [],
    "allowhorizontalbounce": false,
    "allowverticalbounce": false,
    "bounces": false,
    "canUpdateUI": true,
    "children": [
        "imgProjectMarket",
        "CopyImgProjectMarket0e650333f8c5348",
        "CopyImgProjectMarket0cdbb64ba10224d"
    ],
    "clipbounds": true,
    "containerweight": 100,
    "decelerat": false,
    "dragg": false,
    "enablescrolling": true,
    "horizontalscrollindicator": false,
    "id": "flxContainer",
    "info": null,
    "isvisible": true,
    "kuid": "07dbadf56a764facb7ecc3d2670e0f68",
    "layouttype": 3,
    "name": "kony.ui.FlexScrollContainer",
    "pagingenabled": true,
    "parent": "flxContainerMarketing",
    "pf": "frmProjects",
    "scrolldirection": 1,
    "snapgridsize": 10,
    "snaptogrid": true,
    "track": false,
    "verticalscrollindicator": false,
    "wType": "FlexScrollContainer",
    "widgetalignment": 1,
    "zindex": 1
}