{
    "DNDConfig": null,
    "__parentReadjusting__": false,
    "_height_": {
        "type": "string",
        "value": "50dp"
    },
    "_left_": {
        "type": "string",
        "value": "0%"
    },
    "_margin_": [
        0,
        0,
        0,
        0
    ],
    "_orientation_": 6,
    "_padding_": [
        0,
        0,
        0,
        0
    ],
    "_percent_": true,
    "_skin_": "s941cd8d6ec448169b01f2096fa380ad",
    "_top_": {
        "type": "string",
        "value": "0%"
    },
    "_width_": {
        "type": "string",
        "value": "100%"
    },
    "allboxes": [],
    "autogrowmode": 0,
    "canUpdateUI": true,
    "childInstances": [
        "m24ee6561caf4eb2b9be1e168ae165ce",
        "mb0e34acfaa24704ad30d3f4b8b6ab86",
        "m341da3d7fd842be86857d4f97bb4d41",
        "m979686f042e42bfb3c1e1313e8125dd",
        "mcf9923d48214147b7d74a1a62b504ac",
        "mb240686d68147baa6c0efceae55408a",
        "m474be9c55af4bc2aefed2197a07fd16",
        "mb9893e5735340b4ba7a142e9207f721",
        "m1271db0067447ab8daf36a295157e5f",
        "m08e2bc5e8154f5aa8b2bed71d0809aa",
        "maaf0dfd7de845eebde5e93c49a5f5ab",
        "mb063fd777ff4f5f86c5f3776e594b6a",
        "m8fab5d84e1a4f4390eb42b377843603",
        "m2c727fd8be5469ba0c0051b9e405997",
        "m9ccf84895314b289864cce46345ec6f",
        "m8f125da4e1a47fb9167e4baadcca374"
    ],
    "children": [
        "flexBack"
    ],
    "clipbounds": true,
    "containerweight": 100,
    "enablescrolling": true,
    "id": "flxContainerRed",
    "info": null,
    "isvisible": true,
    "kuid": "d4ddfc637cd4487d96248669912f5aaf",
    "layouttype": 2,
    "name": "kony.ui.FlexContainer",
    "parent": "flxMicPanel",
    "pf": "masterVoiceSearch",
    "snapgridsize": 10,
    "snaptogrid": true,
    "wType": "FlexContainer",
    "widgetalignment": 1,
    "zindex": 1
}