{
    "@class": "com.kony.gen.viz.model.component.KVizLabel",
    "DNDConfig": null,
    "__parentReadjusting__": false,
    "_height_": {
        "type": "ref",
        "value": "preferred"
    },
    "_margin_": [
        1,
        1,
        1,
        1
    ],
    "_padding_": [
        0,
        0,
        0,
        0
    ],
    "_skin_": "s75c3541e0e54da89019a1220eba9370",
    "_text_": "Say something like...",
    "_top_": {
        "type": "string",
        "value": "10dp"
    },
    "_width_": {
        "type": "string",
        "value": "80%"
    },
    "_wrapping_": 2,
    "android": {
        "textStyle": {
            "letterSpacing": 0,
            "strikeThrough": false
        }
    },
    "canUpdateUI": true,
    "centerx": {
        "type": "string",
        "value": "50%"
    },
    "childInstances": [
        "mfbc7e8aacc14cfa8685c5d647ee94ee",
        "m14d00a9fef24b06b3d1fd591175b111",
        "m0aef0911d23411b87c7cc13075b16c6",
        "m4a46877098d44afb3acf76eeda911e7",
        "ma08a24f168f4f70b6d00b6eead8b1f6",
        "m8f60893a4704ecd97ea74a68a2d8875",
        "m65b0c77ecd443aaabf7bfc0255d7a56",
        "m20936c909f344e69c260d25a18878f7",
        "m626a8a4ad0c4ddc84c974b8700c83f6",
        "m392ded7c777400981226fac0a08b386",
        "mc4e4381751348faa09ef76c8cb9f845",
        "m60a687f546a4c268f5f38695ca8877b",
        "ma4aa5c175574ac382ff54e41b2be2ce",
        "m3626d7b86944218ada0df87ef8a6da3",
        "m0e9fa14c54c4f91ba5e78ad0b788f78",
        "m11eed823b0a4c3caf8d5bf7c963a335"
    ],
    "containerweight": 100,
    "contentalignment": 5,
    "id": "lblSomething",
    "info": null,
    "iphone": {
        "psp": {
            "wrapping": 2
        }
    },
    "isvisible": true,
    "kuid": "15e372a7ddb749d4b14d7a7f721dec6f",
    "name": "kony.ui.Label",
    "parent": "flxMicPanelContent",
    "pf": "masterVoiceSearch",
    "tooltip": "",
    "wType": "Label",
    "zindex": 1
}