{
    "@class": "com.kony.gen.viz.model.component.KVizLabel",
    "DNDConfig": null,
    "__parentReadjusting__": false,
    "_height_": {
        "type": "ref",
        "value": "preferred"
    },
    "_left_": {
        "type": "string",
        "value": "9%"
    },
    "_margin_": [
        1,
        1,
        1,
        1
    ],
    "_padding_": [
        0,
        0,
        0,
        0
    ],
    "_skin_": "sf6d137436284058a48358a2836e540d",
    "_text_": "\"Show me oil paints\"",
    "_top_": {
        "type": "string",
        "value": "20%"
    },
    "_width_": {
        "type": "string",
        "value": "94%"
    },
    "_wrapping_": 2,
    "android": {
        "textStyle": {
            "letterSpacing": 0,
            "strikeThrough": false
        }
    },
    "canUpdateUI": true,
    "centerx": {
        "type": "string",
        "value": "50%"
    },
    "childInstances": [
        "mfe5ba035e7144249e01384fd2012a8a",
        "m7138986085c4b9695f6b75b5ce861aa",
        "m9762790bd1d43ac84d1d4eb31874f4e",
        "m6f1d26d578e46878fd276abb17cc884",
        "m02dcbbb10db4ac397ce892563a86e0f",
        "m974cb9ce3084e84a77573484da07e3a",
        "m2465adebae944eb84084e852293e063",
        "m64807c3d25d4097884dbaf55e2d93c1",
        "m7aa24abfa164064ab09d903827930e2",
        "m3e6de56d1b1492baafdcad485d29939",
        "mcf3f7f13e66416c84f85d2416207b7d",
        "me645ac1f6cd430fa2116c557cc531fa",
        "m29506ea276d42f0a452732cc218aeae",
        "m4a3711640b3466d9375d8674b53eb69",
        "m901c7c2afe746da961140cc4ed79359",
        "m07245a875bb4494a3f3fb3ffa76aab8"
    ],
    "containerweight": 100,
    "contentalignment": 5,
    "id": "lblUtterence1",
    "info": null,
    "iphone": {
        "psp": {
            "wrapping": 2
        }
    },
    "isvisible": true,
    "kuid": "c59a9ce0eab644cba6176d58d4330a69",
    "name": "kony.ui.Label",
    "parent": "flxSampleUtterances",
    "pf": "masterVoiceSearch",
    "tooltip": "",
    "wType": "Label",
    "zindex": 1
}