{
    "active": 1,
    "comments": {},
    "requirements": {
        "9f872a090d784c55a2b4fe75f97ba9ad": {
            "51ba-73e7-40b3-3330-663f-0261": {
                "createdById": "",
                "createdBy": "Anonymous",
                "createdByEmail": "",
                "label": "1",
                "createdOn": "1486415377903",
                "lastModifiedTime": 1486415377903,
                "active": 0,
                "widgetId": "9f872a090d784c55a2b4fe75f97ba9ad",
                "formId": "d61f724e103144129f53d10dd262de7f",
                "channel": "mobile",
                "requirementId": "51ba-73e7-40b3-3330-663f-0261",
                "body": "<p>Buy Online button is hidden. Please check.<br></p>"
            }
        },
        "6e1100dfa1934271b9e162a9efa27406": {
            "ea66-eb27-1153-3196-0ab3-6a9b": {
                "createdById": "",
                "createdBy": "Anonymous",
                "createdByEmail": "",
                "label": "2",
                "createdOn": "1486415378495",
                "lastModifiedTime": 1486415378495,
                "active": 0,
                "widgetId": "6e1100dfa1934271b9e162a9efa27406",
                "formId": "d61f724e103144129f53d10dd262de7f",
                "channel": "mobile",
                "requirementId": "ea66-eb27-1153-3196-0ab3-6a9b",
                "body": "<p>For Red font use :&nbsp;sknLblGothamMedium20pxDark</p>"
            }
        },
        "bace713227794e7d8622099ae4311eb1": {
            "13ab-256f-41ef-8cab-58fa-9a70": {
                "createdById": "",
                "createdBy": "Anonymous",
                "createdByEmail": "",
                "label": "3",
                "createdOn": "1486415379150",
                "lastModifiedTime": 1486415379150,
                "active": 0,
                "widgetId": "bace713227794e7d8622099ae4311eb1",
                "formId": "d61f724e103144129f53d10dd262de7f",
                "channel": "mobile",
                "requirementId": "13ab-256f-41ef-8cab-58fa-9a70",
                "body": "<p>Buy Online button is hidden. Please check.<br></p>"
            }
        },
        "f1170ec9cf5440c1a293ed9e0f1bcf18": {
            "362f-ddd3-d2fb-f196-fbc4-f716": {
                "createdById": "",
                "createdBy": "Anonymous",
                "createdByEmail": "",
                "label": "4",
                "createdOn": "1486415379732",
                "lastModifiedTime": 1486415379732,
                "active": 0,
                "widgetId": "f1170ec9cf5440c1a293ed9e0f1bcf18",
                "formId": "d61f724e103144129f53d10dd262de7f",
                "channel": "mobile",
                "requirementId": "362f-ddd3-d2fb-f196-fbc4-f716",
                "body": "<p>For Red font use :&nbsp;sknLblGothamMedium20pxDark</p>"
            }
        },
        "4763329a839c47f08044f1cc2fcfcbfc": {
            "ead6-0597-98eb-f83b-46a4-caa9": {
                "createdById": "",
                "createdBy": "Anonymous",
                "createdByEmail": "",
                "label": "5",
                "createdOn": "1486416101686",
                "lastModifiedTime": 1486416101686,
                "active": 0,
                "widgetId": "4763329a839c47f08044f1cc2fcfcbfc",
                "formId": "d61f724e103144129f53d10dd262de7f",
                "channel": "mobile",
                "requirementId": "ead6-0597-98eb-f83b-46a4-caa9",
                "body": "<p>Buy Online button is hidden. Please check.<br></p>"
            }
        }
    },
    "requirementSeqId": 5
}