{
    "__parentReadjusting__": false,
    "_padding_": [
        0,
        0,
        0,
        0
    ],
    "_skin_": "s241e7b91de34db8970aa5b6135b6bad",
    "_srcKuid_": "8f7ead9197364ebeb5b693934be30c92",
    "canUpdateUI": true,
    "children": [
        "flxMicPanelContent",
        "flxContainerRed",
        "lblVoiceSearchHeading"
    ],
    "context": {},
    "dataDiffs": {
        "clipBounds": true,
        "enableScrolling": true,
        "height": {
            "type": "string",
            "value": "100%"
        },
        "id": "flxMicPanel",
        "layoutType": 2,
        "left": {
            "type": "string",
            "value": "0dp"
        },
        "snapGridSize": 10,
        "snapToGrid": true,
        "top": {
            "type": "string",
            "value": "0dp"
        },
        "width": {
            "type": "string",
            "value": "100%"
        },
        "zIndex": 20
    },
    "id": "flxMicPanel",
    "instanceOf": "8f7ead9197364ebeb5b693934be30c92",
    "isvisible": true,
    "kuid": "m0a2dd92a9e94e44bf835d213a934e24",
    "layouttype": 2,
    "masterInstance": true,
    "name": "kony.ui.FlexContainer",
    "parent": "flxVoiceSearch",
    "pf": "frmProjectsCategory",
    "topLevelInstanceKUID": "mea15d79c23e42bbaf331071f2b0e505",
    "wType": "FlexContainer"
}