{
    "__parentReadjusting__": false,
    "_padding_": [
        0,
        0,
        0,
        0
    ],
    "_skin_": "sb1971f0a0774fbda5ff14589c5df551",
    "_srcKuid_": "e0162b38159f4a2885d4e7e9cf90b681",
    "canUpdateUI": true,
    "context": {},
    "dataDiffs": {
        "centerX": {
            "type": "string",
            "value": "50%"
        },
        "centerY": {
            "type": "string",
            "value": "64%"
        },
        "height": {
            "type": "string",
            "value": "70dp"
        },
        "id": "imgMicStatus",
        "imageScaleMode": 1,
        "src": "microphone_btn.png",
        "top": {
            "type": "string",
            "value": "209dp"
        },
        "width": {
            "type": "string",
            "value": "70dp"
        },
        "zIndex": 1
    },
    "id": "imgMicStatus",
    "instanceOf": "e0162b38159f4a2885d4e7e9cf90b681",
    "isvisible": true,
    "kuid": "m1543adafeec4281a6862a06cb8e1422",
    "masterInstance": true,
    "name": "kony.ui.Image2",
    "parent": "flxMicPanelContent",
    "pf": "frmProjectsCategory",
    "topLevelInstanceKUID": "mea15d79c23e42bbaf331071f2b0e505",
    "wType": "Image"
}