{
    "__parentReadjusting__": false,
    "_skin_": "s61886db45824820846e292717ca8077",
    "_srcKuid_": "m5c7135747c64b26a5413f7dd943ad38",
    "canUpdateUI": true,
    "children": [
        "lblEvents",
        "btnEvents"
    ],
    "context": {},
    "dataDiffs": {
        "clipBounds": true,
        "enableScrolling": true,
        "height": {
            "type": "string",
            "value": "100%"
        },
        "id": "flxEvents",
        "layoutType": 2,
        "left": {
            "type": "string",
            "value": "0dp"
        },
        "snapGridSize": 10,
        "snapToGrid": true,
        "top": {
            "type": "string",
            "value": "0dp"
        },
        "width": {
            "type": "string",
            "value": "20%"
        },
        "zIndex": 1
    },
    "id": "flxEvents",
    "instanceOf": "m5c7135747c64b26a5413f7dd943ad38",
    "isvisible": true,
    "kuid": "md00757ed37c47ab9621a621f7cc0ac7",
    "layouttype": 2,
    "masterInstance": true,
    "name": "kony.ui.FlexContainer",
    "parent": "flxFooterWrap",
    "pf": "frmProjectsCategory",
    "topLevelInstanceKUID": "m11a9977e05a41a695249866aafafd76",
    "wType": "FlexContainer"
}