{
    "__parentReadjusting__": false,
    "_skin_": "s61886db45824820846e292717ca8077",
    "_srcKuid_": "mb4e79ba09924bdba5ab1fbd3d68e1db",
    "canUpdateUI": true,
    "children": [
        "lblProducts",
        "btnProducts"
    ],
    "context": {},
    "dataDiffs": {
        "clipBounds": true,
        "enableScrolling": true,
        "height": {
            "type": "string",
            "value": "100%"
        },
        "id": "flxProducts",
        "layoutType": 2,
        "left": {
            "type": "string",
            "value": "0dp"
        },
        "snapGridSize": 10,
        "snapToGrid": true,
        "top": {
            "type": "string",
            "value": "0dp"
        },
        "width": {
            "type": "string",
            "value": "20%"
        },
        "zIndex": 1
    },
    "id": "flxProducts",
    "instanceOf": "mb4e79ba09924bdba5ab1fbd3d68e1db",
    "isvisible": true,
    "kuid": "mb039490026a4e2682bd81d57e5d316b",
    "layouttype": 2,
    "masterInstance": true,
    "name": "kony.ui.FlexContainer",
    "parent": "flxFooterWrap",
    "pf": "frmProjectsCategory",
    "topLevelInstanceKUID": "m11a9977e05a41a695249866aafafd76",
    "wType": "FlexContainer"
}