{
    "__parentReadjusting__": false,
    "_padding_": [
        0,
        0,
        0,
        20
    ],
    "_skin_": "s78034944caa468192d0bb4be07545dc",
    "_srcKuid_": "m0564eb9edc54825b70620430234385a",
    "canUpdateUI": true,
    "context": {},
    "dataDiffs": {
        "height": {
            "type": "string",
            "value": "100%"
        },
        "id": "btnWeeklyAd",
        "left": {
            "type": "string",
            "value": "0dp"
        },
        "text": "W",
        "top": {
            "type": "string",
            "value": "0dp"
        },
        "width": {
            "type": "string",
            "value": "100%"
        },
        "zIndex": 1
    },
    "id": "btnWeeklyAd",
    "instanceOf": "m0564eb9edc54825b70620430234385a",
    "isvisible": true,
    "kuid": "mbf857a1fac547a988d5f136d1a36ff4",
    "masterInstance": true,
    "name": "kony.ui.Button",
    "parent": "flxWeeklyAd",
    "pf": "frmPDP",
    "topLevelInstanceKUID": "m18d5b356d9d4dfc81947396b2828e3c",
    "wType": "Button"
}