{
    "__parentReadjusting__": false,
    "_padding_": [
        0,
        0,
        0,
        0
    ],
    "_skin_": "sc95763aaead4250b98834fcdba00ad0",
    "_srcKuid_": "m86c833e3e714364a02ba69887c73b1c",
    "canUpdateUI": true,
    "context": {},
    "dataDiffs": {
        "bottom": {
            "type": "string",
            "value": "5dp"
        },
        "centerX": {
            "type": "string",
            "value": "50%"
        },
        "height": {
            "type": "ref",
            "value": "preferred"
        },
        "i18n_text": "i18n.phone.masterFooter.lblEvents",
        "id": "lblEvents",
        "text": "Events",
        "textStyle": {},
        "width": {
            "type": "string",
            "value": "100%"
        },
        "zIndex": 1
    },
    "id": "lblEvents",
    "instanceOf": "m86c833e3e714364a02ba69887c73b1c",
    "isvisible": true,
    "kuid": "mf8b2267e105474aa85a44aadc4c7a93",
    "masterInstance": true,
    "name": "kony.ui.Label",
    "parent": "flxEvents",
    "pf": "frmPDP",
    "topLevelInstanceKUID": "m18d5b356d9d4dfc81947396b2828e3c",
    "wType": "Label"
}