{
    "background_color": "d30e2cff",
    "bg_type": "one",
    "border_color": "000000ff",
    "border_style": "plain",
    "border_type": 0,
    "border_width": 0,
    "isDefaultSkin": false,
    "kuid": "sd7588b7c91a46c3bce2b735b315a57e",
    "wType": "FlexContainer"
}