{
  "android": {
    "background_color": {
      "angle": 90,
      "colors": [
        "ffffffcc",
        "f5f5f333",
        "f5f5f3f5",
        "f5f5f3ff"
      ],
      "cs": [
        0,
        39,
        68,
        97
      ],
      "gradientType": "toRight",
      "gt": "linear"
    },
    "background_style": "linear",
    "bg_type": "ms_gradient",
    "font_name": "Gotham Medium",
    "font_size": 129,
    "isForked": true
  },
  "background_color": "ffffffe5",
  "bg_type": "one",
  "border_color": "ffffffff",
  "border_style": "plain",
  "border_type": 0,
  "border_width": 0,
  "desktopweb": {
    "background_color": {
      "angle": 90,
      "colors": [
        "ffffffcc",
        "f5f5f333",
        "f5f5f3f5",
        "f5f5f3ff"
      ],
      "cs": [
        0,
        39,
        68,
        97
      ],
      "gradientType": "toRight",
      "gt": "linear"
    },
    "background_style": "linear",
    "bg_type": "ms_gradient",
    "bottom_left_border_color": "ffffffff",
    "bottom_left_border_style": "plain",
    "bottom_left_border_width": 0,
    "bottom_right_border_color": "ffffffff",
    "bottom_right_border_style": "plain",
    "bottom_right_border_width": 0,
    "font_name": "Helvetica",
    "font_size": 129,
    "isForked": true,
    "shadow": {
      "br": 2,
      "color": "000000ff",
      "inner": false,
      "nm": 0,
      "x": 0,
      "y": 2
    },
    "text_shadow": {
      "br": 0,
      "color": "000000ff",
      "x": 0,
      "y": -1
    },
    "top_left_border_color": "ffffffff",
    "top_left_border_style": "plain",
    "top_left_border_width": 0,
    "top_right_border_color": "ffffffff",
    "top_right_border_style": "plain",
    "top_right_border_width": 0
  },
  "fontSizeInPx": false,
  "font_color": "333333ff",
  "font_name": "Helvetica",
  "font_size": 129,
  "font_style": "normal",
  "font_weight": "normal",
  "ipad": {
    "background_color": {
      "angle": 90,
      "colors": [
        "ffffffcc",
        "f5f5f333",
        "f5f5f3f5",
        "f5f5f3ff"
      ],
      "cs": [
        0,
        39,
        68,
        97
      ],
      "gradientType": "toRight",
      "gt": "linear"
    },
    "background_style": "linear",
    "bg_type": "ms_gradient",
    "font_name": "Helvetica",
    "font_size": 129,
    "isForked": true,
    "text_shadow": {
      "br": 0,
      "color": "000000ff",
      "x": 0,
      "y": -1
    }
  },
  "iphone": {
    "background_color": {
      "angle": 90,
      "colors": [
        "ffffffcc",
        "f5f5f333",
        "f5f5f3f5",
        "f5f5f3ff"
      ],
      "cs": [
        0,
        39,
        68,
        97
      ],
      "gradientType": "toRight",
      "gt": "linear"
    },
    "background_style": "linear",
    "bg_type": "ms_gradient",
    "font_name": "Gotham Medium",
    "font_size": 129,
    "isForked": true
  },
  "isDefaultSkin": false,
  "kiosk": {
    "background_color": {
      "angle": 90,
      "colors": [
        "ffffffcc",
        "f5f5f333",
        "f5f5f3f5",
        "f5f5f3ff"
      ],
      "cs": [
        0,
        39,
        68,
        97
      ],
      "gradientType": "toRight",
      "gt": "linear"
    },
    "background_style": "linear",
    "bg_type": "ms_gradient",
    "font_name": "GenericMonospace",
    "font_size": 129,
    "isForked": true
  },
  "kuid": "s15d1c5128d741919916e84f5fd47e54",
  "spaan": {
    "background_color": {
      "angle": 90,
      "colors": [
        "ffffffcc",
        "f5f5f333",
        "f5f5f3f5",
        "f5f5f3ff"
      ],
      "cs": [
        0,
        39,
        68,
        97
      ],
      "gradientType": "toRight",
      "gt": "linear"
    },
    "background_style": "linear",
    "bg_type": "ms_gradient",
    "font_name": "Gotham Medium",
    "font_size": 129,
    "isForked": true
  },
  "spaandroidtablet": {
    "background_color": {
      "angle": 90,
      "colors": [
        "ffffffcc",
        "f5f5f333",
        "f5f5f3f5",
        "f5f5f3ff"
      ],
      "cs": [
        0,
        39,
        68,
        97
      ],
      "gradientType": "toRight",
      "gt": "linear"
    },
    "background_style": "linear",
    "bg_type": "ms_gradient",
    "bottom_left_border_color": "ffffffff",
    "bottom_left_border_style": "plain",
    "bottom_left_border_width": 0,
    "bottom_right_border_color": "ffffffff",
    "bottom_right_border_style": "plain",
    "bottom_right_border_width": 0,
    "font_name": "Helvetica",
    "font_size": 129,
    "isForked": true,
    "shadow": {
      "br": 2,
      "color": "000000ff",
      "inner": false,
      "nm": 0,
      "x": 0,
      "y": 2
    },
    "text_shadow": {
      "br": 0,
      "color": "000000ff",
      "x": 0,
      "y": -1
    },
    "top_left_border_color": "ffffffff",
    "top_left_border_style": "plain",
    "top_left_border_width": 0,
    "top_right_border_color": "ffffffff",
    "top_right_border_style": "plain",
    "top_right_border_width": 0
  },
  "spabb": {
    "background_color": {
      "angle": 90,
      "colors": [
        "ffffffcc",
        "f5f5f333",
        "f5f5f3f5",
        "f5f5f3ff"
      ],
      "cs": [
        0,
        39,
        68,
        97
      ],
      "gradientType": "toRight",
      "gt": "linear"
    },
    "background_style": "linear",
    "bg_type": "ms_gradient",
    "font_name": "Helvetica",
    "font_size": 129,
    "isForked": true
  },
  "spaip": {
    "background_color": {
      "angle": 90,
      "colors": [
        "ffffffcc",
        "f5f5f333",
        "f5f5f3f5",
        "f5f5f3ff"
      ],
      "cs": [
        0,
        39,
        68,
        97
      ],
      "gradientType": "toRight",
      "gt": "linear"
    },
    "background_style": "linear",
    "bg_type": "ms_gradient",
    "font_name": "Gotham Medium",
    "font_size": 129,
    "isForked": true
  },
  "spaipad": {
    "background_color": {
      "angle": 90,
      "colors": [
        "ffffffcc",
        "f5f5f333",
        "f5f5f3f5",
        "f5f5f3ff"
      ],
      "cs": [
        0,
        39,
        68,
        97
      ],
      "gradientType": "toRight",
      "gt": "linear"
    },
    "background_style": "linear",
    "bg_type": "ms_gradient",
    "bottom_left_border_color": "ffffffff",
    "bottom_left_border_style": "plain",
    "bottom_left_border_width": 0,
    "bottom_right_border_color": "ffffffff",
    "bottom_right_border_style": "plain",
    "bottom_right_border_width": 0,
    "font_name": "Helvetica",
    "font_size": 129,
    "isForked": true,
    "shadow": {
      "br": 2,
      "color": "000000ff",
      "inner": false,
      "nm": 0,
      "x": 0,
      "y": 2
    },
    "text_shadow": {
      "br": 0,
      "color": "000000ff",
      "x": 0,
      "y": -1
    },
    "top_left_border_color": "ffffffff",
    "top_left_border_style": "plain",
    "top_left_border_width": 0,
    "top_right_border_color": "ffffffff",
    "top_right_border_style": "plain",
    "top_right_border_width": 0
  },
  "spawindowstablet": {
    "background_color": {
      "angle": 90,
      "colors": [
        "ffffffcc",
        "f5f5f333",
        "f5f5f3f5",
        "f5f5f3ff"
      ],
      "cs": [
        0,
        39,
        68,
        97
      ],
      "gradientType": "toRight",
      "gt": "linear"
    },
    "background_style": "linear",
    "bg_type": "ms_gradient",
    "bottom_left_border_color": "ffffffff",
    "bottom_left_border_style": "plain",
    "bottom_left_border_width": 0,
    "bottom_right_border_color": "ffffffff",
    "bottom_right_border_style": "plain",
    "bottom_right_border_width": 0,
    "font_name": "Helvetica",
    "font_size": 129,
    "isForked": true,
    "shadow": {
      "br": 2,
      "color": "000000ff",
      "inner": false,
      "nm": 0,
      "x": 0,
      "y": 2
    },
    "text_shadow": {
      "br": 0,
      "color": "000000ff",
      "x": 0,
      "y": -1
    },
    "top_left_border_color": "ffffffff",
    "top_left_border_style": "plain",
    "top_left_border_width": 0,
    "top_right_border_color": "ffffffff",
    "top_right_border_style": "plain",
    "top_right_border_width": 0
  },
  "spawinphone8": {
    "background_color": {
      "angle": 90,
      "colors": [
        "ffffffcc",
        "f5f5f333",
        "f5f5f3f5",
        "f5f5f3ff"
      ],
      "cs": [
        0,
        39,
        68,
        97
      ],
      "gradientType": "toRight",
      "gt": "linear"
    },
    "background_style": "linear",
    "bg_type": "ms_gradient",
    "font_name": "Helvetica",
    "font_size": 129,
    "isForked": true
  },
  "tabrcandroid": {
    "background_color": {
      "angle": 90,
      "colors": [
        "ffffffcc",
        "f5f5f333",
        "f5f5f3f5",
        "f5f5f3ff"
      ],
      "cs": [
        0,
        39,
        68,
        97
      ],
      "gradientType": "toRight",
      "gt": "linear"
    },
    "background_style": "linear",
    "bg_type": "ms_gradient",
    "font_name": "Helvetica",
    "font_size": 129,
    "isForked": true,
    "text_shadow": {
      "br": 0,
      "color": "000000ff",
      "x": 0,
      "y": -1
    }
  },
  "wType": "Button",
  "watchos": {
    "font_name": "Helvetica",
    "font_size": 129,
    "isForked": true
  },
  "windows8": {
    "background_color": {
      "angle": 90,
      "colors": [
        "ffffffcc",
        "f5f5f333",
        "f5f5f3f5",
        "f5f5f3ff"
      ],
      "cs": [
        0,
        39,
        68,
        97
      ],
      "gradientType": "toRight",
      "gt": "linear"
    },
    "background_style": "linear",
    "bg_type": "ms_gradient",
    "font_name": "GenericMonospace",
    "font_size": 129,
    "isForked": true
  },
  "winphone8": {
    "background_color": {
      "angle": 90,
      "colors": [
        "ffffffcc",
        "f5f5f333",
        "f5f5f3f5",
        "f5f5f3ff"
      ],
      "cs": [
        0,
        39,
        68,
        97
      ],
      "gradientType": "toRight",
      "gt": "linear"
    },
    "background_style": "linear",
    "bg_type": "ms_gradient",
    "font_name": "GenericMonospace",
    "font_size": 129,
    "isForked": true
  }
}