{
  "background_color": "00000000",
  "bg_type": "one",
  "border_color": "d1d5ddff",
  "border_radius": 2,
  "border_style": "custom",
  "border_type": 0,
  "border_width": 2,
  "isDefaultSkin": false,
  "kuid": "s90c4cd654834c1bb1a0d4211e15ef38",
  "wType": "FlexContainer"
}