{
  "background_color": "51515199",
  "bg_type": "one",
  "border_color": "000000ff",
  "border_style": "plain",
  "border_type": 0,
  "border_width": 0,
  "isDefaultSkin": false,
  "kuid": "s3edc64802d14818ae49e0f04c63cb9d",
  "wType": "FlexContainer"
}