{
  "background_color": "00000033",
  "bg_type": "one",
  "border_color": "000000ff",
  "border_style": "plain",
  "border_type": 0,
  "border_width": 0,
  "isDefaultSkin": false,
  "kuid": "s4e7e36a019946ae9d7576e090d60aa8",
  "wType": "FlexContainer"
}