{
  "background_color": "ffffffff",
  "bg_type": "one",
  "border_color": "000000ff",
  "border_style": "plain",
  "border_type": 0,
  "border_width": 0,
  "isDefaultSkin": false,
  "kuid": "s060da2a8fc94e58b8dcd9995aaf2bc6",
  "wType": "FlexScrollContainer"
}