{
  "background_color": "d30028ff",
  "bg_type": "one",
  "border_color": "000000ff",
  "border_style": "plain",
  "border_type": 0,
  "border_width": 0,
  "isDefaultSkin": false,
  "kuid": "s7aa71b9e2854a35b484865ddb19887a",
  "wType": "FlexContainer"
}