{
  "android": {
    "background_image": "talk_bubble.png",
    "bg_type": "image"
  },
  "background_image": "talk_bubble.png",
  "bg_type": "image",
  "border_color": "000000ff",
  "border_style": "plain",
  "border_type": 0,
  "border_width": 0,
  "iphone": {
    "background_image": "talk_bubble.png",
    "bg_type": "image"
  },
  "isDefaultSkin": false,
  "kuid": "se9d248a497840f18ccfc9c1b49ca97b",
  "wType": "FlexContainer"
}