{
  "background_color": "f7f7f7ff",
  "bg_type": "one",
  "border_color": "000000ff",
  "border_style": "plain",
  "border_type": 0,
  "border_width": 0,
  "font_color": "000000",
  "isDefaultSkin": false,
  "kuid": "sfbb090b0dce4cfa9f5470af202d7dc9",
  "wType": "Segment"
}