{
    "@class": "com.kony.gen.viz.model.component.KVizButton",
    "DNDConfig": null,
    "__parentReadjusting__": false,
    "_height_": {
        "type": "string",
        "value": "100%"
    },
    "_left_": {
        "type": "string",
        "value": "3dp"
    },
    "_margin_": [
        6,
        6,
        6,
        6
    ],
    "_padding_": [
        0,
        0,
        0,
        0
    ],
    "_right_": {
        "type": "string",
        "value": "3dp"
    },
    "_skin_": "s638ba524fa94c38b420cffb3391199d",
    "_text_": "f",
    "_width_": {
        "type": "ref",
        "value": "preferred"
    },
    "canUpdateUI": true,
    "containerweight": 100,
    "contentalignment": 5,
    "displaytext": true,
    "focusskin": "s638ba524fa94c38b420cffb3391199d",
    "id": "btnFavorite",
    "info": null,
    "iphone": {
        "psp": {
            "showProgressIndicator": false
        }
    },
    "isvisible": true,
    "kuid": "fe66028412d140fdbb51aa1da3081e2f",
    "name": "kony.ui.Button",
    "paddinginpixel": false,
    "parent": "flxTapToSelFavStore",
    "pf": "frmRewardsProfileStep4",
    "showprogressindicator": false,
    "wType": "Button",
    "zindex": 1
}