{
    "@class": "com.kony.gen.viz.model.component.KVizLabel",
    "DNDConfig": null,
    "__parentReadjusting__": false,
    "_height_": {
        "type": "string",
        "value": "100%"
    },
    "_left_": {
        "type": "string",
        "value": "0dp"
    },
    "_margin_": [
        1,
        1,
        1,
        1
    ],
    "_padding_": [
        3,
        0,
        3,
        0
    ],
    "_skin_": "s2f1931d6b7c4f5da975354bf722d297",
    "_text_": "Step 4 - Preferred Store",
    "_top_": {
        "type": "string",
        "value": "0dp"
    },
    "_width_": {
        "type": "string",
        "value": "100%"
    },
    "_wrapping_": 2,
    "android": {
        "textStyle": {
            "letterSpacing": 0,
            "strikeThrough": false
        }
    },
    "canUpdateUI": true,
    "containerweight": 100,
    "contentalignment": 4,
    "id": "Label0c5601159c0bb4c",
    "info": null,
    "ipad": {
        "psp": {
            "wrapping": 2
        }
    },
    "iphone": {
        "psp": {
            "wrapping": 2
        }
    },
    "isvisible": true,
    "kuid": "c6bfeda2e1524a0a8caabf6ae6c7c8e2",
    "name": "kony.ui.Label",
    "paddinginpixel": false,
    "parent": "FlexContainer0b4738c7579e24b",
    "pf": "frmRewardsProfileStep4",
    "tooltip": "",
    "wType": "Label",
    "zindex": 1
}