{
    "__parentReadjusting__": false,
    "_padding_": [
        0,
        0,
        0,
        0
    ],
    "_skin_": "s0a9adcff4444d87be96a053a743aa80",
    "_srcKuid_": "d19707b964cb4ce9ad625fe121fe3b9f",
    "areflexpropsreferenced": true,
    "canUpdateUI": true,
    "context": {},
    "dataDiffs": {
        "id": "btnCoupon"
    },
    "id": "btnCoupon",
    "instanceOf": "d19707b964cb4ce9ad625fe121fe3b9f",
    "isdatareferenced": true,
    "isvisible": false,
    "kuid": "m552081f1b4c4697b5edc841442b8307",
    "masterInstance": true,
    "name": "kony.ui.Button",
    "parent": "flxCouponHeader",
    "pf": "frmWeeklyAd",
    "topLevelInstanceKUID": "m3afbcc4332148b78998adbc88af7422",
    "wType": "Button"
}