{
    "__parentReadjusting__": false,
    "_padding_": [
        0,
        0,
        0,
        0
    ],
    "_skin_": "sb930353786a43e0b35e8d9afdbe5c3c",
    "_srcKuid_": "634f194fb2a348638605334cf8c1df79",
    "areflexpropsreferenced": true,
    "canUpdateUI": true,
    "children": [
        "flexInner1",
        "flexInner2"
    ],
    "context": {},
    "dataDiffs": {
        "id": "flexRestrictionsCode"
    },
    "id": "flexRestrictionsCode",
    "instanceOf": "634f194fb2a348638605334cf8c1df79",
    "isdatareferenced": true,
    "isvisible": true,
    "kuid": "mbd0a4137f9e439486061be7c7ddae82",
    "masterInstance": true,
    "name": "kony.ui.FlexContainer",
    "parent": "flxCouponDetailsScroll",
    "pf": "frmWeeklyAd",
    "topLevelInstanceKUID": "m3afbcc4332148b78998adbc88af7422",
    "wType": "FlexContainer"
}