{
    "__parentReadjusting__": false,
    "_padding_": [
        0,
        0,
        0,
        0
    ],
    "_skin_": "s23df4229f114ec4a9cead3747be811c",
    "_srcKuid_": "25641b223020464c977e292bf98e3989",
    "areflexpropsreferenced": true,
    "canUpdateUI": true,
    "context": {},
    "dataDiffs": {
        "id": "lblOfferTitle2Restrictions"
    },
    "id": "lblOfferTitle2Restrictions",
    "instanceOf": "25641b223020464c977e292bf98e3989",
    "isdatareferenced": true,
    "isvisible": true,
    "kuid": "mcfbce35d3cb47e4ba214ad8d14ff08f",
    "masterInstance": true,
    "name": "kony.ui.Label",
    "parent": "flexInner1",
    "pf": "frmWeeklyAd",
    "topLevelInstanceKUID": "m3afbcc4332148b78998adbc88af7422",
    "wType": "Label"
}