{
    "__parentReadjusting__": false,
    "_padding_": [
        0,
        0,
        0,
        0
    ],
    "_skin_": "s4c42f99d6e24dce95800a73173f18c4",
    "_srcKuid_": "86f73f347fb94de79fa1352b651dd14c",
    "areflexpropsreferenced": true,
    "canUpdateUI": true,
    "context": {},
    "dataDiffs": {
        "id": "lblRestrictions"
    },
    "id": "lblRestrictions",
    "instanceOf": "86f73f347fb94de79fa1352b651dd14c",
    "isdatareferenced": true,
    "isvisible": true,
    "kuid": "m6dc7f4596af43f48c9ce464206f5a9b",
    "masterInstance": true,
    "name": "kony.ui.Label",
    "parent": "flxCouponDetailsScroll",
    "pf": "frmWeeklyAd",
    "topLevelInstanceKUID": "m3afbcc4332148b78998adbc88af7422",
    "wType": "Label"
}