{
    "__parentReadjusting__": false,
    "_skin_": "s01620b9784a48e0952ac25f1f2ded3f",
    "_srcKuid_": "11f17803725d4e6983d3d64160ebe2e5",
    "canUpdateUI": true,
    "context": {},
    "dataDiffs": {
        "centerX": {
            "type": "string",
            "value": "50%"
        },
        "height": {
            "type": "ref",
            "value": "preferred"
        },
        "id": "lblBarCode",
        "text": "Bar Code",
        "textStyle": {
            "letterSpacing": 0,
            "strikeThrough": false
        },
        "top": {
            "type": "string",
            "value": "67%"
        },
        "width": {
            "type": "string",
            "value": "100%"
        },
        "zIndex": 1
    },
    "id": "lblBarCode",
    "instanceOf": "11f17803725d4e6983d3d64160ebe2e5",
    "isvisible": true,
    "kuid": "m1f784cc07774779882a9e85bae6ed6a",
    "masterInstance": true,
    "name": "kony.ui.Label",
    "parent": "flxBarCode",
    "pf": "frmProjectsCategory",
    "topLevelInstanceKUID": "m23b065825b249d88f4068cb10186eb9",
    "wType": "Label"
}