{
    "__parentReadjusting__": false,
    "_padding_": [
        0,
        0,
        0,
        20
    ],
    "_skin_": "s78034944caa468192d0bb4be07545dc",
    "_srcKuid_": "mc8417a690f840799d1bd30edfc6a1ae",
    "canUpdateUI": true,
    "context": {},
    "dataDiffs": {
        "height": {
            "type": "string",
            "value": "100%"
        },
        "id": "btnMore",
        "left": {
            "type": "string",
            "value": "0dp"
        },
        "text": "G",
        "top": {
            "type": "string",
            "value": "0dp"
        },
        "width": {
            "type": "string",
            "value": "100%"
        },
        "zIndex": 1
    },
    "id": "btnMore",
    "instanceOf": "mc8417a690f840799d1bd30edfc6a1ae",
    "isvisible": true,
    "kuid": "mfee1914e8664f818dfd1de4d77773c9",
    "masterInstance": true,
    "name": "kony.ui.Button",
    "parent": "flxMore",
    "pf": "frmCreateAccount",
    "topLevelInstanceKUID": "m32d49962e3a4edebc3bcd2d1d84d92b",
    "wType": "Button"
}