{
    "_skin_": "sc95763aaead4250b98834fcdba00ad0",
    "_srcKuid_": "m31aeb3943994f508d77d721a10f70e6",
    "canUpdateUI": true,
    "context": {},
    "dataDiffs": {
        "bottom": {
            "type": "string",
            "value": "5dp"
        },
        "centerX": {
            "type": "string",
            "value": "50%"
        },
        "height": {
            "type": "ref",
            "value": "preferred"
        },
        "i18n_text": "i18n.phone.masterFooter.lblMyLists",
        "id": "lblMyLists",
        "text": "",
        "textStyle": {},
        "width": {
            "type": "string",
            "value": "100%"
        },
        "zIndex": 1
    },
    "id": "lblMyLists",
    "instanceOf": "m31aeb3943994f508d77d721a10f70e6",
    "isvisible": true,
    "kuid": "m0d85d5de30544b49bcff76ae5d47f5f",
    "masterInstance": true,
    "name": "kony.ui.Label",
    "parent": "flxMyLists",
    "pf": "frmCreateAccount",
    "topLevelInstanceKUID": "m32d49962e3a4edebc3bcd2d1d84d92b",
    "wType": "Label"
}