{
    "__parentReadjusting__": false,
    "_padding_": [
        0,
        0,
        0,
        0
    ],
    "_skin_": "sc95763aaead4250b98834fcdba00ad0",
    "_srcKuid_": "mc249d28e6524b6a9d2e1be515d0dca4",
    "canUpdateUI": true,
    "context": {},
    "dataDiffs": {
        "bottom": {
            "type": "string",
            "value": "5dp"
        },
        "centerX": {
            "type": "string",
            "value": "50%"
        },
        "height": {
            "type": "ref",
            "value": "preferred"
        },
        "i18n_text": "i18n.phone.Common.btnStoreMap",
        "id": "lblStoreMap",
        "text": "Store Map",
        "textStyle": {},
        "width": {
            "type": "string",
            "value": "100%"
        },
        "zIndex": 1
    },
    "id": "lblStoreMap",
    "instanceOf": "mc249d28e6524b6a9d2e1be515d0dca4",
    "isvisible": true,
    "kuid": "m69547a31bd74af3a8c7ab1e80559cee",
    "masterInstance": true,
    "name": "kony.ui.Label",
    "parent": "flxStoreMap",
    "pf": "frmCreateAccount",
    "topLevelInstanceKUID": "m32d49962e3a4edebc3bcd2d1d84d92b",
    "wType": "Label"
}