{
    "__parentReadjusting__": false,
    "_padding_": [
        0,
        0,
        0,
        0
    ],
    "_skin_": "s241e7b91de34db8970aa5b6135b6bad",
    "_srcKuid_": "8f7ead9197364ebeb5b693934be30c92",
    "canUpdateUI": true,
    "children": [
        "flxMicPanelContent",
        "flxContainerRed",
        "lblVoiceSearchHeading"
    ],
    "context": {},
    "dataDiffs": {
        "clipBounds": true,
        "enableScrolling": true,
        "height": {
            "type": "string",
            "value": "100%"
        },
        "id": "flxMicPanel",
        "layoutType": 2,
        "left": {
            "type": "string",
            "value": "0dp"
        },
        "snapGridSize": 10,
        "snapToGrid": true,
        "top": {
            "type": "string",
            "value": "0dp"
        },
        "width": {
            "type": "string",
            "value": "100%"
        },
        "zIndex": 20
    },
    "id": "flxMicPanel",
    "instanceOf": "8f7ead9197364ebeb5b693934be30c92",
    "isvisible": true,
    "kuid": "m4d36206c3a34422a637af914aebcc4b",
    "layouttype": 2,
    "masterInstance": true,
    "name": "kony.ui.FlexContainer",
    "parent": "flxVoiceSearch",
    "pf": "frmMore",
    "topLevelInstanceKUID": "m563595e83a44b069e6ac69c1019c303",
    "wType": "FlexContainer"
}