{
    "__parentReadjusting__": false,
    "_padding_": [
        0,
        0,
        0,
        0
    ],
    "_skin_": "se9d248a497840f18ccfc9c1b49ca97b",
    "_srcKuid_": "4b61104601654e6bae444417e408c556",
    "canUpdateUI": true,
    "children": [
        "lblUtterence1",
        "lblUtterenace2",
        "lblUtterance3"
    ],
    "context": {},
    "dataDiffs": {
        "centerX": {
            "type": "string",
            "value": "50%"
        },
        "clipBounds": true,
        "enableScrolling": true,
        "height": {
            "type": "string",
            "value": "132dp"
        },
        "id": "flxSampleUtterances",
        "layoutType": 2,
        "snapGridSize": 10,
        "snapToGrid": true,
        "top": {
            "type": "string",
            "value": "60dp"
        },
        "width": {
            "type": "string",
            "value": "220dp"
        }
    },
    "id": "flxSampleUtterances",
    "instanceOf": "4b61104601654e6bae444417e408c556",
    "isvisible": true,
    "kuid": "m64cd147d2114bdb9ba61ac78434194c",
    "layouttype": 2,
    "masterInstance": true,
    "name": "kony.ui.FlexContainer",
    "parent": "flxMicPanelContent",
    "pf": "frmMore",
    "topLevelInstanceKUID": "m563595e83a44b069e6ac69c1019c303",
    "wType": "FlexContainer"
}