{
    "__parentReadjusting__": false,
    "_padding_": [
        0,
        0,
        0,
        0
    ],
    "_skin_": "s51e9312892845d9ac8e8a5f9c0bb37f",
    "_srcKuid_": "6ea2728ea1734fcd985d1356a4759743",
    "_width_": {
        "type": "string",
        "value": "45dp"
    },
    "areflexpropsreferenced": true,
    "canUpdateUI": true,
    "context": {},
    "dataDiffs": {
        "id": "btnPopupClose"
    },
    "id": "btnPopupClose",
    "instanceOf": "6ea2728ea1734fcd985d1356a4759743",
    "isdatareferenced": true,
    "isvisible": true,
    "kuid": "m74dcaad2e994cc0b94eb7815ac93ba9",
    "masterInstance": true,
    "name": "kony.ui.Button",
    "parent": "flxCloseBtnWrap",
    "pf": "frmProducts",
    "topLevelInstanceKUID": "m2478b9e12454b789f7bd7da548bbefa",
    "wType": "Button"
}