{
    "__parentReadjusting__": false,
    "_padding_": [
        0,
        0,
        0,
        0
    ],
    "_skin_": "s19301cb89bd4ae9a917cdc3b37ebc9c",
    "_srcKuid_": "704b48252b4d4405b294cef1ec3bca10",
    "areflexpropsreferenced": true,
    "canUpdateUI": true,
    "children": [
        "flxCouponRewards",
        "scroll"
    ],
    "context": {},
    "dataDiffs": {
        "id": "flxCouponContents"
    },
    "id": "flxCouponContents",
    "instanceOf": "704b48252b4d4405b294cef1ec3bca10",
    "isdatareferenced": true,
    "isvisible": true,
    "kuid": "mfaa9d01dc8743fb9f72450542408043",
    "masterInstance": true,
    "name": "kony.ui.FlexScrollContainer",
    "parent": "flexCouponContainer",
    "pf": "frmProducts",
    "topLevelInstanceKUID": "m2478b9e12454b789f7bd7da548bbefa",
    "wType": "FlexScrollContainer"
}