{
    "__parentReadjusting__": false,
    "_padding_": [
        0,
        0,
        0,
        0
    ],
    "_skin_": "s61886db45824820846e292717ca8077",
    "_srcKuid_": "f482e402d5b548488dcd4790ba730360",
    "areflexpropsreferenced": true,
    "canUpdateUI": true,
    "children": [
        "btnSignUp",
        "btnSignIn"
    ],
    "context": {},
    "dataDiffs": {
        "id": "flxNotUser"
    },
    "id": "flxNotUser",
    "instanceOf": "f482e402d5b548488dcd4790ba730360",
    "isdatareferenced": true,
    "isvisible": true,
    "kuid": "m0dde02e867b443db440e9c24d21836a",
    "masterInstance": true,
    "name": "kony.ui.FlexContainer",
    "parent": "flxCouponRewards",
    "pf": "frmProducts",
    "topLevelInstanceKUID": "m2478b9e12454b789f7bd7da548bbefa",
    "wType": "FlexContainer"
}