{
    "@class": "com.kony.gen.viz.model.component.KVizButton",
    "DNDConfig": null,
    "__parentReadjusting__": false,
    "_height_": {
        "type": "string",
        "value": "100%"
    },
    "_margin_": [
        6,
        6,
        6,
        6
    ],
    "_padding_": [
        0,
        0,
        0,
        0
    ],
    "_right_": {
        "type": "string",
        "value": "-0.07%"
    },
    "_skin_": "s01d696e5cee4b20b790e22bfe4a86be",
    "_text_": "",
    "_top_": {
        "type": "string",
        "value": "0dp"
    },
    "_width_": {
        "type": "string",
        "value": "60dp"
    },
    "canUpdateUI": true,
    "containerweight": 100,
    "contentalignment": 5,
    "displaytext": true,
    "focusskin": "sba2d32cf4284133826e3f1d01205c2f",
    "id": "btnCart",
    "info": null,
    "iphone": {
        "psp": {
            "showProgressIndicator": false
        }
    },
    "iscustomlayout": false,
    "isvisible": true,
    "kuid": "h981e9b32ed2405f83aaa221d27a14b5",
    "name": "kony.ui.Button",
    "parent": "flxHeaderTitleContainer",
    "pf": "frmCartView",
    "retaincontentalignment": false,
    "retainflexpositionproperties": false,
    "showprogressindicator": false,
    "wType": "Button",
    "zindex": 1
}