{
    "@class": "com.kony.gen.viz.model.container.KVizSegment2",
    "DNDConfig": null,
    "__parentReadjusting__": false,
    "_data_": [
        {
            "Label0a61c395176a840": {
                "@class": "com.viz.ide.model.segment.SimpleTextSegmentData",
                "text": "EXCLUSIVE"
            },
            "imgLogo": {
                "@class": "com.viz.ide.model.segment.ImageSegmentData",
                "src": "ic_couponrewards.png"
            },
            "lblBody": {
                "@class": "com.viz.ide.model.segment.SimpleTextSegmentData",
                "text": "We’ll deliver members-only offers straight to your inbox. Save on the décor and DIYs you love most!"
            },
            "lblHeader": {
                "@class": "com.viz.ide.model.segment.SimpleTextSegmentData",
                "text": "OFFERS"
            },
            "rchTxtBody": {
                "@class": "com.viz.ide.model.segment.SimpleTextSegmentData",
                "text": "RichText"
            }
        },
        {
            "Label0a61c395176a840": {
                "@class": "com.viz.ide.model.segment.SimpleTextSegmentData",
                "text": "EXCLUSIVE"
            },
            "imgLogo": {
                "@class": "com.viz.ide.model.segment.ImageSegmentData",
                "src": "ic_couponrewards.png"
            },
            "lblBody": {
                "@class": "com.viz.ide.model.segment.SimpleTextSegmentData",
                "text": "We’ll deliver members-only offers straight to your inbox. Save on the décor and DIYs you love most!"
            },
            "lblHeader": {
                "@class": "com.viz.ide.model.segment.SimpleTextSegmentData",
                "text": "OFFERS"
            },
            "rchTxtBody": {
                "@class": "com.viz.ide.model.segment.SimpleTextSegmentData",
                "text": "RichText"
            }
        },
        {
            "Label0a61c395176a840": {
                "@class": "com.viz.ide.model.segment.SimpleTextSegmentData",
                "text": "EXCLUSIVE"
            },
            "imgLogo": {
                "@class": "com.viz.ide.model.segment.ImageSegmentData",
                "src": "ic_couponrewards.png"
            },
            "lblBody": {
                "@class": "com.viz.ide.model.segment.SimpleTextSegmentData",
                "text": "We’ll deliver members-only offers straight to your inbox. Save on the décor and DIYs you love most!"
            },
            "lblHeader": {
                "@class": "com.viz.ide.model.segment.SimpleTextSegmentData",
                "text": "OFFERS"
            },
            "rchTxtBody": {
                "@class": "com.viz.ide.model.segment.SimpleTextSegmentData",
                "text": "RichText"
            }
        }
    ],
    "_height_": {
        "type": "ref",
        "value": "preferred"
    },
    "_indicator_": "none",
    "_left_": {
        "type": "string",
        "value": "0dp"
    },
    "_margin_": [
        0,
        0,
        0,
        0
    ],
    "_orientation_": 2,
    "_padding_": [
        0,
        0,
        0,
        0
    ],
    "_top_": {
        "type": "string",
        "value": "0dp"
    },
    "_width_": {
        "type": "string",
        "value": "100%"
    },
    "autogrowmode": 1,
    "canUpdateUI": true,
    "containerweight": 100,
    "counter": "02",
    "focusedindex": null,
    "focuseditem": null,
    "groupcells": false,
    "hasSections": false,
    "id": "segRewardsInfo",
    "info": null,
    "ipad": {
        "psp": {
            "indicator": "rowselect"
        }
    },
    "iphone": {
        "psp": {
            "indicator": "none"
        }
    },
    "isvisible": true,
    "kuid": "5c910aa170ec44429f8a5a52b5768ca6",
    "masterdata": {},
    "name": "kony.ui.SegmentedUI2",
    "needpageindicator": true,
    "pageoffdotimage": "pageoffdot.png",
    "pageondotimage": "pageondot.png",
    "paginationconfig": {
        "position": "bottom"
    },
    "parent": "flxMainContainer",
    "pf": "frmRewardsProgramInfo",
    "retainselection": false,
    "rowTemplateId": "b977455243d0465e9ef27e53849c71f4",
    "rowcounter": 2,
    "rowfocusskin": "s9c7743a4a084d9ab39ec87087c33f6b",
    "rowskin": "se55b2acff52430e856354040d7bb8a4",
    "rowtemplate": "flxMainRewardInfo",
    "screenlevelwidget": false,
    "seccounter": 0,
    "sectionheaderskin": "sb336e29646a42b295c4b11c04baf0d7",
    "selectedRows": null,
    "selectedState": false,
    "selectedindex": null,
    "selectedindices": null,
    "selecteditems": null,
    "selectedsectionindex": 0,
    "selectionbehavior": "default",
    "separatorrequired": false,
    "showscrollbars": false,
    "viewtype": "tableview",
    "vizProps": {},
    "wType": "Segment",
    "widgetalignment": 5,
    "widgetdatamap": {
        "FlexContainer06bdc793499af41": "FlexContainer06bdc793499af41",
        "FlexContainer0d609b1d81f1345": "FlexContainer0d609b1d81f1345",
        "FlexContainer0ebaf1a4b1fea49": "FlexContainer0ebaf1a4b1fea49",
        "Label0a61c395176a840": "Label0a61c395176a840",
        "flxMainRewardInfo": "flxMainRewardInfo",
        "imgLogo": "imgLogo",
        "lblBody": "lblBody",
        "lblHeader": "lblHeader",
        "rchTxtBody": "rchTxtBody"
    },
    "zindex": 1
}