{
    "__parentReadjusting__": false,
    "_padding_": [
        0,
        0,
        0,
        0
    ],
    "_skin_": "sb978a5af34e40fab0756c128583e164",
    "_srcKuid_": "44aec5ca67d642178291df96f1797057",
    "canUpdateUI": true,
    "context": {},
    "dataDiffs": {
        "centerX": {
            "type": "string",
            "value": "50%"
        },
        "height": {
            "type": "ref",
            "value": "preferred"
        },
        "id": "lblVoiceSearchHeading",
        "text": "What can we help you find today?",
        "textStyle": {},
        "top": {
            "type": "string",
            "value": "70dp"
        },
        "width": {
            "type": "string",
            "value": "75%"
        },
        "zIndex": 1
    },
    "id": "lblVoiceSearchHeading",
    "instanceOf": "44aec5ca67d642178291df96f1797057",
    "isvisible": true,
    "kuid": "m4c40b64f6e543bcb9f04d06659e3660",
    "masterInstance": true,
    "name": "kony.ui.Label",
    "parent": "flxMicPanel",
    "pf": "frmHome",
    "topLevelInstanceKUID": "m88ce13ca80647e280c547f303997eec",
    "wType": "Label"
}