{
    "__parentReadjusting__": false,
    "_padding_": [
        0,
        0,
        0,
        0
    ],
    "_skin_": "sc95763aaead4250b98834fcdba00ad0",
    "_srcKuid_": "m3667a4d20c84642b53e9f9a1d5cdc5c",
    "canUpdateUI": true,
    "context": {},
    "dataDiffs": {
        "bottom": {
            "type": "string",
            "value": "5dp"
        },
        "centerX": {
            "type": "string",
            "value": "50%"
        },
        "height": {
            "type": "ref",
            "value": "preferred"
        },
        "i18n_text": "i18n.phone.masterFooter.lblMore",
        "id": "lblMore",
        "text": "More",
        "textStyle": {},
        "width": {
            "type": "string",
            "value": "100%"
        },
        "zIndex": 1
    },
    "id": "lblMore",
    "instanceOf": "m3667a4d20c84642b53e9f9a1d5cdc5c",
    "isvisible": true,
    "kuid": "m7b2b57c7b0242eeb7453a1825769496",
    "masterInstance": true,
    "name": "kony.ui.Label",
    "parent": "flxMore",
    "pf": "frmShoppingList",
    "topLevelInstanceKUID": "m5278ed80a8047b2bf4784a6db8dcc29",
    "wType": "Label"
}