{
    "@class": "com.kony.gen.viz.model.component.KVizImage2",
    "DNDConfig": null,
    "__parentReadjusting__": false,
    "_base64_": null,
    "_height_": {
        "type": "string",
        "value": "100%"
    },
    "_left_": {
        "type": "string",
        "value": "0dp"
    },
    "_margin_": [
        0,
        0,
        0,
        0
    ],
    "_padding_": [
        0,
        0,
        0,
        0
    ],
    "_skin_": "sb1971f0a0774fbda5ff14589c5df551",
    "_src_": "imagedrag.png",
    "_top_": {
        "type": "string",
        "value": "0dp"
    },
    "_width_": {
        "type": "string",
        "value": "100%"
    },
    "canUpdateUI": true,
    "containerId": true,
    "containerweight": 100,
    "context": {
        "channel": "mobile",
        "platform": "iphone",
        "templateType": "segments",
        "topLevelBox": null
    },
    "id": "imgProjectMarket",
    "imagescalemode": 0,
    "imagewhenfailed": "notavailable_1012x628.png",
    "imagewhiledownloading": "white_1012x628.png",
    "info": null,
    "invokedProperty": "imageWhenFailed",
    "isvisible": true,
    "kuid": "e0cbd7f8777240cea8c9f341f8f26b91",
    "name": "kony.ui.Image2",
    "parent": "flxProjectMarketWrap",
    "pf": "tempProjectMarket",
    "srcType": 1,
    "wType": "Image",
    "widgetalignment": 5,
    "zindex": 1
}