{
    "DNDConfig": null,
    "__parentReadjusting__": false,
    "_bottom_": {
        "type": "string",
        "value": "0dp"
    },
    "_left_": {
        "type": "string",
        "value": "-100dp"
    },
    "_margin_": [
        0,
        0,
        0,
        0
    ],
    "_orientation_": 6,
    "_padding_": [
        0,
        0,
        0,
        0
    ],
    "_percent_": true,
    "_right_": {
        "type": "string",
        "value": "-100dp"
    },
    "_skin_": "s8bddac6a7874cc18f00cff2d522d0ef",
    "_top_": {
        "type": "string",
        "value": "-100dp"
    },
    "allboxes": [],
    "autogrowmode": 0,
    "canUpdateUI": true,
    "children": [
        "flexBody",
        "flexStatusBar"
    ],
    "clipbounds": true,
    "containerweight": 100,
    "enablescrolling": true,
    "id": "flexImageSearch",
    "info": null,
    "isvisible": true,
    "kuid": "e162f8bdc0994a93a7f56150b4ebebcb",
    "layouttype": 2,
    "name": "kony.ui.FlexContainer",
    "parent": "frmImageSearch",
    "pf": "frmImageSearch",
    "snapgridsize": 10,
    "snaptogrid": true,
    "wType": "FlexContainer",
    "widgetalignment": 1,
    "zindex": 1
}