{
    "DNDConfig": null,
    "__parentReadjusting__": false,
    "_height_": {
        "type": "ref",
        "value": "preferred"
    },
    "_margin_": [
        0,
        0,
        0,
        0
    ],
    "_orientation_": 6,
    "_padding_": [
        0,
        0,
        0,
        0
    ],
    "_percent_": true,
    "_skin_": "sbde5792186f44c58541715d89f79d4e",
    "_width_": {
        "type": "string",
        "value": "70%"
    },
    "allboxes": [],
    "autogrowmode": 1,
    "canUpdateUI": true,
    "centerx": {
        "type": "string",
        "value": "50%"
    },
    "centery": {
        "type": "string",
        "value": "50%"
    },
    "children": [
        "lblErrorMessage",
        "btnTryAgain",
        "cmrTryAgain",
        "btnCancel",
        "lblGap"
    ],
    "clipbounds": true,
    "containerweight": 100,
    "enablescrolling": true,
    "id": "flexMessageContainer",
    "info": null,
    "isvisible": true,
    "kuid": "ad04bd1ca53e49539c588de6d8d10a65",
    "layouttype": 4,
    "name": "kony.ui.FlexContainer",
    "parent": "flexErrorMessage",
    "pf": "frmImageSearch",
    "snapgridsize": 10,
    "snaptogrid": true,
    "wType": "FlexContainer",
    "widgetalignment": 1,
    "zindex": 1
}