{
    "@class": "com.kony.gen.viz.model.component.KVizLabel",
    "DNDConfig": null,
    "__parentReadjusting__": false,
    "_height_": {
        "type": "ref",
        "value": "preferred"
    },
    "_margin_": [
        1,
        1,
        1,
        1
    ],
    "_padding_": [
        0,
        0,
        0,
        0
    ],
    "_skin_": "s13c0b5fa1d14cdca5a82dd056f4ef7c",
    "_text_": "Voice Search",
    "_top_": {
        "type": "string",
        "value": "67%"
    },
    "_width_": {
        "type": "string",
        "value": "100%"
    },
    "_wrapping_": 2,
    "android": {
        "textStyle": {
            "letterSpacing": 0,
            "strikeThrough": false
        }
    },
    "canUpdateUI": true,
    "centerx": {
        "type": "string",
        "value": "50%"
    },
    "childInstances": [],
    "containerweight": 100,
    "contentalignment": 5,
    "id": "lblVoice",
    "info": null,
    "iphone": {
        "psp": {
            "wrapping": 2
        }
    },
    "isvisible": true,
    "kuid": "maf715fac6da4959b54087a8596c6dbd",
    "name": "kony.ui.Label",
    "parent": "flxVoice",
    "pf": "CopymasterSearchOverlay",
    "textstyle": {},
    "tooltip": "",
    "wType": "Label",
    "zindex": 1
}