{
    "_skin_": "sb1971f0a0774fbda5ff14589c5df551",
    "_srcKuid_": "eedf237de4c648f3b12c0b019c67ef97",
    "canUpdateUI": true,
    "context": {},
    "dataDiffs": {
        "centerY": {
            "type": "string",
            "value": "50%"
        },
        "height": {
            "type": "string",
            "value": "36dp"
        },
        "id": "imgCouponIcon",
        "imageScaleMode": 0,
        "right": {
            "type": "string",
            "value": "25.67%"
        },
        "src": "coupon_icon.png",
        "width": {
            "type": "string",
            "value": "36dp"
        },
        "zIndex": 1
    },
    "id": "imgCouponIcon",
    "instanceOf": "eedf237de4c648f3b12c0b019c67ef97",
    "isvisible": true,
    "kuid": "m698e3cc03d24df183621e65e015893c",
    "masterInstance": true,
    "name": "kony.ui.Image2",
    "parent": "flxMyLists",
    "pf": "frmRewardsProgramInfo",
    "topLevelInstanceKUID": "m64c65071b2c4a6586f203517faba879",
    "wType": "Image"
}