{
    "@class": "com.kony.gen.viz.model.component.KVizButton",
    "DNDConfig": null,
    "__parentReadjusting__": false,
    "_height_": {
        "type": "string",
        "value": "20dp"
    },
    "_margin_": [
        6,
        6,
        6,
        6
    ],
    "_padding_": [
        2,
        0,
        0,
        0
    ],
    "_right_": {
        "type": "string",
        "value": "3%"
    },
    "_skin_": "s18c30b292414a44965f715c83a88541",
    "_text_": "",
    "_top_": {
        "type": "string",
        "value": "2%"
    },
    "_width_": {
        "type": "string",
        "value": "20dp"
    },
    "canUpdateUI": true,
    "containerweight": 100,
    "contentalignment": 5,
    "displaytext": true,
    "focusskin": "s18c30b292414a44965f715c83a88541",
    "id": "btnClose",
    "info": null,
    "iphone": {
        "psp": {
            "showProgressIndicator": false
        }
    },
    "isvisible": true,
    "kuid": "7ba87e9f3c6e429b92d2d3d6bc2c8dea",
    "name": "kony.ui.Button",
    "paddinginpixel": false,
    "parent": "flxmaincontainer",
    "pf": "frmPinchandZoom",
    "showprogressindicator": false,
    "wType": "Button",
    "zindex": 1
}