{
    "_skin_": "s13f0108436944fbb4edc3193dce2286",
    "_srcKuid_": "36b165d4bdd84516af9ef03a2316d200",
    "canUpdateUI": true,
    "context": {},
    "dataDiffs": {
        "centerX": {
            "type": "string",
            "value": "44%"
        },
        "centerY": {
            "type": "string",
            "value": "48%"
        },
        "height": {
            "type": "string",
            "value": "19dp"
        },
        "id": "cmrImageSearch",
        "right": {
            "type": "string",
            "value": "11%"
        },
        "text": "",
        "top": {
            "type": "string",
            "value": "9dp"
        },
        "width": {
            "type": "string",
            "value": "23dp"
        },
        "zIndex": 1
    },
    "id": "cmrImageSearch",
    "instanceOf": "36b165d4bdd84516af9ef03a2316d200",
    "isvisible": true,
    "kuid": "m43c6e5e62fa4bc4b8fe019477f1a9e0",
    "masterInstance": true,
    "name": "kony.ui.Camera",
    "parent": "flxCameraContainer",
    "pf": "frmWebView",
    "topLevelInstanceKUID": "m03aef571b144f6484b89057c6612294",
    "wType": "Camera"
}