{
    "__parentReadjusting__": false,
    "_padding_": [
        0,
        0,
        0,
        0
    ],
    "_skin_": "sb1971f0a0774fbda5ff14589c5df551",
    "_srcKuid_": "7416de64ef804886a889d6bd34bfc12b",
    "canUpdateUI": true,
    "context": {},
    "dataDiffs": {
        "centerX": {
            "type": "string",
            "value": "50%"
        },
        "centerY": {
            "type": "string",
            "value": "50%"
        },
        "height": {
            "type": "string",
            "value": "20dp"
        },
        "id": "imageVoiceSearch",
        "imageScaleMode": 1,
        "src": "microphone_icon_home.png",
        "top": {
            "type": "string",
            "value": "0dp"
        },
        "width": {
            "type": "string",
            "value": "25dp"
        },
        "zIndex": 1
    },
    "id": "imageVoiceSearch",
    "instanceOf": "7416de64ef804886a889d6bd34bfc12b",
    "isvisible": true,
    "kuid": "m5624566b2464e90baf005fcbab35771",
    "masterInstance": true,
    "name": "kony.ui.Image2",
    "parent": "flxImageVoiceSearch",
    "pf": "frmWebView",
    "topLevelInstanceKUID": "m03aef571b144f6484b89057c6612294",
    "wType": "Image"
}