{
    "@class": "com.kony.gen.viz.model.component.KVizButton",
    "DNDConfig": null,
    "__parentReadjusting__": false,
    "_height_": {
        "type": "string",
        "value": "100%"
    },
    "_left_": {
        "type": "string",
        "value": "0dp"
    },
    "_margin_": [
        6,
        6,
        6,
        6
    ],
    "_padding_": [
        3,
        0,
        0,
        0
    ],
    "_skin_": "s0b6579a18144b32b0db0dc83c09740d",
    "_text_": "Cancel",
    "_top_": {
        "type": "string",
        "value": "0dp"
    },
    "_width_": {
        "type": "string",
        "value": "30%"
    },
    "canUpdateUI": true,
    "centery": {
        "type": "string",
        "value": "50%"
    },
    "containerweight": 100,
    "contentalignment": 4,
    "displaytext": true,
    "focusskin": "s498abef98fe4f45b636ff6bc2c497bf",
    "id": "btnCancel",
    "info": null,
    "isvisible": true,
    "kuid": "30834a26559f4510908f2d9db107c4d6",
    "name": "kony.ui.Button",
    "paddinginpixel": false,
    "parent": "flxHeaderTitleContainer",
    "pf": "frmSignIn",
    "texti18n": "i18n.phone.common.btnCancel",
    "wType": "Button",
    "zindex": 1
}