{
    "__parentReadjusting__": false,
    "_padding_": [
        0,
        0,
        0,
        0
    ],
    "_skin_": "sb6829d2f458479c8307e8d366f95865",
    "_srcKuid_": "8d1f7385a6a540279c08cbbc74cbde77",
    "canUpdateUI": true,
    "context": {},
    "dataDiffs": {
        "height": {
            "type": "string",
            "value": "100%"
        },
        "id": "btnCameraImageSearch",
        "right": {
            "type": "string",
            "value": "14%"
        },
        "text": "",
        "top": {
            "type": "string",
            "value": "0dp"
        },
        "width": {
            "type": "string",
            "value": "12%"
        },
        "zIndex": 2
    },
    "id": "btnCameraImageSearch",
    "instanceOf": "8d1f7385a6a540279c08cbbc74cbde77",
    "isvisible": false,
    "kuid": "mf7a99cf68a6429d98d5eca54739cb04",
    "masterInstance": true,
    "name": "kony.ui.Button",
    "parent": "flxSearchContents",
    "pf": "frmProjectsCategory",
    "topLevelInstanceKUID": "m8ee9b810e3d43dbb5714062f6325a83",
    "wType": "Button"
}