{
    "__parentReadjusting__": false,
    "_padding_": [
        0,
        0,
        0,
        0
    ],
    "_skin_": "s413ee06a8ec490fad5b6e8516352329",
    "_srcKuid_": "02955666af6c4a29b47753885434649b",
    "areflexpropsreferenced": true,
    "canUpdateUI": true,
    "children": [
        "flxCloseBtnWrap",
        "flexRestrictionsCode",
        "lblRestrictions",
        "rchTxtRetrictions"
    ],
    "context": {},
    "dataDiffs": {
        "id": "flxCouponDetailsScroll"
    },
    "id": "flxCouponDetailsScroll",
    "instanceOf": "02955666af6c4a29b47753885434649b",
    "isdatareferenced": true,
    "isvisible": true,
    "kuid": "m5de7039d98d4f33be2a0a13b3d6d7d9",
    "masterInstance": true,
    "name": "kony.ui.FlexScrollContainer",
    "parent": "flxCouponDetailsPopup",
    "pf": "frmProjects",
    "topLevelInstanceKUID": "m5702b789e424236aa5b86e08ece2174",
    "vizProps": {},
    "wType": "FlexScrollContainer"
}