{
    "__parentReadjusting__": false,
    "_padding_": [
        0,
        0,
        0,
        0
    ],
    "_skin_": "s1246c5398d54b2098984d38ceb23dd1",
    "_srcKuid_": "0d10213c802748b8b0aa91881abfa20c",
    "areflexpropsreferenced": true,
    "canUpdateUI": true,
    "children": [],
    "context": {},
    "dataDiffs": {
        "id": "flxOverlay"
    },
    "id": "flxOverlay",
    "instanceOf": "0d10213c802748b8b0aa91881abfa20c",
    "isdatareferenced": true,
    "isvisible": true,
    "kuid": "mbd42ed85e824f23861348fbaaf80a71",
    "masterInstance": true,
    "name": "kony.ui.FlexContainer",
    "parent": "flexCouponContainer",
    "pf": "frmProjects",
    "topLevelInstanceKUID": "m5702b789e424236aa5b86e08ece2174",
    "wType": "FlexContainer"
}