{
    "__parentReadjusting__": false,
    "_padding_": [
        0,
        0,
        0,
        0
    ],
    "_skin_": "s97663bbb8ed49489429f77954052d3a",
    "_srcKuid_": "d11d44ca50224bca814434001965bd29",
    "areflexpropsreferenced": true,
    "canUpdateUI": true,
    "context": {},
    "dataDiffs": {
        "id": "lblPromoCodeRestrictions"
    },
    "id": "lblPromoCodeRestrictions",
    "instanceOf": "d11d44ca50224bca814434001965bd29",
    "isdatareferenced": true,
    "isvisible": true,
    "kuid": "mb03c7ee2ea843cd9cb68542f836d4b2",
    "masterInstance": true,
    "name": "kony.ui.Label",
    "parent": "flexInner1",
    "pf": "frmProjects",
    "topLevelInstanceKUID": "m5702b789e424236aa5b86e08ece2174",
    "wType": "Label"
}