{
    "__parentReadjusting__": false,
    "_padding_": [
        0,
        0,
        0,
        0
    ],
    "_skin_": "s4c42f99d6e24dce95800a73173f18c4",
    "_srcKuid_": "86f73f347fb94de79fa1352b651dd14c",
    "areflexpropsreferenced": true,
    "canUpdateUI": true,
    "context": {},
    "dataDiffs": {
        "id": "lblRestrictions"
    },
    "id": "lblRestrictions",
    "instanceOf": "86f73f347fb94de79fa1352b651dd14c",
    "isdatareferenced": true,
    "isvisible": true,
    "kuid": "m14a390d87224ba0a7a7e5f772e28203",
    "masterInstance": true,
    "name": "kony.ui.Label",
    "parent": "flxCouponDetailsScroll",
    "pf": "frmProjects",
    "topLevelInstanceKUID": "m5702b789e424236aa5b86e08ece2174",
    "wType": "Label"
}