{
    "__parentReadjusting__": false,
    "_padding_": [
        0,
        0,
        0,
        0
    ],
    "_skin_": "sb387f6134ed4be4983eae830d3a8acf",
    "_srcKuid_": "ab6f74d276e543e6a4107ad4a01cb9ff",
    "areflexpropsreferenced": true,
    "canUpdateUI": true,
    "children": [
        "flxTopSpacerDNDSearch",
        "segSearchOffers",
        "segSearchResults"
    ],
    "context": {},
    "dataDiffs": {
        "id": "flxSearchResultsContainer"
    },
    "id": "flxSearchResultsContainer",
    "instanceOf": "ab6f74d276e543e6a4107ad4a01cb9ff",
    "isTopFlexInstance": true,
    "isdatareferenced": true,
    "isvisible": false,
    "kuid": "m5b85d6cb03e44d9b80505e3e1fcc0e9",
    "masterInstance": true,
    "name": "kony.ui.FlexScrollContainer",
    "parent": "frmShoppingList",
    "pf": "frmShoppingList",
    "vizProps": {
        "hidewidgethierarchy": false
    },
    "wType": "FlexScrollContainer"
}