{
    "__parentReadjusting__": false,
    "_padding_": [
        0,
        0,
        0,
        20
    ],
    "_skin_": "s78034944caa468192d0bb4be07545dc",
    "_srcKuid_": "m1c0bc5d77d240aab26b078218698dd1",
    "canUpdateUI": true,
    "context": {},
    "dataDiffs": {
        "height": {
            "type": "string",
            "value": "100%"
        },
        "id": "btnEvents",
        "left": {
            "type": "string",
            "value": "0dp"
        },
        "text": "E",
        "top": {
            "type": "string",
            "value": "0dp"
        },
        "width": {
            "type": "string",
            "value": "100%"
        },
        "zIndex": 1
    },
    "id": "btnEvents",
    "instanceOf": "m1c0bc5d77d240aab26b078218698dd1",
    "isvisible": true,
    "kuid": "m163d524f936426395af29d40c8cf943",
    "masterInstance": true,
    "name": "kony.ui.Button",
    "parent": "flxEvents",
    "pf": "frmSortAndRefine",
    "topLevelInstanceKUID": "m8ed524b229849f1bb4f2a22fc438693",
    "wType": "Button"
}