{
    "__parentReadjusting__": false,
    "_skin_": "s61886db45824820846e292717ca8077",
    "_srcKuid_": "mb5f6d45f57b41debf47ffe7722082ac",
    "canUpdateUI": true,
    "children": [
        "lblProjects",
        "btnProjects"
    ],
    "context": {},
    "dataDiffs": {
        "clipBounds": true,
        "enableScrolling": true,
        "height": {
            "type": "string",
            "value": "100%"
        },
        "id": "flxProjects",
        "layoutType": 2,
        "left": {
            "type": "string",
            "value": "0dp"
        },
        "snapGridSize": 10,
        "snapToGrid": true,
        "top": {
            "type": "string",
            "value": "0dp"
        },
        "width": {
            "type": "string",
            "value": "20%"
        },
        "zIndex": 1
    },
    "id": "flxProjects",
    "instanceOf": "mb5f6d45f57b41debf47ffe7722082ac",
    "isvisible": true,
    "kuid": "m295979d65774bc7a2a7e46fb4a89da8",
    "layouttype": 2,
    "masterInstance": true,
    "name": "kony.ui.FlexContainer",
    "parent": "flxFooterWrap",
    "pf": "frmSortAndRefine",
    "topLevelInstanceKUID": "m8ed524b229849f1bb4f2a22fc438693",
    "wType": "FlexContainer"
}