{
    "@class": "com.kony.gen.viz.model.component.KVizButton",
    "DNDConfig": null,
    "__parentReadjusting__": false,
    "_height_": {
        "type": "string",
        "value": "40dp"
    },
    "_left_": {
        "type": "string",
        "value": "10dp"
    },
    "_margin_": [
        6,
        6,
        6,
        6
    ],
    "_padding_": [
        0,
        0,
        0,
        0
    ],
    "_right_": {
        "type": "string",
        "value": "10dp"
    },
    "_skin_": "sf6e8c22374f493d8f5aac12b0812d9d",
    "_text_": "REVIEW THE APP",
    "_top_": {
        "type": "string",
        "value": "10dp"
    },
    "_width_": {
        "type": "string",
        "value": "94%"
    },
    "canUpdateUI": true,
    "centerx": {
        "type": "string",
        "value": "50.03%"
    },
    "containerweight": 100,
    "contentalignment": 5,
    "displaytext": true,
    "focusskin": "sc5b528b4cbc40039cd6730c91b53fe3",
    "id": "btnReview",
    "info": null,
    "isvisible": true,
    "kuid": "80b6a2b72840426cb718bd0340b13536",
    "name": "kony.ui.Button",
    "parent": "flxMainContainer",
    "pf": "frmHelp",
    "texti18n": "i18n.phone.frmContactUs.ReviewApp",
    "wType": "Button",
    "zindex": 1
}