{
    "__parentReadjusting__": false,
    "_padding_": [
        0,
        0,
        0,
        0
    ],
    "_skin_": "s61886db45824820846e292717ca8077",
    "_srcKuid_": "f482e402d5b548488dcd4790ba730360",
    "areflexpropsreferenced": true,
    "canUpdateUI": true,
    "children": [
        "btnSignUp",
        "btnSignIn"
    ],
    "context": {},
    "dataDiffs": {
        "id": "flxNotUser"
    },
    "id": "flxNotUser",
    "instanceOf": "f482e402d5b548488dcd4790ba730360",
    "isdatareferenced": true,
    "isvisible": true,
    "kuid": "m51a279554c34922817a6d5d9fda5dad",
    "masterInstance": true,
    "name": "kony.ui.FlexContainer",
    "parent": "flxCouponRewards",
    "pf": "frmPJDP",
    "topLevelInstanceKUID": "mae5e5aeaaba4b18a6189f210e8c7066",
    "wType": "FlexContainer"
}