{
    "__parentReadjusting__": false,
    "_padding_": [
        0,
        0,
        0,
        0
    ],
    "_skin_": "sb1507d0a0254310b90f066d847fec2e",
    "_srcKuid_": "3c4d0073184b42979a773cf82dc6ed69",
    "areflexpropsreferenced": true,
    "canUpdateUI": true,
    "children": [],
    "context": {},
    "dataDiffs": {
        "id": "flxSeparatorLine"
    },
    "id": "flxSeparatorLine",
    "instanceOf": "3c4d0073184b42979a773cf82dc6ed69",
    "isdatareferenced": true,
    "isvisible": true,
    "kuid": "mb9f5f86066b46c3a47d829fbe89c907",
    "masterInstance": true,
    "name": "kony.ui.FlexContainer",
    "parent": "flxCouponHeader",
    "pf": "frmPJDP",
    "topLevelInstanceKUID": "mae5e5aeaaba4b18a6189f210e8c7066",
    "wType": "FlexContainer"
}