{
    "__parentReadjusting__": false,
    "_padding_": [
        0,
        0,
        0,
        0
    ],
    "_skin_": "sb1971f0a0774fbda5ff14589c5df551",
    "_srcKuid_": "a9c8c241a6a44e699c524a79b2ee45f4",
    "areflexpropsreferenced": true,
    "canUpdateUI": true,
    "context": {},
    "dataDiffs": {
        "id": "imgBarcode"
    },
    "id": "imgBarcode",
    "instanceOf": "a9c8c241a6a44e699c524a79b2ee45f4",
    "isdatareferenced": true,
    "isvisible": true,
    "kuid": "ma0c2e5ad5384cf4a119280bc83dceec",
    "masterInstance": true,
    "name": "kony.ui.Image2",
    "parent": "flxBarCodeWrap",
    "pf": "frmPJDP",
    "topLevelInstanceKUID": "mae5e5aeaaba4b18a6189f210e8c7066",
    "wType": "Image"
}