{
    "__parentReadjusting__": false,
    "_padding_": [
        0,
        0,
        0,
        0
    ],
    "_skin_": "s23df4229f114ec4a9cead3747be811c",
    "_srcKuid_": "25641b223020464c977e292bf98e3989",
    "areflexpropsreferenced": true,
    "canUpdateUI": true,
    "context": {},
    "dataDiffs": {
        "id": "lblOfferTitle2Restrictions"
    },
    "id": "lblOfferTitle2Restrictions",
    "instanceOf": "25641b223020464c977e292bf98e3989",
    "isdatareferenced": true,
    "isvisible": true,
    "kuid": "m76876e32c704c4f85b9ee23a70a7cf1",
    "masterInstance": true,
    "name": "kony.ui.Label",
    "parent": "flexInner1",
    "pf": "frmPJDP",
    "topLevelInstanceKUID": "mae5e5aeaaba4b18a6189f210e8c7066",
    "wType": "Label"
}