{
    "__parentReadjusting__": false,
    "_padding_": [
        0,
        0,
        0,
        0
    ],
    "_skin_": "s13cda51279a4984ac9726a9c95c523d",
    "_srcKuid_": "0cec38f98af94fb8a1af94fdae2cef45",
    "areflexpropsreferenced": true,
    "canUpdateUI": true,
    "context": {},
    "dataDiffs": {
        "id": "lblValidityRestrictions"
    },
    "id": "lblValidityRestrictions",
    "instanceOf": "0cec38f98af94fb8a1af94fdae2cef45",
    "isdatareferenced": true,
    "isvisible": true,
    "kuid": "m3c7301c098542db9d767c9b0a6b93ef",
    "masterInstance": true,
    "name": "kony.ui.Label",
    "parent": "flexInner1",
    "pf": "frmPJDP",
    "topLevelInstanceKUID": "mae5e5aeaaba4b18a6189f210e8c7066",
    "wType": "Label"
}