{
    "@class": "com.kony.gen.viz.model.component.KVizButton",
    "DNDConfig": null,
    "__parentReadjusting__": false,
    "_height_": {
        "type": "string",
        "value": "13.93%"
    },
    "_margin_": [
        6,
        6,
        6,
        6
    ],
    "_padding_": [
        0,
        0,
        0,
        0
    ],
    "_render_": true,
    "_right_": {
        "type": "string",
        "value": "9dp"
    },
    "_skin_": "s4edd09d5ad842c7b4322d283ea53066",
    "_text_": "X",
    "_top_": {
        "type": "string",
        "value": "0dp"
    },
    "_width_": {
        "type": "string",
        "value": "8%"
    },
    "android": {
        "render": true
    },
    "canUpdateUI": true,
    "centery": {
        "type": "string",
        "value": "15dp"
    },
    "childInstances": [
        "m91bad63da964a4285acfb3436ef731d",
        "m0e6743cf12042f99f61be31428670a3",
        "m2e14877dcfc4d7fbb98dc83aa46c89d",
        "m6b426dc80554e5986da5628f863623e",
        "m337405c1a744becb45d6bb4eba11c0e",
        "m4d8a3f68d3e495593851542d98cedfc",
        "m149347f66fd4d9ba0598ef52eb51503",
        "m319961aa2ae41d9bb83c978a6fd8fd9",
        "mcbaf9bf230f4873b2637de22e1c96a2",
        "mc02f3fc7e0549a7a0b9e3ca4a73d849",
        "ma972f424a964d21aea1f0ca9584ce7b",
        "m0272ee610de4f5ea6a8d51fb84b5514",
        "mab2d43305864704a58cab6499a6f5b1",
        "m403f49e483741778d02e0ee00f433fd",
        "md00e15af4914aaeac48c17d27d94308",
        "m324b65508b141119955a1b801489c1f"
    ],
    "containerweight": 100,
    "contentalignment": 5,
    "displaytext": true,
    "focusskin": "sc2a347bd7cb4e848dbd34e085b9e44c",
    "id": "btnClearVoiceSearch",
    "info": null,
    "iphone": {
        "render": false
    },
    "isvisible": false,
    "kuid": "3c67f31e81e64b059b53aa42486d9838",
    "name": "kony.ui.Button",
    "parent": "flxContainerSearchInner",
    "pf": "masterSearchOverlay",
    "spaan": {
        "render": true
    },
    "spabb": {
        "render": true
    },
    "spaip": {
        "render": false
    },
    "spawinphone8": {
        "render": true
    },
    "wType": "Button",
    "winphone8": {
        "render": true
    },
    "zindex": 1
}