{
    "DNDConfig": null,
    "__parentReadjusting__": false,
    "_height_": {
        "type": "string",
        "value": "100%"
    },
    "_left_": {
        "type": "string",
        "value": "0dp"
    },
    "_margin_": [
        0,
        0,
        0,
        0
    ],
    "_orientation_": 6,
    "_padding_": [
        0,
        0,
        0,
        0
    ],
    "_percent_": true,
    "_render_": true,
    "_skin_": "s61886db45824820846e292717ca8077",
    "_top_": {
        "type": "string",
        "value": "0dp"
    },
    "_width_": {
        "type": "string",
        "value": "100%"
    },
    "allboxes": [],
    "android": {
        "render": true
    },
    "canUpdateUI": true,
    "childInstances": [
        "mefe7125516a4f6ba28a528e80f6f56b",
        "mb6122a089514140bf6934cc50e60c87",
        "m3047bf135494de9870c97c55095271d",
        "mf912c8841604cb8870e8081ad8010d4",
        "m98913085630401f9ac298aef917ad02",
        "m4226360dafb4fcaa12f3a224783ccf8",
        "m6ef815f0cd94c758979fa999a2153d7",
        "m706e08d94d849d89ab36d13e93a960a",
        "m70e25d1116f437e89d69a8ea36f3828",
        "m23b065825b249d88f4068cb10186eb9",
        "m736a8151ff04417a56034b198368d1e",
        "ma6de36e15d54c39ba97db0e400fd4bd",
        "m47c41e9003745b8956358027248e507",
        "mf80d8d21bc94425923d3e3086ff8af7",
        "mdf699fe5922454e80aca3a18bfbe49d",
        "m41fb8ca9148454dbc23ba06756410c1",
        "m82563324a014bf3b050d791e280a764",
        "m5fcd0cc2019426095d5be252448b85f"
    ],
    "children": [
        "flxContainerSearchExpand"
    ],
    "clipbounds": true,
    "containerweight": 100,
    "enablescrolling": true,
    "id": "flxSearchOverlay",
    "info": null,
    "iphone": {
        "render": true
    },
    "isvisible": false,
    "kuid": "m871f415971d48ecb84cff23062f15a5",
    "layouttype": 2,
    "masterTopLevelFlex": true,
    "name": "kony.ui.FlexContainer",
    "parent": "masterSearchOverlay",
    "pf": "masterSearchOverlay",
    "snapgridsize": 10,
    "snaptogrid": true,
    "spaan": {
        "render": true
    },
    "spabb": {
        "render": true
    },
    "spaip": {
        "render": true
    },
    "spawinphone8": {
        "render": true
    },
    "vizProps": {
        "hidewidgethierarchy": false
    },
    "wType": "FlexContainer",
    "widgetalignment": 1,
    "winphone8": {
        "render": true
    }
}