{
    "@class": "com.kony.gen.viz.model.component.KVizLabel",
    "DNDConfig": null,
    "__parentReadjusting__": false,
    "_height_": {
        "type": "ref",
        "value": "preferred"
    },
    "_margin_": [
        1,
        1,
        1,
        1
    ],
    "_padding_": [
        0,
        0,
        0,
        0
    ],
    "_skin_": "s01620b9784a48e0952ac25f1f2ded3f",
    "_text_": "Bar Code",
    "_top_": {
        "type": "string",
        "value": "67%"
    },
    "_width_": {
        "type": "string",
        "value": "100%"
    },
    "_wrapping_": 2,
    "android": {
        "textStyle": {
            "letterSpacing": 0,
            "strikeThrough": false
        }
    },
    "canUpdateUI": true,
    "centerx": {
        "type": "string",
        "value": "50%"
    },
    "childInstances": [
        "m188f0de85fb4bc49dc6eef292e0e4ed",
        "md720a95528a494a97101f08f1ece0b7",
        "m4a0dbc6873d428a9055895ac4951307",
        "m836b580dc0144c1aa01aa000091416f",
        "m496dbae2e36447e877a120b3f35ecf5",
        "me762b389ce949708d26e4dc9186975c",
        "mc162737dea94a779e2dd48a1c82bfbe",
        "m1f784cc07774779882a9e85bae6ed6a",
        "md9f1be8cf974b27ae944b01c60bd6e5",
        "m77418b3b59545b79e86ff724a309b91",
        "mf0b070bb765458cabd317c5a7167f95",
        "mff7748c29ae434886845f5ebed7ca27",
        "m4c50a1c3c324ebd871448f46faea3ff",
        "m2410a8e465647a18a57ebeb65f91ac3",
        "m59dd0d840584d6c8b1cca84ea606133",
        "mb88c5a095db4a5287e7389f16ad966b"
    ],
    "containerweight": 100,
    "contentalignment": 5,
    "id": "lblBarCode",
    "info": null,
    "iphone": {
        "psp": {
            "wrapping": 2
        }
    },
    "isvisible": true,
    "kuid": "11f17803725d4e6983d3d64160ebe2e5",
    "name": "kony.ui.Label",
    "parent": "flxBarCode",
    "pf": "masterSearchOverlay",
    "textstyle": {},
    "tooltip": "",
    "wType": "Label",
    "zindex": 1
}