{
    "@class": "com.kony.gen.viz.model.component.KVizLabel",
    "DNDConfig": null,
    "__parentReadjusting__": false,
    "_height_": {
        "type": "ref",
        "value": "preferred"
    },
    "_margin_": [
        1,
        1,
        1,
        1
    ],
    "_padding_": [
        0,
        0,
        0,
        0
    ],
    "_skin_": "s01620b9784a48e0952ac25f1f2ded3f",
    "_text_": "Visual Search",
    "_top_": {
        "type": "string",
        "value": "67%"
    },
    "_width_": {
        "type": "string",
        "value": "100%"
    },
    "_wrapping_": 2,
    "android": {
        "textStyle": {
            "letterSpacing": 0,
            "strikeThrough": false
        }
    },
    "canUpdateUI": true,
    "centerx": {
        "type": "string",
        "value": "50%"
    },
    "childInstances": [
        "me3ecce2c5ca42a4916430d83af62934",
        "md84e49af08948fe9b53e9cbeefac335",
        "mcceb69c5fb74ecbb8f9653318aca262",
        "m98035533b924048a07b6a7592adf788",
        "m35b162bbbb84912b1535698118f8bbb",
        "meee9bbfe61a42f9bd94b17730714e38",
        "m815c2a129f14ee7b5e68aa554ac39ae",
        "m9e28b1c80e94f76b194607f581f5ce5",
        "mff24d951dd04a228ddca1e1c6aea4b0",
        "m37c83b6a4d74a62bd208092efe6c649",
        "m4eb5ed821c84d1b930c86df6c5a2866",
        "m192deb8739f474a9478a6b2c5ffd975",
        "mcc9f5f8a21f42cebed4e0d35f2a0242",
        "m0b9dc21a9ed407cb66d98a77c0ee764",
        "m9141089acc44b7397701162cb2dcf59",
        "m4ee23f24a874a2aade1c4af86efbf1f"
    ],
    "containerweight": 100,
    "contentalignment": 5,
    "id": "lblVisual",
    "info": null,
    "iphone": {
        "psp": {
            "wrapping": 2
        }
    },
    "isvisible": true,
    "kuid": "27d1fe600e2342c7ac2b955323e63bcd",
    "name": "kony.ui.Label",
    "parent": "flxVisual",
    "pf": "masterSearchOverlay",
    "textstyle": {},
    "tooltip": "",
    "wType": "Label",
    "zindex": 1
}