{
    "@class": "com.kony.gen.viz.model.component.KVizButton",
    "DNDConfig": null,
    "__parentReadjusting__": false,
    "_height_": {
        "type": "string",
        "value": "40dp"
    },
    "_left_": {
        "type": "string",
        "value": "0dp"
    },
    "_margin_": [
        6,
        6,
        6,
        6
    ],
    "_padding_": [
        0,
        0,
        0,
        0
    ],
    "_skin_": "s43a4991a0b44285b4afad1d5cc00ff4",
    "_text_": "Okay",
    "_top_": {
        "type": "string",
        "value": "0dp"
    },
    "_width_": {
        "type": "string",
        "value": "100%"
    },
    "canUpdateUI": true,
    "centerx": {
        "type": "string",
        "value": "50%"
    },
    "containerweight": 100,
    "contentalignment": 5,
    "displaytext": true,
    "focusskin": "s43a4991a0b44285b4afad1d5cc00ff4",
    "id": "btnYes",
    "info": null,
    "isvisible": true,
    "kuid": "c9e35f08b6a343eeaffa810060398755",
    "name": "kony.ui.Button",
    "paddinginpixel": false,
    "parent": "flxDialogbox",
    "pf": "frmCreateAccount",
    "texti18n": "i18n.phone.frmCreateAccount.okay",
    "wType": "Button",
    "zindex": 2
}