{
    "DNDConfig": null,
    "__parentReadjusting__": false,
    "_height_": {
        "type": "string",
        "value": "100%"
    },
    "_left_": {
        "type": "string",
        "value": "0dp"
    },
    "_margin_": [
        0,
        0,
        0,
        0
    ],
    "_orientation_": 6,
    "_padding_": [
        0,
        0,
        0,
        0
    ],
    "_percent_": true,
    "_skin_": "s060da2a8fc94e58b8dcd9995aaf2bc6",
    "_top_": {
        "type": "string",
        "value": "0dp"
    },
    "_width_": {
        "type": "string",
        "value": "100%"
    },
    "allboxes": [],
    "allowhorizontalbounce": false,
    "allowverticalbounce": true,
    "bounces": false,
    "canUpdateUI": true,
    "children": [
        "flxTopSpacerDND",
        "flxFirstName",
        "flxLastName",
        "flxEmail",
        "flxConfirmEmail",
        "lblPasswordHint",
        "flxPassword",
        "flxConfirmPassword",
        "flxZipCode",
        "flxZipCodeCan",
        "flxPhoneNo",
        "FlexContainer08545d32dca7842",
        "CopyFlexContainer008a1f175435b45",
        "CopyFlexContainer062a32526985248",
        "btnNext",
        "flxBottomSpacerDND"
    ],
    "clipbounds": true,
    "containerweight": 100,
    "decelerat": false,
    "dragg": false,
    "enablescrolling": true,
    "horizontalscrollindicator": true,
    "id": "flxMainContainer",
    "info": null,
    "isvisible": true,
    "kuid": "431b6ca94e6340eb9c44ae0619249cef",
    "layouttype": 4,
    "name": "kony.ui.FlexScrollContainer",
    "pagingenabled": false,
    "parent": "frmCreateAccount",
    "pf": "frmCreateAccount",
    "scrolldirection": 2,
    "snapgridsize": 10,
    "snaptogrid": true,
    "track": false,
    "verticalscrollindicator": false,
    "wType": "FlexScrollContainer",
    "widgetalignment": 1,
    "zindex": 1
}