{
    "@class": "com.kony.gen.viz.model.component.KVizRichText",
    "DNDConfig": null,
    "__parentReadjusting__": false,
    "_height_": {
        "type": "string",
        "value": "100%"
    },
    "_left_": {
        "type": "string",
        "value": "35dp"
    },
    "_margin_": [
        0,
        0,
        0,
        0
    ],
    "_padding_": [
        0,
        0,
        0,
        0
    ],
    "_right_": {
        "type": "string",
        "value": "0dp"
    },
    "_skin_": "se87cca3417240f6ae4170aaadb298f0",
    "_text_": "I CERTIFY THAT I AM AT LEAST 13 YEARS OF AGE",
    "_top_": {
        "type": "string",
        "value": "1dp"
    },
    "_width_": {
        "type": "ref",
        "value": "preferred"
    },
    "_wrapping_": 2,
    "canUpdateUI": true,
    "containerweight": 100,
    "contentalignment": 4,
    "id": "rtAge",
    "info": null,
    "isvisible": true,
    "kuid": "aa2fb2728b6940deb020e7584cc5059f",
    "linkskin": "sa541d448c7b42308303f1bb121a1b3b",
    "name": "kony.ui.RichText",
    "parent": "CopyFlexContainer008a1f175435b45",
    "pf": "frmCreateAccount",
    "texti18n": "i18n.phone.frmCreateAccount.rtAge",
    "wType": "RichText",
    "widgetalignment": 5,
    "zindex": 1
}