{
    "@class": "com.kony.gen.viz.model.component.KVizTextBox2",
    "DNDConfig": null,
    "__parentReadjusting__": false,
    "_height_": {
        "type": "string",
        "value": "37dp"
    },
    "_margin_": [
        0,
        0,
        0,
        0
    ],
    "_padding_": [
        3,
        0,
        0,
        0
    ],
    "_placeholder_": "",
    "_skin_": "s0e83e3fd29641948d4a7b716e2fbac5",
    "_text_": "",
    "_top_": {
        "type": "string",
        "value": "0dp"
    },
    "_width_": {
        "type": "string",
        "value": "100%"
    },
    "autocapitalize": "all",
    "autocomplete": false,
    "autocorrect": false,
    "autofilter": false,
    "canUpdateUI": true,
    "centerx": {
        "type": "string",
        "value": "50%"
    },
    "containerheight": "",
    "containerheightmode": 1,
    "containerweight": 100,
    "contentalignment": 4,
    "focusskin": "s0e83e3fd29641948d4a7b716e2fbac5",
    "id": "txtZipCodeCan",
    "info": null,
    "iphone": {},
    "isvisible": true,
    "keyboardstyle": "A",
    "keyboardtype": "A",
    "kuid": "d4967e0223434ad3a5b384adbae56330",
    "maxtextlength": 6,
    "mode": "A",
    "name": "kony.ui.TextBox2",
    "parent": "flxZipCodeCan",
    "pf": "frmCreateAccount",
    "placeholderi18n": "i18n.phone.frmCreateAccount.txtZipCode",
    "placeholderskin": "s0e83e3fd29641948d4a7b716e2fbac5",
    "securetextentry": false,
    "textinputmode": "A",
    "viewtype": "default",
    "wType": "TextField",
    "zindex": 1
}