{
    "__parentReadjusting__": false,
    "_padding_": [
        0,
        0,
        0,
        0
    ],
    "_srcKuid_": "b7adfa8806584ad393841d0264746bc6",
    "areflexpropsreferenced": true,
    "canUpdateUI": true,
    "context": {},
    "dataDiffs": {
        "id": "segSearchResults"
    },
    "id": "segSearchResults",
    "instanceOf": "b7adfa8806584ad393841d0264746bc6",
    "isdatareferenced": true,
    "isvisible": true,
    "kuid": "m6061eb7be6e4d6c86f05779d7eccfa6",
    "masterInstance": true,
    "name": "kony.ui.SegmentedUI2",
    "parent": "flxSearchResultsContainer",
    "pf": "frmHome",
    "selectedState": false,
    "topLevelInstanceKUID": "mf471a922e5b4f5ab4e9d0abe432b5a3",
    "wType": "Segment"
}