{
    "__parentReadjusting__": false,
    "_skin_": "s61886db45824820846e292717ca8077",
    "_srcKuid_": "bac41df495ee44b985632ab77232a8bd",
    "canUpdateUI": true,
    "children": [
        "imgVoice",
        "lblVoice"
    ],
    "context": {},
    "dataDiffs": {
        "clipBounds": true,
        "enableScrolling": true,
        "height": {
            "type": "string",
            "value": "89dp"
        },
        "id": "flxVoice",
        "layoutType": 2,
        "left": {
            "type": "string",
            "value": "14%"
        },
        "snapGridSize": 10,
        "snapToGrid": true,
        "top": {
            "type": "string",
            "value": "40dp"
        },
        "width": {
            "type": "string",
            "value": "33%"
        },
        "zIndex": 1
    },
    "id": "flxVoice",
    "instanceOf": "bac41df495ee44b985632ab77232a8bd",
    "isvisible": true,
    "kuid": "m73a88afa9314cdd85e5c392ba67f8f9",
    "layouttype": 2,
    "masterInstance": true,
    "name": "kony.ui.FlexContainer",
    "parent": "flxContainerSearchInner",
    "pf": "frmProductsList",
    "topLevelInstanceKUID": "m706e08d94d849d89ab36d13e93a960a",
    "wType": "FlexContainer"
}