{
    "__parentReadjusting__": false,
    "_skin_": "sb1971f0a0774fbda5ff14589c5df551",
    "_srcKuid_": "2f40845194654624b2f7cef35ef24769",
    "canUpdateUI": true,
    "context": {},
    "dataDiffs": {
        "centerX": {
            "type": "string",
            "value": "50%"
        },
        "height": {
            "type": "string",
            "value": "24dp"
        },
        "id": "imgBarCode",
        "imageScaleMode": 1,
        "left": {
            "type": "string",
            "value": "55dp"
        },
        "src": "iconbarcode.png",
        "top": {
            "type": "string",
            "value": "21dp"
        },
        "width": {
            "type": "string",
            "value": "39dp"
        },
        "zIndex": 1
    },
    "id": "imgBarCode",
    "instanceOf": "2f40845194654624b2f7cef35ef24769",
    "isvisible": true,
    "kuid": "m626ac05e4f5413db9bff1857539666c",
    "masterInstance": true,
    "name": "kony.ui.Image2",
    "parent": "flxBarCode",
    "pf": "frmProductsList",
    "topLevelInstanceKUID": "m706e08d94d849d89ab36d13e93a960a",
    "wType": "Image"
}