{
    "_skin_": "s4b0f23587d44995bc1e318b08b03332",
    "_srcKuid_": "0f18600a0bce4cc4a4065a8f3fdbc235",
    "canUpdateUI": true,
    "children": [
        "flxContainerSearchInner"
    ],
    "context": {},
    "dataDiffs": {
        "clipBounds": true,
        "enableScrolling": true,
        "height": {
            "type": "string",
            "value": "100%"
        },
        "id": "flxContainerSearchExpand",
        "layoutType": 2,
        "left": {
            "type": "string",
            "value": "-0.02%"
        },
        "snapGridSize": 10,
        "snapToGrid": true,
        "top": {
            "type": "string",
            "value": "-0.03%"
        },
        "width": {
            "type": "string",
            "value": "100%"
        },
        "zIndex": 10
    },
    "id": "flxContainerSearchExpand",
    "instanceOf": "0f18600a0bce4cc4a4065a8f3fdbc235",
    "isvisible": true,
    "kuid": "mbef67e176a5456ab1df3519d693139c",
    "layouttype": 2,
    "masterInstance": true,
    "name": "kony.ui.FlexContainer",
    "parent": "flxSearchOverlay",
    "pf": "frmWeeklyAdDetail",
    "topLevelInstanceKUID": "m47c41e9003745b8956358027248e507",
    "wType": "FlexContainer"
}