{
    "__parentReadjusting__": false,
    "_skin_": "s8ed8c4dcbcc4279b1a5d3c4cefb9dbf",
    "_srcKuid_": "f2d92c30b215410fabe88a303cebad33",
    "canUpdateUI": true,
    "children": [
        "cmrImageSearch"
    ],
    "context": {},
    "dataDiffs": {
        "clipBounds": true,
        "enableScrolling": true,
        "height": {
            "type": "string",
            "value": "100%"
        },
        "id": "flxCameraContainer",
        "layoutType": 2,
        "right": {
            "type": "string",
            "value": "14%"
        },
        "snapGridSize": 10,
        "snapToGrid": true,
        "top": {
            "type": "string",
            "value": "0dp"
        },
        "width": {
            "type": "string",
            "value": "12%"
        }
    },
    "id": "flxCameraContainer",
    "instanceOf": "f2d92c30b215410fabe88a303cebad33",
    "isvisible": false,
    "kuid": "mb281682b63f4d8199492fadc5b0ad86",
    "layouttype": 2,
    "masterInstance": true,
    "name": "kony.ui.FlexContainer",
    "parent": "flxSearchContents",
    "pf": "frmPJDP",
    "topLevelInstanceKUID": "m01ec89a0a584b80bd793efccbf41645",
    "wType": "FlexContainer"
}