{
    "__parentReadjusting__": false,
    "_padding_": [
        0,
        0,
        0,
        0
    ],
    "_skin_": "sb1971f0a0774fbda5ff14589c5df551",
    "_srcKuid_": "c0fa692227f34beb88d6fbe8c59e1135",
    "canUpdateUI": true,
    "context": {},
    "dataDiffs": {
        "height": {
            "type": "string",
            "value": "100%"
        },
        "id": "imgCart",
        "imageScaleMode": 1,
        "right": {
            "type": "string",
            "value": "9%"
        },
        "src": "iconcart.png",
        "top": {
            "type": "string",
            "value": "0%"
        },
        "width": {
            "type": "string",
            "value": "58.01%"
        },
        "zIndex": 1
    },
    "id": "imgCart",
    "instanceOf": "c0fa692227f34beb88d6fbe8c59e1135",
    "isvisible": true,
    "kuid": "me110bf2fdc845b184bd0ebc8d203750",
    "masterInstance": true,
    "name": "kony.ui.Image2",
    "parent": "flxCart",
    "pf": "frmPJDP",
    "topLevelInstanceKUID": "m01ec89a0a584b80bd793efccbf41645",
    "wType": "Image"
}