{
    "__parentReadjusting__": false,
    "_skin_": "sdeda94bc5ff4a3baf50d5ea8cb9a66f",
    "_srcKuid_": "af8b9c4c34b04a098a572f85c55be522",
    "canUpdateUI": true,
    "children": [
        "flxOverlay",
        "flxCouponHeader",
        "flxCouponContents",
        "flxCouponDetailsPopup"
    ],
    "context": {},
    "dataDiffs": {
        "bottom": {
            "type": "string",
            "value": "54dp"
        },
        "clipBounds": true,
        "enableScrolling": true,
        "id": "flexCouponContainer",
        "layoutType": 2,
        "right": {
            "type": "string",
            "value": "-100%"
        },
        "snapGridSize": 10,
        "snapToGrid": true,
        "top": {
            "type": "string",
            "value": "0dp"
        },
        "width": {
            "type": "string",
            "value": "100%"
        },
        "zIndex": 10
    },
    "id": "flexCouponContainer",
    "instanceOf": "af8b9c4c34b04a098a572f85c55be522",
    "isTopFlexInstance": true,
    "isvisible": true,
    "kuid": "mb21661ae1a546e3ad5d6bd706112baf",
    "layouttype": 2,
    "masterInstance": true,
    "name": "kony.ui.FlexContainer",
    "parent": "frmWebView",
    "pf": "frmWebView",
    "vizProps": {
        "hidewidgethierarchy": false
    },
    "wType": "FlexContainer"
}