{
    "DNDConfig": null,
    "__parentReadjusting__": false,
    "_height_": {
        "type": "string",
        "value": "32dp"
    },
    "_margin_": [
        0,
        0,
        0,
        0
    ],
    "_orientation_": 6,
    "_padding_": [
        0,
        0,
        0,
        0
    ],
    "_percent_": true,
    "_skin_": "s941cd8d6ec448169b01f2096fa380ad",
    "_width_": {
        "type": "string",
        "value": "100%"
    },
    "allboxes": [],
    "autogrowmode": 0,
    "canUpdateUI": true,
    "children": [
        "lblNewExclusive"
    ],
    "clipbounds": true,
    "containerId": true,
    "containerweight": 100,
    "enablescrolling": true,
    "focusskin": "s941cd8d6ec448169b01f2096fa380ad",
    "id": "flxWeeklyAdHeader",
    "info": null,
    "isTemplate": true,
    "isvisible": true,
    "kuid": "b08776b41b8b4e598bedff0d0056844e",
    "layouttype": 2,
    "name": "kony.ui.FlexContainer",
    "parent": "flxWeeklyAdRowContainer",
    "pf": "tempWeeklyAd",
    "snapgridsize": 10,
    "snaptogrid": true,
    "wType": "FlexContainer",
    "widgetalignment": 1
}