{
    "_skin_": "sc54f37ce8394ec6a8991ecba84d5918",
    "_srcKuid_": "b710a871683e461ba97c57a3aea59445",
    "canUpdateUI": true,
    "context": {},
    "dataDiffs": {
        "centerX": {
            "type": "string",
            "value": "50%"
        },
        "height": {
            "type": "string",
            "value": "24dp"
        },
        "id": "cmrImageSearch",
        "left": {
            "type": "string",
            "value": "55dp"
        },
        "text": "",
        "top": {
            "type": "string",
            "value": "21dp"
        },
        "width": {
            "type": "string",
            "value": "29dp"
        },
        "zIndex": 1
    },
    "id": "cmrImageSearch",
    "instanceOf": "b710a871683e461ba97c57a3aea59445",
    "isvisible": true,
    "kuid": "m98f1f44e07a4fd986fd300b113db307",
    "masterInstance": true,
    "name": "kony.ui.Camera",
    "parent": "flxVisual",
    "pf": "frmProductCategory",
    "topLevelInstanceKUID": "m98913085630401f9ac298aef917ad02",
    "wType": "Camera"
}