{
    "@class": "com.kony.gen.viz.model.component.KVizButton",
    "DNDConfig": null,
    "__parentReadjusting__": false,
    "_height_": {
        "type": "string",
        "value": "50dp"
    },
    "_margin_": [
        6,
        6,
        6,
        6
    ],
    "_padding_": [
        0,
        0,
        0,
        0
    ],
    "_right_": {
        "type": "string",
        "value": "0.00%"
    },
    "_skin_": "s01d696e5cee4b20b790e22bfe4a86be",
    "_text_": "",
    "_top_": {
        "type": "string",
        "value": "0dp"
    },
    "_width_": {
        "type": "string",
        "value": "80dp"
    },
    "canUpdateUI": true,
    "childInstances": [
        "m416dc0b200a488ca3c9e3ce94a7c6df"
    ],
    "containerweight": 100,
    "contentalignment": 5,
    "displaytext": true,
    "focusskin": "s01d696e5cee4b20b790e22bfe4a86be",
    "id": "btnCart",
    "info": null,
    "iphone": {
        "psp": {
            "showProgressIndicator": false
        }
    },
    "iscustomlayout": false,
    "isvisible": true,
    "kuid": "bffa62a2603b4faab671879673cb55f8",
    "name": "kony.ui.Button",
    "parent": "flxHeader",
    "pf": "masterHeader",
    "retaincontentalignment": false,
    "retainflexpositionproperties": false,
    "showprogressindicator": false,
    "wType": "Button",
    "zindex": 10
}