{
    "DNDConfig": null,
    "__parentReadjusting__": false,
    "_height_": {
        "type": "string",
        "value": "3dp"
    },
    "_left_": {
        "type": "string",
        "value": "0dp"
    },
    "_margin_": [
        0,
        0,
        0,
        0
    ],
    "_orientation_": 6,
    "_padding_": [
        0,
        0,
        0,
        0
    ],
    "_percent_": true,
    "_skin_": "s3f966db21e14d20b9f30daf9752ab8c",
    "_top_": {
        "type": "string",
        "value": "100dp"
    },
    "_width_": {
        "type": "string",
        "value": "100%"
    },
    "allboxes": [],
    "autogrowmode": 0,
    "canUpdateUI": true,
    "childInstances": [
        "m49b6835cc7b4e5e8a37ee2689ac1043",
        "ma2119fc01e1413c8f9eb4a676c0915e",
        "m518987be389476cbb2b8e00b118f4b7",
        "mb054ea0ffc94c6f9cdc2d2bd89b599c",
        "m0f9b15d1c89496a8d7cdd363a150dc9",
        "m7a060363e5043ad9e094f8830aafaa7",
        "m2e457d335ae46f997a4efa47a362a77"
    ],
    "children": [],
    "clipbounds": true,
    "containerweight": 100,
    "enablescrolling": true,
    "id": "flxSearchShadow",
    "info": null,
    "isvisible": false,
    "kuid": "2817b63e232847d68c492a15f8b9b2cc",
    "layouttype": 2,
    "name": "kony.ui.FlexContainer",
    "parent": "flxHeaderWrap",
    "pf": "masterHeader",
    "snapgridsize": 10,
    "snaptogrid": true,
    "wType": "FlexContainer",
    "widgetalignment": 1,
    "zindex": 1
}