{
    "__parentReadjusting__": false,
    "_padding_": [
        0,
        0,
        0,
        0
    ],
    "_skin_": "sa3dc70de34c4a0c80545047181634df",
    "_srcKuid_": "b0c7914e0d3148ef89fdc0a98f9a6eab",
    "canUpdateUI": true,
    "context": {},
    "dataDiffs": {
        "height": {
            "type": "ref",
            "value": "preferred"
        },
        "id": "lblMicStatusText",
        "left": {
            "type": "string",
            "value": "0%"
        },
        "text": "listening...",
        "textStyle": {},
        "top": {
            "type": "string",
            "value": "75%"
        },
        "width": {
            "type": "string",
            "value": "100%"
        },
        "zIndex": 1
    },
    "id": "lblMicStatusText",
    "instanceOf": "b0c7914e0d3148ef89fdc0a98f9a6eab",
    "isvisible": true,
    "kuid": "m1ff530e28eb402285a06a517756ca9a",
    "masterInstance": true,
    "name": "kony.ui.Label",
    "parent": "flxMicPanelContent",
    "pf": "frmWeeklyAdDetail",
    "topLevelInstanceKUID": "md380ada9a2c43358a1a65b3ba6efcf3",
    "wType": "Label"
}