{
    "_skin_": "sb1971f0a0774fbda5ff14589c5df551",
    "_srcKuid_": "eedf237de4c648f3b12c0b019c67ef97",
    "canUpdateUI": true,
    "context": {},
    "dataDiffs": {
        "centerY": {
            "type": "string",
            "value": "50%"
        },
        "height": {
            "type": "string",
            "value": "36dp"
        },
        "id": "imgCouponIcon",
        "imageScaleMode": 0,
        "right": {
            "type": "string",
            "value": "25.67%"
        },
        "src": "coupon_icon.png",
        "width": {
            "type": "string",
            "value": "36dp"
        },
        "zIndex": 1
    },
    "id": "imgCouponIcon",
    "instanceOf": "eedf237de4c648f3b12c0b019c67ef97",
    "isvisible": true,
    "kuid": "m461bb082a874af69e0e2f8cca05b46d",
    "masterInstance": true,
    "name": "kony.ui.Image2",
    "parent": "flxMyLists",
    "pf": "frmProducts",
    "topLevelInstanceKUID": "m8e898092bb54f358e4f47796f1a408f",
    "wType": "Image"
}