{
    "__parentReadjusting__": false,
    "_skin_": "sb1971f0a0774fbda5ff14589c5df551",
    "_srcKuid_": "153f6f244c1040f084161c428c17fb37",
    "canUpdateUI": true,
    "context": {},
    "dataDiffs": {
        "height": {
            "type": "string",
            "value": "40dp"
        },
        "id": "imgBack",
        "imageScaleMode": 1,
        "left": {
            "type": "string",
            "value": "17dp"
        },
        "src": "arrowback.png",
        "top": {
            "type": "string",
            "value": "10dp"
        },
        "width": {
            "type": "string",
            "value": "20dp"
        },
        "zIndex": 10
    },
    "id": "imgBack",
    "instanceOf": "153f6f244c1040f084161c428c17fb37",
    "isvisible": true,
    "kuid": "m276590f6bfb440eae3a5ae94c4e09cb",
    "masterInstance": true,
    "name": "kony.ui.Image2",
    "parent": "flxContainerSearchInner",
    "pf": "frmHome",
    "srcType": 1,
    "topLevelInstanceKUID": "m41fb8ca9148454dbc23ba06756410c1",
    "wType": "Image"
}