{
    "__parentReadjusting__": false,
    "_skin_": "sb1971f0a0774fbda5ff14589c5df551",
    "_srcKuid_": "cffbaf779ab34628ac1f03b5f325ad00",
    "canUpdateUI": true,
    "context": {},
    "dataDiffs": {
        "centerX": {
            "type": "string",
            "value": "50%"
        },
        "height": {
            "type": "string",
            "value": "24dp"
        },
        "id": "imgVoice",
        "imageScaleMode": 1,
        "src": "microphone_icon.png",
        "top": {
            "type": "string",
            "value": "21dp"
        },
        "width": {
            "type": "string",
            "value": "13dp"
        },
        "zIndex": 1
    },
    "id": "imgVoice",
    "instanceOf": "cffbaf779ab34628ac1f03b5f325ad00",
    "isvisible": true,
    "kuid": "ma9b462d94c54bbc91cc3e1519cd536c",
    "masterInstance": true,
    "name": "kony.ui.Image2",
    "parent": "flxVoice",
    "pf": "frmHome",
    "srcType": 1,
    "topLevelInstanceKUID": "m41fb8ca9148454dbc23ba06756410c1",
    "wType": "Image"
}