{
    "__parentReadjusting__": false,
    "_padding_": [
        3,
        0,
        0,
        0
    ],
    "_skin_": "sef5db9fba5c4de197720aeacb0f4849",
    "_srcKuid_": "c5e4380aa73c49818f4db1837a35aeed",
    "canUpdateUI": true,
    "context": {},
    "dataDiffs": {
        "autoCapitalize": "none",
        "containerHeight": "",
        "height": {
            "type": "string",
            "value": "50dp"
        },
        "i18n_placeholder": "i18n.phone.common.findItLowercase",
        "id": "txtSearchField",
        "left": {
            "type": "string",
            "value": "40dp"
        },
        "placeholder": "Search",
        "right": {
            "type": "string",
            "value": "5dp"
        },
        "secureTextEntry": false,
        "text": "",
        "textInputMode": "A",
        "top": {
            "type": "string",
            "value": "2dp"
        },
        "zIndex": 10
    },
    "id": "txtSearchField",
    "instanceOf": "c5e4380aa73c49818f4db1837a35aeed",
    "isvisible": true,
    "kuid": "m69634d2d0054f219000448f53e38ea2",
    "masterInstance": true,
    "name": "kony.ui.TextBox2",
    "parent": "flxContainerSearchInner",
    "pf": "frmHome",
    "topLevelInstanceKUID": "m41fb8ca9148454dbc23ba06756410c1",
    "wType": "TextField"
}