{
    "__parentReadjusting__": false,
    "_padding_": [
        0,
        0,
        0,
        0
    ],
    "_skin_": "sce95ae6278b4b8bba5cb3b931bf822f",
    "_srcKuid_": "8899f700e127495291d1ca9cfe824211",
    "areflexpropsreferenced": true,
    "canUpdateUI": true,
    "context": {},
    "dataDiffs": {
        "id": "btnSignIn"
    },
    "id": "btnSignIn",
    "instanceOf": "8899f700e127495291d1ca9cfe824211",
    "isdatareferenced": true,
    "isvisible": true,
    "kuid": "m17f8566656d4475a923c1825c89aa51",
    "masterInstance": true,
    "name": "kony.ui.Button",
    "parent": "flxNotUser",
    "pf": "frmShoppingList",
    "topLevelInstanceKUID": "m0b06a1ba1e543e4a90eba4239357123",
    "wType": "Button"
}