{
    "__parentReadjusting__": false,
    "_padding_": [
        0,
        0,
        0,
        0
    ],
    "_skin_": "s11ac4047b5c4c39b96a7060b2cd6179",
    "_srcKuid_": "85842cae47da4b468d590c5a32be11c7",
    "areflexpropsreferenced": true,
    "canUpdateUI": true,
    "children": [
        "lblCouponTitle",
        "btnDone",
        "btnCoupon",
        "flxSeparatorLine",
        "btnCouponMainMaster"
    ],
    "context": {},
    "dataDiffs": {
        "id": "flxCouponHeader"
    },
    "id": "flxCouponHeader",
    "instanceOf": "85842cae47da4b468d590c5a32be11c7",
    "isdatareferenced": true,
    "isvisible": true,
    "kuid": "m840987ddd864f81ba8b846e62d0fdb9",
    "masterInstance": true,
    "name": "kony.ui.FlexContainer",
    "parent": "flexCouponContainer",
    "pf": "frmShoppingList",
    "topLevelInstanceKUID": "m0b06a1ba1e543e4a90eba4239357123",
    "wType": "FlexContainer"
}