{
    "__parentReadjusting__": false,
    "_padding_": [
        0,
        0,
        0,
        0
    ],
    "_skin_": "sb1971f0a0774fbda5ff14589c5df551",
    "_srcKuid_": "a9c8c241a6a44e699c524a79b2ee45f4",
    "areflexpropsreferenced": true,
    "canUpdateUI": true,
    "context": {},
    "dataDiffs": {
        "id": "imgBarcode"
    },
    "id": "imgBarcode",
    "instanceOf": "a9c8c241a6a44e699c524a79b2ee45f4",
    "isdatareferenced": true,
    "isvisible": true,
    "kuid": "m6f01f7e38db4a5e991ce22e2e759012",
    "masterInstance": true,
    "name": "kony.ui.Image2",
    "parent": "flxBarCodeWrap",
    "pf": "frmShoppingList",
    "topLevelInstanceKUID": "m0b06a1ba1e543e4a90eba4239357123",
    "wType": "Image"
}