{
    "__parentReadjusting__": false,
    "_padding_": [
        0,
        0,
        0,
        0
    ],
    "_skin_": "s1ce8cae3a554592802044756daad611",
    "_srcKuid_": "b22d5fb61f45409e8ec5a134e88fdf09",
    "areflexpropsreferenced": true,
    "canUpdateUI": true,
    "context": {},
    "dataDiffs": {
        "id": "lblCouponTitle"
    },
    "id": "lblCouponTitle",
    "instanceOf": "b22d5fb61f45409e8ec5a134e88fdf09",
    "isdatareferenced": true,
    "isvisible": true,
    "kuid": "m55b93db7654416da5715bb39d60e198",
    "masterInstance": true,
    "name": "kony.ui.Label",
    "parent": "flxCouponHeader",
    "pf": "frmShoppingList",
    "topLevelInstanceKUID": "m0b06a1ba1e543e4a90eba4239357123",
    "wType": "Label"
}