{
    "__parentReadjusting__": false,
    "_padding_": [
        0,
        0,
        0,
        0
    ],
    "_skin_": "s7d3687d3bf64f178ff63ad1bf3a7ada",
    "_srcKuid_": "118ce557e2274367824b83f50d746cbe",
    "areflexpropsreferenced": true,
    "canUpdateUI": true,
    "context": {},
    "dataDiffs": {
        "id": "lblOfferTitle1Restrictions"
    },
    "id": "lblOfferTitle1Restrictions",
    "instanceOf": "118ce557e2274367824b83f50d746cbe",
    "isdatareferenced": true,
    "isvisible": true,
    "kuid": "md72bc55b0184982afd177098ab09bea",
    "masterInstance": true,
    "name": "kony.ui.Label",
    "parent": "flexInner1",
    "pf": "frmShoppingList",
    "topLevelInstanceKUID": "m0b06a1ba1e543e4a90eba4239357123",
    "wType": "Label"
}