{
    "__parentReadjusting__": false,
    "_padding_": [
        0,
        0,
        0,
        0
    ],
    "_skin_": "s23df4229f114ec4a9cead3747be811c",
    "_srcKuid_": "25641b223020464c977e292bf98e3989",
    "areflexpropsreferenced": true,
    "canUpdateUI": true,
    "context": {},
    "dataDiffs": {
        "id": "lblOfferTitle2Restrictions"
    },
    "id": "lblOfferTitle2Restrictions",
    "instanceOf": "25641b223020464c977e292bf98e3989",
    "isdatareferenced": true,
    "isvisible": true,
    "kuid": "mbafa108400f4a359d619d5bc8deac86",
    "masterInstance": true,
    "name": "kony.ui.Label",
    "parent": "flexInner1",
    "pf": "frmShoppingList",
    "topLevelInstanceKUID": "m0b06a1ba1e543e4a90eba4239357123",
    "wType": "Label"
}