{
    "__parentReadjusting__": false,
    "_padding_": [
        0,
        0,
        0,
        0
    ],
    "_skin_": "s8c18f1befd54feea0f62d23b2f06edb",
    "_srcKuid_": "3496bc06dce3439fa3278b6ac531d147",
    "areflexpropsreferenced": true,
    "canUpdateUI": true,
    "context": {},
    "dataDiffs": {
        "id": "lblSeparator100"
    },
    "id": "lblSeparator100",
    "instanceOf": "3496bc06dce3439fa3278b6ac531d147",
    "isdatareferenced": true,
    "isvisible": true,
    "kuid": "m7fe43cc40da4b288b269feff16eeb18",
    "masterInstance": true,
    "name": "kony.ui.Label",
    "parent": "flxCouponRewards",
    "pf": "frmShoppingList",
    "topLevelInstanceKUID": "m0b06a1ba1e543e4a90eba4239357123",
    "wType": "Label"
}