{
    "@class": "com.kony.gen.viz.model.component.KVizButton",
    "DNDConfig": null,
    "__parentReadjusting__": false,
    "_height_": {
        "type": "string",
        "value": "37dp"
    },
    "_margin_": [
        6,
        6,
        6,
        6
    ],
    "_padding_": [
        0,
        0,
        2,
        0
    ],
    "_render_": true,
    "_right_": {
        "type": "string",
        "value": "0dp"
    },
    "_skin_": "s4edd09d5ad842c7b4322d283ea53066",
    "_text_": "X",
    "_width_": {
        "type": "string",
        "value": "40dp"
    },
    "android": {
        "render": true
    },
    "canUpdateUI": true,
    "centery": {
        "type": "string",
        "value": "50%"
    },
    "containerweight": 100,
    "contentalignment": 6,
    "displaytext": true,
    "focusskin": "s4edd09d5ad842c7b4322d283ea53066",
    "id": "btnTextReview",
    "info": null,
    "iphone": {
        "psp": {
            "showProgressIndicator": false
        },
        "render": true
    },
    "isvisible": true,
    "kuid": "c23f59eda28a4c1e95de829d4c72a5e2",
    "name": "kony.ui.Button",
    "paddinginpixel": false,
    "parent": "flxReviewDesc",
    "pf": "frmReviews",
    "showprogressindicator": false,
    "spaan": {
        "render": true
    },
    "spabb": {
        "render": true
    },
    "spaip": {
        "render": false
    },
    "spawinphone8": {
        "render": true
    },
    "wType": "Button",
    "winphone8": {
        "render": true
    },
    "zindex": 1
}