{
    "@class": "com.kony.gen.viz.model.component.KVizLabel",
    "DNDConfig": null,
    "__parentReadjusting__": false,
    "_height_": {
        "type": "ref",
        "value": "preferred"
    },
    "_left_": {
        "type": "string",
        "value": "20%"
    },
    "_margin_": [
        1,
        1,
        1,
        1
    ],
    "_padding_": [
        0,
        0,
        0,
        0
    ],
    "_skin_": "s1ce8cae3a554592802044756daad611",
    "_text_": "COUPONS",
    "_width_": {
        "type": "string",
        "value": "60%"
    },
    "_wrapping_": 2,
    "android": {
        "textStyle": {
            "letterSpacing": 0,
            "strikeThrough": false
        }
    },
    "canUpdateUI": true,
    "centery": {
        "type": "string",
        "value": "53%"
    },
    "containerweight": 100,
    "contentalignment": 5,
    "id": "lblCouponTitle",
    "info": null,
    "iphone": {
        "psp": {
            "wrapping": 2
        }
    },
    "isvisible": true,
    "kuid": "6155ff3ed23148cb81441bbbe4062f12",
    "name": "kony.ui.Label",
    "parent": "flxCouponHeader",
    "pf": "frmCoupons",
    "tooltip": "",
    "wType": "Label",
    "zindex": 1
}