{
    "@class": "com.kony.gen.viz.model.component.KVizLabel",
    "DNDConfig": null,
    "__parentReadjusting__": false,
    "_height_": {
        "type": "ref",
        "value": "preferred"
    },
    "_left_": {
        "type": "string",
        "value": "15dp"
    },
    "_margin_": [
        1,
        1,
        1,
        1
    ],
    "_padding_": [
        0,
        0,
        0,
        0
    ],
    "_skin_": "sd0c9c2eacde4319b99497b94866d8b2",
    "_text_": "NO BAR CODE REQUIRED",
    "_top_": {
        "type": "string",
        "value": "11dp"
    },
    "_width_": {
        "type": "string",
        "value": "96.50%"
    },
    "_wrapping_": 2,
    "android": {
        "textStyle": {
            "letterSpacing": 0,
            "strikeThrough": false
        }
    },
    "canUpdateUI": true,
    "centerx": {
        "type": "string",
        "value": "50%"
    },
    "containerweight": 100,
    "contentalignment": 2,
    "id": "lblNoBarCodeDetails",
    "info": null,
    "iphone": {
        "psp": {
            "wrapping": 2
        }
    },
    "isvisible": true,
    "kuid": "9c28402b138841dc8d6285b2eb952583",
    "name": "kony.ui.Label",
    "parent": "flexInner2",
    "pf": "frmCoupons",
    "tooltip": "",
    "wType": "Label",
    "zindex": 1
}