{
    "@class": "com.kony.gen.viz.model.component.KVizRichText",
    "DNDConfig": null,
    "__parentReadjusting__": false,
    "_height_": {
        "type": "ref",
        "value": "preferred"
    },
    "_left_": {
        "type": "string",
        "value": "0dp"
    },
    "_margin_": [
        0,
        0,
        0,
        0
    ],
    "_padding_": [
        0,
        0,
        0,
        0
    ],
    "_skin_": "s72e046ddcd045bd8ee5872fa85fd1ba",
    "_text_": "region",
    "_top_": {
        "type": "string",
        "value": "5dp"
    },
    "_width_": {
        "type": "string",
        "value": "94%"
    },
    "_wrapping_": 2,
    "canUpdateUI": true,
    "centerx": {
        "type": "string",
        "value": "50%"
    },
    "containerweight": 100,
    "contentalignment": 5,
    "id": "rchTextRegion",
    "info": null,
    "isvisible": true,
    "kuid": "3aae8eea603c46b195ff90f643c7ae65",
    "name": "kony.ui.RichText",
    "parent": "flexInner1",
    "pf": "frmCoupons",
    "wType": "RichText",
    "widgetalignment": 5,
    "zindex": 1
}