{
    "__parentReadjusting__": false,
    "_skin_": "s61886db45824820846e292717ca8077",
    "_srcKuid_": "ccfe34d0af564e938f254dcbb32d20b6",
    "canUpdateUI": true,
    "children": [
        "lblItemsCount",
        "imgCart"
    ],
    "context": {},
    "dataDiffs": {
        "clipBounds": true,
        "enableScrolling": true,
        "height": {
            "type": "string",
            "value": "100%"
        },
        "id": "flxCart",
        "layoutType": 2,
        "right": {
            "type": "number",
            "value": "0"
        },
        "snapGridSize": 10,
        "snapToGrid": true,
        "top": {
            "type": "string",
            "value": "0dp"
        },
        "width": {
            "type": "string",
            "value": "17.64%"
        },
        "zIndex": 1
    },
    "id": "flxCart",
    "instanceOf": "ccfe34d0af564e938f254dcbb32d20b6",
    "isvisible": true,
    "kuid": "mdd793d43d3043a2be2b79906adc08e6",
    "layouttype": 2,
    "masterInstance": true,
    "name": "kony.ui.FlexContainer",
    "parent": "flxHeaderWrap",
    "pf": "frmProductsList",
    "topLevelInstanceKUID": "m82b6a11cdc54da28979c78220e954af",
    "wType": "FlexContainer"
}