{
    "__parentReadjusting__": false,
    "_padding_": [
        0,
        0,
        0,
        0
    ],
    "_skin_": "s07f1d1fff60437cbc0e272108bd632f",
    "_srcKuid_": "dcba32740fdc44caa8469cab2c9cedd2",
    "canUpdateUI": true,
    "context": {},
    "dataDiffs": {
        "height": {
            "type": "string",
            "value": "42%"
        },
        "id": "lblItemsCount",
        "right": {
            "type": "string",
            "value": "3%"
        },
        "text": "",
        "textStyle": {},
        "top": {
            "type": "string",
            "value": "7%"
        },
        "width": {
            "type": "string",
            "value": "30%"
        },
        "zIndex": 2
    },
    "id": "lblItemsCount",
    "instanceOf": "dcba32740fdc44caa8469cab2c9cedd2",
    "isvisible": true,
    "kuid": "m09179e0bd4246a9a569842dad50974f",
    "masterInstance": true,
    "name": "kony.ui.Label",
    "parent": "flxCart",
    "pf": "frmProductsList",
    "topLevelInstanceKUID": "m82b6a11cdc54da28979c78220e954af",
    "wType": "Label"
}