{
    "__parentReadjusting__": false,
    "_skin_": "s61886db45824820846e292717ca8077",
    "_srcKuid_": "9c32d4a8dc9648b19b41644618b9dfcf",
    "canUpdateUI": true,
    "children": [
        "lblVisual",
        "cmrImageSearch"
    ],
    "context": {},
    "dataDiffs": {
        "clipBounds": true,
        "enableScrolling": true,
        "height": {
            "type": "string",
            "value": "89dp"
        },
        "id": "flxVisual",
        "layoutType": 2,
        "left": {
            "type": "string",
            "value": "33%"
        },
        "snapGridSize": 10,
        "snapToGrid": true,
        "top": {
            "type": "string",
            "value": "40dp"
        },
        "width": {
            "type": "string",
            "value": "33%"
        },
        "zIndex": 1
    },
    "id": "flxVisual",
    "instanceOf": "9c32d4a8dc9648b19b41644618b9dfcf",
    "isvisible": false,
    "kuid": "maf823e4289141b8aab98ee203c5bc79",
    "layouttype": 2,
    "masterInstance": true,
    "name": "kony.ui.FlexContainer",
    "parent": "flxContainerSearchInner",
    "pf": "frmProducts",
    "topLevelInstanceKUID": "m6ef815f0cd94c758979fa999a2153d7",
    "wType": "FlexContainer"
}