{
    "__parentReadjusting__": false,
    "_skin_": "sb1971f0a0774fbda5ff14589c5df551",
    "_srcKuid_": "cffbaf779ab34628ac1f03b5f325ad00",
    "canUpdateUI": true,
    "context": {},
    "dataDiffs": {
        "centerX": {
            "type": "string",
            "value": "50%"
        },
        "height": {
            "type": "string",
            "value": "24dp"
        },
        "id": "imgVoice",
        "imageScaleMode": 1,
        "src": "microphone_icon.png",
        "top": {
            "type": "string",
            "value": "21dp"
        },
        "width": {
            "type": "string",
            "value": "13dp"
        },
        "zIndex": 1
    },
    "id": "imgVoice",
    "instanceOf": "cffbaf779ab34628ac1f03b5f325ad00",
    "isvisible": true,
    "kuid": "mbfb29cfee344388976b6e215bba73bc",
    "masterInstance": true,
    "name": "kony.ui.Image2",
    "parent": "flxVoice",
    "pf": "frmProducts",
    "topLevelInstanceKUID": "m6ef815f0cd94c758979fa999a2153d7",
    "wType": "Image"
}