{
    "@class": "com.kony.gen.viz.model.component.KVizButton",
    "DNDConfig": null,
    "__parentReadjusting__": false,
    "_height_": {
        "type": "string",
        "value": "100%"
    },
    "_left_": {
        "type": "string",
        "value": "0dp"
    },
    "_margin_": [
        6,
        6,
        6,
        6
    ],
    "_padding_": [
        8,
        0,
        3,
        0
    ],
    "_skin_": "s15d1c5128d741919916e84f5fd47e54",
    "_text_": "Art Supplies",
    "_top_": {
        "type": "string",
        "value": "0dp"
    },
    "_width_": {
        "type": "string",
        "value": "100%"
    },
    "canUpdateUI": true,
    "containerweight": 100,
    "contentalignment": 6,
    "displaytext": true,
    "focusskin": "s15d1c5128d741919916e84f5fd47e54",
    "id": "btnCategoryName",
    "info": null,
    "iphone": {
        "psp": {
            "showProgressIndicator": false
        }
    },
    "isvisible": true,
    "kuid": "e8a076b19b774198a940ffec409a308f",
    "name": "kony.ui.Button",
    "onclick": "AS__6b9e2eef8c3840e696736519ff397850",
    "paddinginpixel": false,
    "parent": "flxCategory",
    "pf": "frmPDP",
    "showprogressindicator": false,
    "wType": "Button",
    "zindex": 1
}