{
    "@class": "com.kony.gen.viz.model.component.KVizButton",
    "DNDConfig": null,
    "__parentReadjusting__": false,
    "_height_": {
        "type": "string",
        "value": "100%"
    },
    "_left_": {
        "type": "string",
        "value": "0dp"
    },
    "_margin_": [
        6,
        6,
        6,
        6
    ],
    "_padding_": [
        3,
        0,
        0,
        0
    ],
    "_skin_": "sb37abb71fd24843be8273999a2b8efa",
    "_text_": "CHOOSE A STORE NEAR YOU",
    "_top_": {
        "type": "string",
        "value": "0dp"
    },
    "_width_": {
        "type": "string",
        "value": "100%"
    },
    "canUpdateUI": true,
    "containerweight": 100,
    "contentalignment": 4,
    "displaytext": true,
    "focusskin": "s3f5cb7cf15647249b79c26d709e551d",
    "id": "btnChooseStore",
    "info": null,
    "iphone": {
        "psp": {
            "showProgressIndicator": false
        }
    },
    "isvisible": false,
    "kuid": "671a6b3b373f463eb117876ec357a9e8",
    "name": "kony.ui.Button",
    "paddinginpixel": false,
    "parent": "flxMyStoreHeader",
    "pf": "frmPDP",
    "showprogressindicator": false,
    "texti18n": "i18n.phone.frmPDP.btnChooseStore",
    "wType": "Button",
    "zindex": 1
}