{
    "DNDConfig": null,
    "__parentReadjusting__": false,
    "_height_": {
        "type": "string",
        "value": "28dp"
    },
    "_left_": {
        "type": "string",
        "value": "10dp"
    },
    "_margin_": [
        0,
        0,
        0,
        0
    ],
    "_orientation_": 6,
    "_padding_": [
        0,
        0,
        0,
        0
    ],
    "_percent_": true,
    "_skin_": "sdadc208e74e4171b7cfaca74c73c60f",
    "_width_": {
        "type": "string",
        "value": "28dp"
    },
    "allboxes": [],
    "autogrowmode": 0,
    "canUpdateUI": true,
    "centery": {
        "type": "string",
        "value": "50%"
    },
    "children": [
        "CopyImage0e706939fb1ff4f"
    ],
    "clipbounds": true,
    "containerweight": 100,
    "enablescrolling": true,
    "id": "CopyFlexContainer002fff2e762d942",
    "info": null,
    "isvisible": true,
    "kuid": "50b6ba83c10b4c4fa099c3e92cabfcc9",
    "layouttype": 2,
    "name": "kony.ui.FlexContainer",
    "parent": "flxThumbs",
    "pf": "frmPDP",
    "snapgridsize": 10,
    "snaptogrid": true,
    "wType": "FlexContainer",
    "widgetalignment": 1,
    "zindex": 1
}