{
    "__parentReadjusting__": false,
    "_padding_": [
        0,
        0,
        0,
        0
    ],
    "_skin_": "s94afb9bbe284a01976694b74ee88390",
    "_srcKuid_": "m9eea0d9242f49a6aa6e5989be1adb55",
    "canUpdateUI": true,
    "children": [
        "flxMicPanel"
    ],
    "context": {},
    "dataDiffs": {
        "clipBounds": true,
        "enableScrolling": true,
        "height": {
            "type": "string",
            "value": "100%"
        },
        "id": "flxVoiceSearch",
        "layoutType": 2,
        "left": {
            "type": "string",
            "value": "0%"
        },
        "snapGridSize": 10,
        "snapToGrid": true,
        "top": {
            "type": "string",
            "value": "0dp"
        },
        "width": {
            "type": "string",
            "value": "100%"
        },
        "zIndex": 20
    },
    "id": "flxVoiceSearch",
    "instanceOf": "m9eea0d9242f49a6aa6e5989be1adb55",
    "isTopFlexInstance": true,
    "isvisible": false,
    "kuid": "m8a81f93d026448993e18dcee902003a",
    "layouttype": 2,
    "masterInstance": true,
    "name": "kony.ui.FlexContainer",
    "parent": "frmPDP",
    "pf": "frmPDP",
    "vizProps": {
        "hidewidgethierarchy": false
    },
    "wType": "FlexContainer"
}