{
    "@class": "com.kony.gen.viz.model.component.KVizLabel",
    "DNDConfig": null,
    "__parentReadjusting__": false,
    "_height_": {
        "type": "string",
        "value": "100%"
    },
    "_margin_": [
        1,
        1,
        1,
        1
    ],
    "_padding_": [
        0,
        0,
        0,
        0
    ],
    "_skin_": "sdbc3b41e828482d8c86254c1ee36c70",
    "_text_": "REWARDS PROFILE",
    "_top_": {
        "type": "string",
        "value": "0dp"
    },
    "_width_": {
        "type": "string",
        "value": "55%"
    },
    "_wrapping_": 2,
    "android": {
        "textStyle": {
            "letterSpacing": 0,
            "strikeThrough": false
        }
    },
    "canUpdateUI": true,
    "centerx": {
        "type": "string",
        "value": "50%"
    },
    "centery": {
        "type": "string",
        "value": "50%"
    },
    "containerweight": 100,
    "contentalignment": 5,
    "id": "lblFormTitle",
    "info": null,
    "iphone": {
        "psp": {
            "wrapping": 2
        }
    },
    "isvisible": true,
    "kuid": "a0b5d36a1f7c4ae694d97b1f87fc32bc",
    "name": "kony.ui.Label",
    "parent": "flxHeaderTitleContainer",
    "pf": "frmRewardsProfileStep1",
    "texti18n": "i18n.phone.rewardsprofile",
    "textstyle": {},
    "tooltip": "",
    "wType": "Label",
    "zindex": 1
}