{
    "@class": "com.kony.gen.viz.model.component.KVizTextBox2",
    "DNDConfig": null,
    "__parentReadjusting__": false,
    "_height_": {
        "type": "string",
        "value": "100%"
    },
    "_margin_": [
        0,
        0,
        0,
        0
    ],
    "_padding_": [
        3,
        0,
        0,
        0
    ],
    "_placeholder_": "PHONE",
    "_skin_": "s0e83e3fd29641948d4a7b716e2fbac5",
    "_text_": "",
    "_top_": {
        "type": "string",
        "value": "0dp"
    },
    "_width_": {
        "type": "string",
        "value": "100%"
    },
    "autocapitalize": "none",
    "autocomplete": false,
    "autocorrect": false,
    "autofilter": false,
    "canUpdateUI": true,
    "centerx": {
        "type": "string",
        "value": "50%"
    },
    "containerheight": "",
    "containerheightmode": 1,
    "containerweight": 100,
    "contentalignment": 4,
    "focusskin": "s0e83e3fd29641948d4a7b716e2fbac5",
    "id": "txtPhone",
    "info": null,
    "iphone": {
        "psp": {
            "showClearButton": true
        }
    },
    "isvisible": true,
    "keyboardstyle": "telpad",
    "keyboardtype": "A",
    "kuid": "e10e90cdb2764571bd0bdf874875c4a7",
    "maxtextlength": 10,
    "mode": "N",
    "name": "kony.ui.TextBox2",
    "parent": "flxMainContainer",
    "pf": "frmRewardsProfileStep1",
    "placeholderi18n": "i18.phone.rewards.phone",
    "placeholderskin": "s0e83e3fd29641948d4a7b716e2fbac5",
    "securetextentry": false,
    "textinputmode": "N",
    "viewtype": "default",
    "wType": "TextField",
    "zindex": 1
}