{
    "__parentReadjusting__": false,
    "_padding_": [
        0,
        0,
        0,
        0
    ],
    "_skin_": "sf6d137436284058a48358a2836e540d",
    "_srcKuid_": "c59a9ce0eab644cba6176d58d4330a69",
    "canUpdateUI": true,
    "context": {},
    "dataDiffs": {
        "centerX": {
            "type": "string",
            "value": "50%"
        },
        "height": {
            "type": "ref",
            "value": "preferred"
        },
        "id": "lblUtterence1",
        "left": {
            "type": "string",
            "value": "9%"
        },
        "text": "\"Show me oil paints\"",
        "textStyle": {},
        "top": {
            "type": "string",
            "value": "20%"
        },
        "width": {
            "type": "string",
            "value": "94%"
        },
        "zIndex": 1
    },
    "id": "lblUtterence1",
    "instanceOf": "c59a9ce0eab644cba6176d58d4330a69",
    "isvisible": true,
    "kuid": "m901c7c2afe746da961140cc4ed79359",
    "masterInstance": true,
    "name": "kony.ui.Label",
    "parent": "flxSampleUtterances",
    "pf": "frmWeeklyAdHome",
    "topLevelInstanceKUID": "m672c07c629340f8b8cc4c1549407cce",
    "wType": "Label"
}