{
    "DNDConfig": null,
    "__parentReadjusting__": false,
    "_height_": {
        "type": "ref",
        "value": "preferred"
    },
    "_left_": {
        "type": "string",
        "value": "0dp"
    },
    "_margin_": [
        0,
        0,
        0,
        0
    ],
    "_orientation_": 6,
    "_padding_": [
        0,
        0,
        0,
        0
    ],
    "_percent_": true,
    "_skin_": "s61886db45824820846e292717ca8077",
    "_top_": {
        "type": "string",
        "value": "0dp"
    },
    "_width_": {
        "type": "string",
        "value": "100%"
    },
    "allboxes": [],
    "autogrowmode": 1,
    "canUpdateUI": true,
    "children": [
        "btnFavorite",
        "flxStoreDetails",
        "flxStockInfo",
        "lblAvailability",
        "flxExpandDetailsNew",
        "lblTapToSelect"
    ],
    "clipbounds": true,
    "containerId": true,
    "containerweight": 100,
    "enablescrolling": true,
    "id": "flxStoreDetailsCollapse",
    "info": null,
    "isvisible": true,
    "kuid": "f8766dae8cfe4a21adc56fd9444fd818",
    "layouttype": 2,
    "name": "kony.ui.FlexContainer",
    "parent": "flxStoreDetailsNearby",
    "pf": "tempStoreDetailsCheckNearBy",
    "snapgridsize": 10,
    "snaptogrid": true,
    "wType": "FlexContainer",
    "widgetalignment": 1
}