{
    "__parentReadjusting__": false,
    "_padding_": [
        0,
        0,
        0,
        0
    ],
    "_skin_": "sb1971f0a0774fbda5ff14589c5df551",
    "_srcKuid_": "3d0703b2be834bbb91999d482b4c0606",
    "canUpdateUI": true,
    "context": {},
    "dataDiffs": {
        "centerX": {
            "type": "string",
            "value": "50%"
        },
        "centerY": {
            "type": "string",
            "value": "50%"
        },
        "height": {
            "type": "string",
            "value": "19dp"
        },
        "id": "imgSearchIcon",
        "imageScaleMode": 1,
        "src": "search_icon.png",
        "width": {
            "type": "string",
            "value": "23dp"
        },
        "zIndex": 1
    },
    "id": "imgSearchIcon",
    "instanceOf": "3d0703b2be834bbb91999d482b4c0606",
    "isvisible": true,
    "kuid": "m515f74f361044108d0b8a867362889f",
    "masterInstance": true,
    "name": "kony.ui.Image2",
    "parent": "flxSearchIcon",
    "pf": "frmProductCategoryMore",
    "topLevelInstanceKUID": "me61d0ccf2f641c48c71d95db179b420",
    "wType": "Image"
}