{
    "@class": "com.kony.gen.viz.model.component.KVizButton",
    "DNDConfig": null,
    "__parentReadjusting__": false,
    "_height_": {
        "type": "string",
        "value": "50dp"
    },
    "_left_": {
        "type": "string",
        "value": "5%"
    },
    "_margin_": [
        6,
        6,
        6,
        6
    ],
    "_padding_": [
        0,
        0,
        0,
        0
    ],
    "_right_": {
        "type": "string",
        "value": "5%"
    },
    "_skin_": "s890dcf50cc94a1799f89879995940b9",
    "_text_": "",
    "_top_": {
        "type": "string",
        "value": "0dp"
    },
    "_width_": {
        "type": "string",
        "value": "90%"
    },
    "canUpdateUI": true,
    "containerweight": 100,
    "contentalignment": 5,
    "displaytext": true,
    "focusskin": "s890dcf50cc94a1799f89879995940b9",
    "id": "btnGotIt",
    "info": null,
    "isvisible": true,
    "kuid": "0fdd9a6f7b9c43598053f791c5eb86b3",
    "name": "kony.ui.Button",
    "paddinginpixel": false,
    "parent": "flxGotIt",
    "pf": "frmHome",
    "texti18n": "i18n.phone.imageOverlay.popUpButtonText",
    "wType": "Button",
    "zindex": 1
}