{
    "@class": "com.kony.gen.viz.model.component.KVizButton",
    "DNDConfig": null,
    "__parentReadjusting__": false,
    "_height_": {
        "type": "string",
        "value": "100%"
    },
    "_left_": {
        "type": "string",
        "value": "0dp"
    },
    "_margin_": [
        6,
        6,
        6,
        6
    ],
    "_padding_": [
        0,
        0,
        0,
        0
    ],
    "_skin_": "s73eba82a75d45bd9058032cde34eb75",
    "_text_": "STORE MAP",
    "_top_": {
        "type": "string",
        "value": "0dp"
    },
    "_width_": {
        "type": "string",
        "value": "50%"
    },
    "canUpdateUI": true,
    "containerweight": 100,
    "contentalignment": 5,
    "displaytext": true,
    "focusskin": "s445dbfa2fb6495394b6c4cce418ea91",
    "id": "btnStoreMap",
    "info": null,
    "iphone": {
        "psp": {
            "showProgressIndicator": false
        }
    },
    "isvisible": true,
    "kuid": "7ebc0b3993e040e5b574c9f9b8354fa9",
    "name": "kony.ui.Button",
    "onclick": "AS_Button_bf55ad77e290434a954a5e9ca4df8d36",
    "parent": "flxStoreMapAndInfo",
    "pf": "frmHome",
    "texti18n": "i18n.phone.Common.btnStoreMap",
    "wType": "Button",
    "zindex": 1
}