{
    "__parentReadjusting__": false,
    "_skin_": "s61886db45824820846e292717ca8077",
    "_srcKuid_": "m97e3e29ca0840458d435b118e333279",
    "canUpdateUI": true,
    "children": [
        "flxHeader",
        "flxSearchContainer",
        "flxSearchShadow"
    ],
    "context": {},
    "dataDiffs": {
        "clipBounds": true,
        "enableScrolling": true,
        "height": {
            "type": "ref",
            "value": "preferred"
        },
        "id": "flxHeaderWrap",
        "layoutType": 2,
        "left": {
            "type": "string",
            "value": "0dp"
        },
        "snapGridSize": 10,
        "snapToGrid": true,
        "top": {
            "type": "string",
            "value": "0dp"
        },
        "width": {
            "type": "string",
            "value": "100%"
        },
        "zIndex": 7
    },
    "id": "flxHeaderWrap",
    "instanceOf": "m97e3e29ca0840458d435b118e333279",
    "isTopFlexInstance": true,
    "isvisible": true,
    "kuid": "m189378f277e40bc8eb93123919ee069",
    "layouttype": 2,
    "masterInstance": true,
    "name": "kony.ui.FlexContainer",
    "parent": "frmHome",
    "pf": "frmHome",
    "vizProps": {
        "hidewidgethierarchy": false
    },
    "wType": "FlexContainer"
}