{
    "__parentReadjusting__": false,
    "_padding_": [
        0,
        0,
        0,
        0
    ],
    "_right_": {
        "type": "string",
        "value": "0%"
    },
    "_skin_": "sdeda94bc5ff4a3baf50d5ea8cb9a66f",
    "_srcKuid_": "af8b9c4c34b04a098a572f85c55be522",
    "areflexpropsreferenced": true,
    "canUpdateUI": true,
    "children": [
        "flxOverlay",
        "flxCouponHeader",
        "flxCouponContents",
        "flxCouponDetailsPopup"
    ],
    "context": {},
    "dataDiffs": {
        "id": "flexCouponContainer"
    },
    "id": "flexCouponContainer",
    "instanceOf": "af8b9c4c34b04a098a572f85c55be522",
    "isTopFlexInstance": true,
    "isdatareferenced": true,
    "isvisible": true,
    "kuid": "m5f2dad8f3b2435f8303ec1795c88246",
    "masterInstance": true,
    "name": "kony.ui.FlexContainer",
    "parent": "frmMyAccount",
    "pf": "frmMyAccount",
    "vizProps": {
        "hidewidgethierarchy": false
    },
    "wType": "FlexContainer"
}