{
    "__parentReadjusting__": false,
    "_padding_": [
        0,
        0,
        0,
        0
    ],
    "_skin_": "s51e9312892845d9ac8e8a5f9c0bb37f",
    "_srcKuid_": "6ea2728ea1734fcd985d1356a4759743",
    "_width_": {
        "type": "string",
        "value": "45dp"
    },
    "areflexpropsreferenced": true,
    "canUpdateUI": true,
    "context": {},
    "dataDiffs": {
        "id": "btnPopupClose"
    },
    "id": "btnPopupClose",
    "instanceOf": "6ea2728ea1734fcd985d1356a4759743",
    "isdatareferenced": true,
    "isvisible": true,
    "kuid": "m686e35d67c74a3d8ffd9336dd939471",
    "masterInstance": true,
    "name": "kony.ui.Button",
    "parent": "flxCloseBtnWrap",
    "pf": "frmProjectsCategory",
    "topLevelInstanceKUID": "m0b9532d4ba84094b6088b80c7cd5cae",
    "wType": "Button"
}