{
    "__parentReadjusting__": false,
    "_padding_": [
        0,
        0,
        0,
        0
    ],
    "_skin_": "s83969b0bd9f4c6b9202df4eeaa19b08",
    "_srcKuid_": "c179c4e79a17416b8c49775edc23cc9e",
    "areflexpropsreferenced": true,
    "canUpdateUI": true,
    "children": [
        "imgBarcode"
    ],
    "context": {},
    "dataDiffs": {
        "id": "flxBarCodeWrap"
    },
    "id": "flxBarCodeWrap",
    "instanceOf": "c179c4e79a17416b8c49775edc23cc9e",
    "isdatareferenced": true,
    "isvisible": false,
    "kuid": "m5831d3885f34619904bcc2ba229ab91",
    "masterInstance": true,
    "name": "kony.ui.FlexContainer",
    "parent": "flxCouponRewards",
    "pf": "frmProjectsCategory",
    "topLevelInstanceKUID": "m0b9532d4ba84094b6088b80c7cd5cae",
    "wType": "FlexContainer"
}