{
    "__parentReadjusting__": false,
    "_padding_": [
        0,
        0,
        0,
        0
    ],
    "_skin_": "s1246c5398d54b2098984d38ceb23dd1",
    "_srcKuid_": "0d10213c802748b8b0aa91881abfa20c",
    "areflexpropsreferenced": true,
    "canUpdateUI": true,
    "children": [],
    "context": {},
    "dataDiffs": {
        "id": "flxOverlay"
    },
    "id": "flxOverlay",
    "instanceOf": "0d10213c802748b8b0aa91881abfa20c",
    "isdatareferenced": true,
    "isvisible": true,
    "kuid": "maea38377a29430186221f9b23b6da8e",
    "masterInstance": true,
    "name": "kony.ui.FlexContainer",
    "parent": "flexCouponContainer",
    "pf": "frmProjectsCategory",
    "topLevelInstanceKUID": "m0b9532d4ba84094b6088b80c7cd5cae",
    "wType": "FlexContainer"
}