{
    "__parentReadjusting__": false,
    "_padding_": [
        0,
        0,
        0,
        0
    ],
    "_skin_": "sc95763aaead4250b98834fcdba00ad0",
    "_srcKuid_": "m2be8ff55bc44ac9ad0ea186cb504f67",
    "canUpdateUI": true,
    "context": {},
    "dataDiffs": {
        "bottom": {
            "type": "string",
            "value": "5dp"
        },
        "centerX": {
            "type": "string",
            "value": "50%"
        },
        "height": {
            "type": "ref",
            "value": "preferred"
        },
        "i18n_text": "i18n.phone.masterFooter.lblWeeklyAd",
        "id": "lblWeeklyAd",
        "text": "Weekly Ad",
        "textStyle": {},
        "width": {
            "type": "string",
            "value": "100%"
        },
        "zIndex": 1
    },
    "id": "lblWeeklyAd",
    "instanceOf": "m2be8ff55bc44ac9ad0ea186cb504f67",
    "isvisible": true,
    "kuid": "m5a51b9e6a9443a1aa78aa8c705bb11f",
    "masterInstance": true,
    "name": "kony.ui.Label",
    "parent": "flxWeeklyAd",
    "pf": "frmProductCategoryMore",
    "topLevelInstanceKUID": "m606cba33de64bf18ffc08d1aee283af",
    "wType": "Label"
}