{
	"NSSpeechRecognitionUsageDescription" : "NSSpeechRecognitionUsageDescription",
    "NSMicrophoneUsageDescription" : "NSMicrophoneUsageDescription",
    "NSCameraUsageDescription":"NSCameraUsageDescription",
    "mixAudio":true,
    "NSLocationAlwaysUsageDescription":"NSLocationAlwaysUsageDescription",
    "NSLocationWhenInUseUsageDescription":"NSLocationWhenInUseUsageDescription",
    "NSLocationAlwaysAndWhenInUseUsageDescription" : "NSLocationAlwaysAndWhenInUseUsageDescription",
	"NSFaceIDUsageDescription":"NSFaceIDUsageDescription",
	"NSBluetoothPeripheralUsageDescription":"NSBluetoothPeripheralUsageDescription",
    "UIBackgroundModes": [
        "bluetooth-central",
        "bluetooth-peripheral",
        "location",
        "fetch",
        "remote-notification"
    ],
    "encoding":{
        "encodeImageURL" : false,
        "encodeNetAPI" : true,
        "encodeOpenURL" : true,
        "encodeRichTextURL" : false,
        "encodeUrlForBrowser" : false
    },
    "TealiumAccount":"michaels", 
    "TealiumEnvironment":"dev", //One of "dev", "qa" or "prod" value
    "TealiumProfile":"iosmik", 
    "CFBundleIconName":"AppIcon",
    "NSPhotoLibraryUsageDescription":"NSPhotoLibraryUsageDescription",
    "NSCalendarsUsageDescription":"Allow Michaels access to Calendars",
    "NSAppleMusicUsageDescription":"Allow Michaels access to Media Library to play sounds during Voice Search",
    "NSContactsUsageDescription":"Allow Michaels access to Contacts",
    "KONY_CAMERA":{
        "konyres_cancel_icon":"konyres_cancel_icon.png",
        "konyres_settings_icon":"konyres_settings_icon.png",
        "multiSnapMode":true
    },
	"FacebookAppID":"264256177534792",
	"FacebookDisplayName":"Michaels"
}
