{
    "@class": "com.kony.gen.viz.model.component.KVizSwitch",
    "DNDConfig": null,
    "__parentReadjusting__": false,
    "_height_": {
        "type": "string",
        "value": "26dp"
    },
    "_margin_": [
        0,
        0,
        0,
        0
    ],
    "_padding_": [
        0,
        0,
        0,
        0
    ],
    "_right_": {
        "type": "string",
        "value": "3%"
    },
    "_skin_": "sc6aa92b390e4573a867949efc29e470",
    "_top_": {
        "type": "string",
        "value": "0dp"
    },
    "_width_": {
        "type": "string",
        "value": "43dp"
    },
    "canUpdateUI": true,
    "centery": {
        "type": "string",
        "value": "50%"
    },
    "containerweight": 100,
    "id": "CopySwitch02182ca9db1e949",
    "info": null,
    "isvisible": true,
    "kiosk": {
        "render": false
    },
    "kuid": "848967ea8b384e9093197a45b4912cf9",
    "leftsidetext": "ON",
    "name": "kony.ui.Switch",
    "onslide": null,
    "osPlatform": "iphone",
    "osVersion": "iOS7",
    "parent": "CopyFlexContainer065db0f06273b43",
    "pf": "frmSettings",
    "rightsidetext": "OFF",
    "selectedindex": 1,
    "wType": "Switch",
    "widgetalignment": 5,
    "zindex": 1
}