{
    "__parentReadjusting__": false,
    "_padding_": [
        0,
        0,
        0,
        0
    ],
    "_skin_": "sb1971f0a0774fbda5ff14589c5df551",
    "_srcKuid_": "a5abb570e8fa458eacf55480178e86d6",
    "canUpdateUI": true,
    "context": {},
    "dataDiffs": {
        "centerX": {
            "type": "string",
            "value": "50%"
        },
        "centerY": {
            "type": "string",
            "value": "50%"
        },
        "height": {
            "type": "string",
            "value": "40%"
        },
        "id": "imgBack",
        "imageScaleMode": 0,
        "left": {
            "type": "string",
            "value": "0dp"
        },
        "src": "page.png",
        "top": {
            "type": "string",
            "value": "0dp"
        },
        "width": {
            "type": "string",
            "value": "40%"
        },
        "zIndex": 1
    },
    "id": "imgBack",
    "instanceOf": "a5abb570e8fa458eacf55480178e86d6",
    "isvisible": true,
    "kuid": "m7a155c82df94cae9a79103bb4760670",
    "masterInstance": true,
    "name": "kony.ui.Image2",
    "parent": "flexBack",
    "pf": "frmWeeklyAd",
    "topLevelInstanceKUID": "m551fec8b96e41d9be0f24bbcd5181c5",
    "wType": "Image"
}