{
    "__parentReadjusting__": false,
    "_padding_": [
        0,
        0,
        0,
        0
    ],
    "_srcKuid_": "24eda7dc6ca840df9845a48acc416fca",
    "areflexpropsreferenced": true,
    "canUpdateUI": true,
    "context": {},
    "dataDiffs": {
        "id": "segSearchResults"
    },
    "id": "segSearchResults",
    "instanceOf": "24eda7dc6ca840df9845a48acc416fca",
    "isdatareferenced": true,
    "isvisible": true,
    "kuid": "mef9c1ec7990492ea3eb4e63d53cb2e9",
    "masterInstance": true,
    "name": "kony.ui.SegmentedUI2",
    "parent": "flxSearchResultsContainer",
    "pf": "frmProductsList",
    "selectedState": false,
    "topLevelInstanceKUID": "m20356f0423a4c6cb7dbe76b32815adb",
    "wType": "Segment"
}