{
    "_skin_": "s13f0108436944fbb4edc3193dce2286",
    "_srcKuid_": "36b165d4bdd84516af9ef03a2316d200",
    "canUpdateUI": true,
    "context": {},
    "dataDiffs": {
        "centerX": {
            "type": "string",
            "value": "44%"
        },
        "centerY": {
            "type": "string",
            "value": "48%"
        },
        "height": {
            "type": "string",
            "value": "19dp"
        },
        "id": "cmrImageSearch",
        "right": {
            "type": "string",
            "value": "11%"
        },
        "text": "",
        "top": {
            "type": "string",
            "value": "9dp"
        },
        "width": {
            "type": "string",
            "value": "23dp"
        },
        "zIndex": 1
    },
    "id": "cmrImageSearch",
    "instanceOf": "36b165d4bdd84516af9ef03a2316d200",
    "isvisible": true,
    "kuid": "m7b58464c32f481abd02eaa76201a0fe",
    "masterInstance": true,
    "name": "kony.ui.Camera",
    "parent": "flxCameraContainer",
    "pf": "frmShoppingList",
    "topLevelInstanceKUID": "mc2efc532bb447a295d2d890e695ab4b",
    "wType": "Camera"
}