{
    "__parentReadjusting__": false,
    "_padding_": [
        0,
        0,
        0,
        20
    ],
    "_skin_": "s78034944caa468192d0bb4be07545dc",
    "_srcKuid_": "me9f3d5cae44452b8f3b0528f2bbfdd0",
    "canUpdateUI": true,
    "context": {},
    "dataDiffs": {
        "height": {
            "type": "string",
            "value": "100%"
        },
        "id": "btnStoreMap",
        "left": {
            "type": "string",
            "value": "0dp"
        },
        "text": "N",
        "top": {
            "type": "string",
            "value": "0dp"
        },
        "width": {
            "type": "string",
            "value": "100%"
        },
        "zIndex": 1
    },
    "id": "btnStoreMap",
    "instanceOf": "me9f3d5cae44452b8f3b0528f2bbfdd0",
    "isvisible": true,
    "kuid": "m797c761f8d549b78ce35e395a29cb92",
    "masterInstance": true,
    "name": "kony.ui.Button",
    "parent": "flxStoreMap",
    "pf": "frmProductsList",
    "topLevelInstanceKUID": "m6e3a5e17f1e4673be6ef1dacfdb53fb",
    "wType": "Button"
}