{
    "__parentReadjusting__": false,
    "_padding_": [
        0,
        0,
        0,
        0
    ],
    "_skin_": "s333acccac434cb3955b036df5870dd2",
    "_srcKuid_": "da753bf0a3aa4ed289ea4a97b6c245eb",
    "areflexpropsreferenced": true,
    "canUpdateUI": true,
    "centerx": {
        "type": "string",
        "value": "50%"
    },
    "children": [
        "flxCouponDetailsScroll"
    ],
    "context": {},
    "dataDiffs": {
        "id": "flxCouponDetailsPopup"
    },
    "id": "flxCouponDetailsPopup",
    "instanceOf": "da753bf0a3aa4ed289ea4a97b6c245eb",
    "isdatareferenced": true,
    "isvisible": false,
    "kuid": "mc72676f54f142ddbe694769165f38a3",
    "masterInstance": true,
    "name": "kony.ui.FlexContainer",
    "parent": "flexCouponContainer",
    "pf": "frmMore",
    "topLevelInstanceKUID": "mb48d3384a3146848028c462a79dd193",
    "wType": "FlexContainer"
}