{
    "__parentReadjusting__": false,
    "_padding_": [
        0,
        0,
        0,
        0
    ],
    "_skin_": "sb1507d0a0254310b90f066d847fec2e",
    "_srcKuid_": "3c4d0073184b42979a773cf82dc6ed69",
    "areflexpropsreferenced": true,
    "canUpdateUI": true,
    "children": [],
    "context": {},
    "dataDiffs": {
        "id": "flxSeparatorLine"
    },
    "id": "flxSeparatorLine",
    "instanceOf": "3c4d0073184b42979a773cf82dc6ed69",
    "isdatareferenced": true,
    "isvisible": true,
    "kuid": "mf2a675ea0d44c79920e3f2e06d302f6",
    "masterInstance": true,
    "name": "kony.ui.FlexContainer",
    "parent": "flxCouponHeader",
    "pf": "frmMore",
    "topLevelInstanceKUID": "mb48d3384a3146848028c462a79dd193",
    "wType": "FlexContainer"
}