{
    "__parentReadjusting__": false,
    "_padding_": [
        0,
        0,
        0,
        0
    ],
    "_skin_": "s1ce8cae3a554592802044756daad611",
    "_srcKuid_": "b22d5fb61f45409e8ec5a134e88fdf09",
    "areflexpropsreferenced": true,
    "canUpdateUI": true,
    "context": {},
    "dataDiffs": {
        "id": "lblCouponTitle"
    },
    "id": "lblCouponTitle",
    "instanceOf": "b22d5fb61f45409e8ec5a134e88fdf09",
    "isdatareferenced": true,
    "isvisible": true,
    "kuid": "mba910fcda224febaa202340cef8fa3d",
    "masterInstance": true,
    "name": "kony.ui.Label",
    "parent": "flxCouponHeader",
    "pf": "frmMore",
    "topLevelInstanceKUID": "mb48d3384a3146848028c462a79dd193",
    "wType": "Label"
}