{
    "__parentReadjusting__": false,
    "_padding_": [
        0,
        0,
        0,
        0
    ],
    "_skin_": "sf7f906c705c4d82ace0d0ddee214486",
    "_srcKuid_": "53db1dd2c11b4534b371f7b848957c37",
    "areflexpropsreferenced": true,
    "canUpdateUI": true,
    "context": {},
    "dataDiffs": {
        "id": "lblOfferSubTitleRestrictions"
    },
    "id": "lblOfferSubTitleRestrictions",
    "instanceOf": "53db1dd2c11b4534b371f7b848957c37",
    "isdatareferenced": true,
    "isvisible": true,
    "kuid": "mc0d621d5641459daaece927e5a35379",
    "masterInstance": true,
    "name": "kony.ui.Label",
    "parent": "flexInner1",
    "pf": "frmMore",
    "topLevelInstanceKUID": "mb48d3384a3146848028c462a79dd193",
    "wType": "Label"
}