{
    "__parentReadjusting__": false,
    "_padding_": [
        0,
        0,
        0,
        0
    ],
    "_skin_": "s97663bbb8ed49489429f77954052d3a",
    "_srcKuid_": "d11d44ca50224bca814434001965bd29",
    "areflexpropsreferenced": true,
    "canUpdateUI": true,
    "context": {},
    "dataDiffs": {
        "id": "lblPromoCodeRestrictions"
    },
    "id": "lblPromoCodeRestrictions",
    "instanceOf": "d11d44ca50224bca814434001965bd29",
    "isdatareferenced": true,
    "isvisible": true,
    "kuid": "m96719d0f8ec4be69bf027cbb3091799",
    "masterInstance": true,
    "name": "kony.ui.Label",
    "parent": "flexInner1",
    "pf": "frmMore",
    "topLevelInstanceKUID": "mb48d3384a3146848028c462a79dd193",
    "wType": "Label"
}