{
    "__parentReadjusting__": false,
    "_padding_": [
        0,
        0,
        0,
        0
    ],
    "_skin_": "s237066b81ec44b691920d4bc6949f69",
    "_srcKuid_": "3b54052916d34ba998995213ecc7b8a2",
    "areflexpropsreferenced": true,
    "canUpdateUI": true,
    "context": {},
    "dataDiffs": {
        "id": "lblRewardText"
    },
    "id": "lblRewardText",
    "instanceOf": "3b54052916d34ba998995213ecc7b8a2",
    "isdatareferenced": true,
    "isvisible": true,
    "kuid": "mc4a4692104741d8ab978cf02ecddfae",
    "masterInstance": true,
    "name": "kony.ui.Label",
    "parent": "flxRewardTxt",
    "pf": "frmMore",
    "topLevelInstanceKUID": "mb48d3384a3146848028c462a79dd193",
    "wType": "Label"
}