{
    "__parentReadjusting__": false,
    "_padding_": [
        0,
        0,
        0,
        0
    ],
    "_skin_": "sf6d137436284058a48358a2836e540d",
    "_srcKuid_": "d1096766cc4345ffac2330704ab78892",
    "canUpdateUI": true,
    "context": {},
    "dataDiffs": {
        "centerX": {
            "type": "string",
            "value": "50%"
        },
        "height": {
            "type": "ref",
            "value": "preferred"
        },
        "id": "lblUtterenace2",
        "left": {
            "type": "string",
            "value": "9%"
        },
        "text": "\"Show me Craft Projects\"",
        "textStyle": {},
        "top": {
            "type": "string",
            "value": "40.70%"
        },
        "width": {
            "type": "string",
            "value": "94%"
        },
        "zIndex": 1
    },
    "id": "lblUtterenace2",
    "instanceOf": "d1096766cc4345ffac2330704ab78892",
    "isvisible": true,
    "kuid": "m206cba1c55249a786f53da83847bb14",
    "masterInstance": true,
    "name": "kony.ui.Label",
    "parent": "flxSampleUtterances",
    "pf": "frmProjectsList",
    "topLevelInstanceKUID": "m2ddb8e51fac4c49a95a12f874aa5ba9",
    "wType": "Label"
}